%!PS-Adobe-3.0 EPSF-3.0
%%BoundingBox: 134 364 490 660
%%Creator: hjf with JaxoDraw-2.1-0
%%Title: 
%%CreationDate: 16/9/2013
%%BeginProlog
/imStr 0 def /imageSrc {currentfile /ASCII85Decode filter /RunLengthDecode filter  imStr readstring pop } def
/BD {bind def} bind def
/D {def} BD
/C {curveto} BD
/L {lineto} BD
/M {moveto} BD
/R {grestore} BD
/G {gsave} BD
/N {newpath} BD
/P {closepath} BD
/EC {eoclip} BD
/WC {clip} BD
/EF {eofill} BD
/WF {fill} BD
/SG {setgray} BD
/SC {setrgbcolor} BD
/ISOF {
     dup findfont dup length 1 add dict begin {
             1 index /FID eq {pop pop} {D} ifelse
     } forall /Encoding ISOLatin1Encoding D
     currentdict end definefont
} BD
/NZ {dup 1 lt {pop 1} if} BD
/S {
     moveto 1 index stringwidth pop NZ sub
     1 index length 1 sub NZ div 0
     3 2 roll ashow newpath} BD
/FL [
    /AvantGarde-Book ISOF
    /AvantGarde-BookOblique ISOF
    /AvantGarde-Demi ISOF
    /AvantGarde-DemiOblique ISOF
    /Bookman-Demi ISOF
    /Bookman-DemiItalic ISOF
    /Bookman-Light ISOF
    /Bookman-LightItalic ISOF
    /Courier ISOF
    /Courier-Bold ISOF
    /Courier-BoldOblique ISOF
    /Courier-Oblique ISOF
    /Helvetica ISOF
    /Helvetica-Bold ISOF
    /Helvetica-BoldOblique ISOF
    /Helvetica-Narrow ISOF
    /Helvetica-Narrow-Bold ISOF
    /Helvetica-Narrow-BoldOblique ISOF
    /Helvetica-Narrow-Oblique ISOF
    /Helvetica-Oblique ISOF
    /NewCenturySchlbk-Bold ISOF
    /NewCenturySchlbk-BoldItalic ISOF
    /NewCenturySchlbk-Italic ISOF
    /NewCenturySchlbk-Roman ISOF
    /Palatino-Bold ISOF
    /Palatino-BoldItalic ISOF
    /Palatino-Italic ISOF
    /Palatino-Roman ISOF
    /Symbol findfont
    /Times-Bold ISOF
    /Times-BoldItalic ISOF
    /Times-Italic ISOF
    /Times-Roman ISOF
    /ZapfDingbats findfont
    /ZapfChancery-MediumItalic ISOF
] D
/F {
     FL exch get exch scalefont
     [1 0 0 -1 0 0] makefont setfont} BD
%%EndProlog
%%BeginSetup
<< /PageSize [612.0 792.0] /DeferredMediaSelection true /ImagingBBox null /ManualFeed false /NumCopies 1 >> pop 
%%EndSetup
%%Page: 1 1
/pgSave save def
792.0 0 exch translate 1 -1 scale[72 300 div 0 0 72 300 div 0 0]concat
G
[4.1666665 0.0 0.0 4.1666665 300.0 300.0] concat
N
0.0 0.0 M
468.0 0.0 L
468.0 648.0 L
0.0 648.0 L
0.0 0.0 L
P
WC
N
127.25 291.0 M
127.25 291.0 L
135.25 285.0 L
135.802 284.586 136.586 284.698 137.0 285.25 C
137.414 285.802 137.302 286.586 136.75 287.0 C
136.75 287.0 L
128.75 293.0 L
128.198 293.414 127.414 293.302 127.0 292.75 C
126.586 292.198 126.698 291.414 127.25 291.0 C
P
143.25 279.0 M
143.25 279.0 L
151.25 273.0 L
151.802 272.586 152.586 272.698 153.0 273.25 C
153.414 273.802 153.302 274.586 152.75 275.0 C
152.75 275.0 L
144.75 281.0 L
144.198 281.414 143.414 281.302 143.0 280.75 C
142.586 280.198 142.698 279.414 143.25 279.0 C
P
159.25 267.0 M
159.25 267.0 L
167.25 261.0 L
167.802 260.586 168.586 260.698 169.0 261.25 C
169.414 261.802 169.302 262.586 168.75 263.0 C
168.75 263.0 L
160.75 269.0 L
160.198 269.414 159.414 269.302 159.0 268.75 C
158.586 268.198 158.698 267.414 159.25 267.0 C
P
175.25 255.0 M
175.25 255.0 L
183.25 249.0 L
183.802 248.586 184.586 248.698 185.0 249.25 C
185.414 249.802 185.302 250.586 184.75 251.0 C
184.75 251.0 L
176.75 257.0 L
176.198 257.414 175.414 257.302 175.0 256.75 C
174.586 256.198 174.698 255.414 175.25 255.0 C
P
191.25 243.0 M
191.25 243.0 L
199.25 237.0 L
199.802 236.586 200.586 236.698 201.0 237.25 C
201.414 237.802 201.302 238.586 200.75 239.0 C
200.75 239.0 L
192.75 245.0 L
192.198 245.414 191.414 245.302 191.0 244.75 C
190.586 244.198 190.698 243.414 191.25 243.0 C
P
207.25 231.0 M
207.25 231.0 L
215.25 225.0 L
215.802 224.586 216.586 224.698 217.0 225.25 C
217.414 225.802 217.302 226.586 216.75 227.0 C
216.75 227.0 L
208.75 233.0 L
208.198 233.414 207.414 233.302 207.0 232.75 C
206.586 232.198 206.698 231.414 207.25 231.0 C
P
223.25 219.0 M
223.25 219.0 L
231.25 213.0 L
231.802 212.586 232.586 212.698 233.0 213.25 C
233.414 213.802 233.302 214.586 232.75 215.0 C
232.75 215.0 L
224.75 221.0 L
224.198 221.414 223.414 221.302 223.0 220.75 C
222.586 220.198 222.698 219.414 223.25 219.0 C
P
111.25 303.0 M
111.25 303.0 L
119.25 297.0 L
119.802 296.586 120.586 296.698 121.0 297.25 C
121.414 297.802 121.302 298.586 120.75 299.0 C
120.75 299.0 L
112.75 305.0 L
112.198 305.414 111.414 305.302 111.0 304.75 C
110.586 304.198 110.698 303.414 111.25 303.0 C
P
G
WC
WF
R N
N
352.75 125.0 M
352.75 125.0 L
344.75 131.0 L
344.198 131.414 343.414 131.302 343.0 130.75 C
342.586 130.198 342.698 129.414 343.25 129.0 C
343.25 129.0 L
351.25 123.0 L
351.802 122.586 352.586 122.698 353.0 123.25 C
353.414 123.802 353.302 124.586 352.75 125.0 C
P
336.75 137.0 M
336.75 137.0 L
328.75 143.0 L
328.198 143.414 327.414 143.302 327.0 142.75 C
326.586 142.198 326.698 141.414 327.25 141.0 C
327.25 141.0 L
335.25 135.0 L
335.802 134.586 336.586 134.698 337.0 135.25 C
337.414 135.802 337.302 136.586 336.75 137.0 C
P
320.75 149.0 M
320.75 149.0 L
312.75 155.0 L
312.198 155.414 311.414 155.302 311.0 154.75 C
310.586 154.198 310.698 153.414 311.25 153.0 C
311.25 153.0 L
319.25 147.0 L
319.802 146.586 320.586 146.698 321.0 147.25 C
321.414 147.802 321.302 148.586 320.75 149.0 C
P
304.75 161.0 M
304.75 161.0 L
296.75 167.0 L
296.198 167.414 295.414 167.302 295.0 166.75 C
294.586 166.198 294.698 165.414 295.25 165.0 C
295.25 165.0 L
303.25 159.0 L
303.802 158.586 304.586 158.698 305.0 159.25 C
305.414 159.802 305.302 160.586 304.75 161.0 C
P
288.75 173.0 M
288.75 173.0 L
280.75 179.0 L
280.198 179.414 279.414 179.302 279.0 178.75 C
278.586 178.198 278.698 177.414 279.25 177.0 C
279.25 177.0 L
287.25 171.0 L
287.802 170.586 288.586 170.698 289.0 171.25 C
289.414 171.802 289.302 172.586 288.75 173.0 C
P
272.75 185.0 M
272.75 185.0 L
264.75 191.0 L
264.198 191.414 263.414 191.302 263.0 190.75 C
262.586 190.198 262.698 189.414 263.25 189.0 C
263.25 189.0 L
271.25 183.0 L
271.802 182.586 272.586 182.698 273.0 183.25 C
273.414 183.802 273.302 184.586 272.75 185.0 C
P
256.75 197.0 M
256.75 197.0 L
248.75 203.0 L
248.198 203.414 247.414 203.302 247.0 202.75 C
246.586 202.198 246.698 201.414 247.25 201.0 C
247.25 201.0 L
255.25 195.0 L
255.802 194.586 256.586 194.698 257.0 195.25 C
257.414 195.802 257.302 196.586 256.75 197.0 C
P
368.75 113.0 M
368.75 113.0 L
360.75 119.0 L
360.198 119.414 359.414 119.302 359.0 118.75 C
358.586 118.198 358.698 117.414 359.25 117.0 C
359.25 117.0 L
367.25 111.0 L
367.802 110.586 368.586 110.698 369.0 111.25 C
369.414 111.802 369.302 112.586 368.75 113.0 C
P
G
WC
WF
R N
N
351.25 293.0 M
351.25 293.0 L
343.25 287.0 L
342.698 286.586 342.586 285.802 343.0 285.25 C
343.414 284.698 344.198 284.586 344.75 285.0 C
344.75 285.0 L
352.75 291.0 L
353.302 291.414 353.414 292.198 353.0 292.75 C
352.586 293.302 351.802 293.414 351.25 293.0 C
P
335.25 281.0 M
335.25 281.0 L
327.25 275.0 L
326.698 274.586 326.586 273.802 327.0 273.25 C
327.414 272.698 328.198 272.586 328.75 273.0 C
328.75 273.0 L
336.75 279.0 L
337.302 279.414 337.414 280.198 337.0 280.75 C
336.586 281.302 335.802 281.414 335.25 281.0 C
P
319.25 269.0 M
319.25 269.0 L
311.25 263.0 L
310.698 262.586 310.586 261.802 311.0 261.25 C
311.414 260.698 312.198 260.586 312.75 261.0 C
312.75 261.0 L
320.75 267.0 L
321.302 267.414 321.414 268.198 321.0 268.75 C
320.586 269.302 319.802 269.414 319.25 269.0 C
P
303.25 257.0 M
303.25 257.0 L
295.25 251.0 L
294.698 250.586 294.586 249.802 295.0 249.25 C
295.414 248.698 296.198 248.586 296.75 249.0 C
296.75 249.0 L
304.75 255.0 L
305.302 255.414 305.414 256.198 305.0 256.75 C
304.586 257.302 303.802 257.414 303.25 257.0 C
P
287.25 245.0 M
287.25 245.0 L
279.25 239.0 L
278.698 238.586 278.586 237.802 279.0 237.25 C
279.414 236.698 280.198 236.586 280.75 237.0 C
280.75 237.0 L
288.75 243.0 L
289.302 243.414 289.414 244.198 289.0 244.75 C
288.586 245.302 287.802 245.414 287.25 245.0 C
P
271.25 233.0 M
271.25 233.0 L
263.25 227.0 L
262.698 226.586 262.586 225.802 263.0 225.25 C
263.414 224.698 264.198 224.586 264.75 225.0 C
264.75 225.0 L
272.75 231.0 L
273.302 231.414 273.414 232.198 273.0 232.75 C
272.586 233.302 271.802 233.414 271.25 233.0 C
P
255.25 221.0 M
255.25 221.0 L
247.25 215.0 L
246.698 214.586 246.586 213.802 247.0 213.25 C
247.414 212.698 248.198 212.586 248.75 213.0 C
248.75 213.0 L
256.75 219.0 L
257.302 219.414 257.414 220.198 257.0 220.75 C
256.586 221.302 255.802 221.414 255.25 221.0 C
P
367.25 305.0 M
367.25 305.0 L
359.25 299.0 L
358.698 298.586 358.586 297.802 359.0 297.25 C
359.414 296.698 360.198 296.586 360.75 297.0 C
360.75 297.0 L
368.75 303.0 L
369.302 303.414 369.414 304.198 369.0 304.75 C
368.586 305.302 367.802 305.414 367.25 305.0 C
P
G
WC
WF
R N
N
128.75 123.0 M
128.75 123.0 L
136.75 129.0 L
137.302 129.414 137.414 130.198 137.0 130.75 C
136.586 131.302 135.802 131.414 135.25 131.0 C
135.25 131.0 L
127.25 125.0 L
126.698 124.586 126.586 123.802 127.0 123.25 C
127.414 122.698 128.198 122.586 128.75 123.0 C
P
144.75 135.0 M
144.75 135.0 L
152.75 141.0 L
153.302 141.414 153.414 142.198 153.0 142.75 C
152.586 143.302 151.802 143.414 151.25 143.0 C
151.25 143.0 L
143.25 137.0 L
142.698 136.586 142.586 135.802 143.0 135.25 C
143.414 134.698 144.198 134.586 144.75 135.0 C
P
160.75 147.0 M
160.75 147.0 L
168.75 153.0 L
169.302 153.414 169.414 154.198 169.0 154.75 C
168.586 155.302 167.802 155.414 167.25 155.0 C
167.25 155.0 L
159.25 149.0 L
158.698 148.586 158.586 147.802 159.0 147.25 C
159.414 146.698 160.198 146.586 160.75 147.0 C
P
176.75 159.0 M
176.75 159.0 L
184.75 165.0 L
185.302 165.414 185.414 166.198 185.0 166.75 C
184.586 167.302 183.802 167.414 183.25 167.0 C
183.25 167.0 L
175.25 161.0 L
174.698 160.586 174.586 159.802 175.0 159.25 C
175.414 158.698 176.198 158.586 176.75 159.0 C
P
192.75 171.0 M
192.75 171.0 L
200.75 177.0 L
201.302 177.414 201.414 178.198 201.0 178.75 C
200.586 179.302 199.802 179.414 199.25 179.0 C
199.25 179.0 L
191.25 173.0 L
190.698 172.586 190.586 171.802 191.0 171.25 C
191.414 170.698 192.198 170.586 192.75 171.0 C
P
208.75 183.0 M
208.75 183.0 L
216.75 189.0 L
217.302 189.414 217.414 190.198 217.0 190.75 C
216.586 191.302 215.802 191.414 215.25 191.0 C
215.25 191.0 L
207.25 185.0 L
206.698 184.586 206.586 183.802 207.0 183.25 C
207.414 182.698 208.198 182.586 208.75 183.0 C
P
224.75 195.0 M
224.75 195.0 L
232.75 201.0 L
233.302 201.414 233.414 202.198 233.0 202.75 C
232.586 203.302 231.802 203.414 231.25 203.0 C
231.25 203.0 L
223.25 197.0 L
222.698 196.586 222.586 195.802 223.0 195.25 C
223.414 194.698 224.198 194.586 224.75 195.0 C
P
112.75 111.0 M
112.75 111.0 L
120.75 117.0 L
121.302 117.414 121.414 118.198 121.0 118.75 C
120.586 119.302 119.802 119.414 119.25 119.0 C
119.25 119.0 L
111.25 113.0 L
110.698 112.586 110.586 111.802 111.0 111.25 C
111.414 110.698 112.198 110.586 112.75 111.0 C
P
G
WC
WF
R N
0.88235295 SG
N
280.0 208.0 M
280.0 225.673 262.091 240.0 240.0 240.0 C
217.909 240.0 200.0 225.673 200.0 208.0 C
200.0 190.327 217.909 176.0 240.0 176.0 C
262.091 176.0 280.0 190.327 280.0 208.0 C
P
G
WC
WF
R N
0.0 SG
N
280.05 208.0 M
280.05 208.0 L
280.05 225.711 262.108 240.05 240.0 240.05 C
240.0 240.0 L
240.0 240.05 L
217.892 240.05 199.95 225.711 199.95 208.0 C
200.0 208.0 L
199.95 208.0 L
199.95 190.289 217.892 175.95 240.0 175.95 C
240.0 176.0 L
240.0 175.95 L
262.108 175.95 280.05 190.289 280.05 208.0 C
280.0 208.0 L
280.05 208.0 L
279.95 208.0 M
279.95 208.0 L
279.95 190.364 262.075 176.05 240.0 176.05 C
240.0 176.05 L
217.925 176.05 200.05 190.364 200.05 208.0 C
200.05 208.0 L
200.05 225.636 217.925 239.95 240.0 239.95 C
240.0 239.95 L
262.075 239.95 279.95 225.636 279.95 208.0 C
P
G
WC
WF
R N
N
63.333 62.943 M
63.333 62.943 L
67.148 60.536 72.835 60.461 78.587 66.213 C
77.703 67.097 L
78.587 66.213 L
83.931 71.556 82.366 77.848 79.004 81.21 C
79.004 81.21 L
76.577 83.637 72.607 84.981 69.813 82.187 C
70.697 81.303 L
69.813 82.187 L
67.22 79.595 68.19 75.937 70.488 73.639 C
70.488 73.639 L
74.1 70.027 81.302 68.928 88.187 75.813 C
87.303 76.697 L
88.187 75.813 L
95.072 82.698 93.973 89.9 90.361 93.512 C
90.361 93.512 L
88.063 95.81 84.405 96.78 81.813 94.187 C
82.697 93.303 L
81.813 94.187 L
79.22 91.595 80.19 87.937 82.488 85.639 C
82.488 85.639 L
86.1 82.027 93.302 80.928 100.187 87.813 C
99.303 88.697 L
100.187 87.813 L
107.072 94.698 105.973 101.9 102.361 105.512 C
102.361 105.512 L
100.063 107.81 96.405 108.78 93.813 106.187 C
94.697 105.303 L
93.813 106.187 L
91.019 103.393 92.363 99.423 94.79 96.996 C
94.79 96.996 L
98.152 93.634 104.444 92.069 109.787 97.413 C
111.834 99.46 L
109.787 97.413 L
115.539 103.165 115.464 108.852 113.057 112.667 C
112.39 113.724 L
110.276 112.39 L
110.943 111.333 L
112.639 108.644 113.067 104.228 108.019 99.181 C
108.903 98.297 L
108.019 99.181 L
103.821 94.982 99.121 96.2 96.557 98.764 C
96.557 98.764 L
94.51 100.811 94.268 103.107 95.581 104.419 C
97.226 106.065 L
95.581 104.419 L
96.803 105.642 98.824 105.514 100.593 103.744 C
100.593 103.744 L
103.092 101.245 104.47 95.631 98.419 89.581 C
98.419 89.581 L
98.419 89.581 L
92.369 83.53 86.755 84.908 84.256 87.407 C
84.256 87.407 L
82.486 89.176 82.358 91.197 83.581 92.419 C
83.581 92.419 L
83.581 92.419 L
84.803 93.642 86.824 93.514 88.593 91.744 C
88.593 91.744 L
91.092 89.245 92.47 83.631 86.419 77.581 C
85.906 77.068 L
86.419 77.581 L
80.369 71.53 74.755 72.908 72.256 75.407 C
72.256 75.407 L
70.486 77.176 70.358 79.197 71.581 80.419 C
71.832 80.671 L
71.581 80.419 L
72.893 81.732 75.189 81.49 77.236 79.443 C
77.236 79.443 L
79.8 76.879 81.018 72.179 76.819 67.981 C
76.819 67.981 L
76.819 67.981 L
71.772 62.933 67.356 63.361 64.667 65.057 C
63.61 65.724 L
62.276 63.61 L
P
G
WC
WF
R N
N
113.057 303.333 M
113.057 303.333 L
115.464 307.148 115.539 312.835 109.787 318.587 C
110.867 317.507 L
109.787 318.587 L
104.444 323.931 98.152 322.366 94.79 319.004 C
94.79 319.004 L
92.363 316.577 91.019 312.607 93.813 309.813 C
93.648 309.977 L
93.813 309.813 L
96.405 307.22 100.063 308.19 102.361 310.488 C
102.361 310.488 L
105.973 314.1 107.072 321.302 100.187 328.187 C
99.937 328.438 L
100.187 328.187 L
93.302 335.072 86.1 333.973 82.488 330.361 C
82.488 330.361 L
80.19 328.063 79.22 324.405 81.813 321.813 C
81.69 321.935 L
81.813 321.813 L
84.405 319.22 88.063 320.19 90.361 322.488 C
90.361 322.488 L
93.973 326.1 95.072 333.302 88.187 340.187 C
88.514 339.861 L
88.187 340.187 L
81.302 347.072 74.1 345.973 70.488 342.361 C
70.488 342.361 L
68.19 340.063 67.22 336.405 69.813 333.813 C
69.69 333.935 L
69.813 333.813 L
72.607 331.019 76.577 332.363 79.004 334.79 C
79.004 334.79 L
82.366 338.152 83.931 344.444 78.587 349.787 C
77.703 348.903 L
78.587 349.787 L
72.835 355.54 67.148 355.464 63.333 353.057 C
62.276 352.39 L
63.61 350.276 L
64.667 350.943 L
67.356 352.639 71.772 353.067 76.819 348.019 C
74.536 350.303 L
76.819 348.019 L
81.018 343.821 79.8 339.121 77.236 336.557 C
77.236 336.557 L
75.189 334.51 72.893 334.268 71.581 335.581 C
70.697 334.697 L
71.581 335.581 L
70.358 336.803 70.486 338.824 72.256 340.593 C
72.256 340.593 L
74.755 343.092 80.369 344.47 86.419 338.419 C
87.303 339.303 L
86.419 338.419 L
92.47 332.369 91.092 326.755 88.593 324.256 C
88.593 324.256 L
86.824 322.486 84.803 322.358 83.581 323.581 C
82.697 322.697 L
83.581 323.581 L
82.358 324.803 82.486 326.824 84.256 328.593 C
84.256 328.593 L
86.755 331.092 92.369 332.47 98.419 326.419 C
99.303 327.303 L
98.419 326.419 L
104.47 320.369 103.092 314.755 100.593 312.256 C
100.593 312.256 L
98.824 310.486 96.803 310.358 95.581 311.581 C
94.697 310.697 L
95.581 311.581 L
94.268 312.893 94.51 315.189 96.557 317.236 C
96.557 317.236 L
99.121 319.8 103.821 321.018 108.019 316.819 C
108.903 317.703 L
108.019 316.819 L
113.067 311.772 112.639 307.356 110.943 304.667 C
110.276 303.61 L
112.39 302.276 L
P
G
WC
WF
R N
N
366.943 112.667 M
366.943 112.667 L
364.536 108.852 364.46 103.165 370.213 97.413 C
371.097 98.297 L
370.213 97.413 L
375.556 92.069 381.848 93.634 385.21 96.996 C
385.21 96.996 L
387.637 99.423 388.981 103.393 386.187 106.187 C
386.249 106.125 L
386.187 106.187 L
383.595 108.78 379.937 107.81 377.639 105.512 C
377.639 105.512 L
374.027 101.9 372.928 94.698 379.813 87.813 C
378.833 88.792 L
379.813 87.813 L
386.698 80.928 393.9 82.027 397.512 85.639 C
397.512 85.639 L
399.81 87.937 400.78 91.595 398.187 94.187 C
398.249 94.125 L
398.187 94.187 L
395.595 96.78 391.937 95.81 389.639 93.512 C
389.639 93.512 L
386.027 89.9 384.928 82.698 391.813 75.813 C
392.697 76.697 L
391.813 75.813 L
398.698 68.928 405.9 70.027 409.512 73.639 C
409.512 73.639 L
411.81 75.937 412.78 79.595 410.187 82.187 C
410.352 82.023 L
410.187 82.187 L
407.393 84.981 403.423 83.637 400.996 81.21 C
400.996 81.21 L
397.634 77.848 396.069 71.556 401.413 66.213 C
399.738 67.887 L
401.413 66.213 L
407.165 60.461 412.852 60.536 416.667 62.943 C
417.724 63.61 L
416.39 65.724 L
415.333 65.057 L
412.644 63.361 408.228 62.933 403.181 67.981 C
402.297 67.097 L
403.181 67.981 L
398.982 72.179 400.2 76.879 402.764 79.443 C
402.764 79.443 L
404.811 81.49 407.107 81.732 408.419 80.419 C
409.303 81.303 L
408.419 80.419 L
409.642 79.197 409.514 77.176 407.744 75.407 C
407.744 75.407 L
405.245 72.908 399.632 71.53 393.581 77.581 C
393.917 77.244 L
393.581 77.581 L
387.53 83.631 388.908 89.245 391.407 91.744 C
391.407 91.744 L
393.176 93.514 395.197 93.642 396.419 92.419 C
397.303 93.303 L
396.419 92.419 L
397.642 91.197 397.514 89.176 395.744 87.407 C
395.744 87.407 L
393.245 84.908 387.631 83.53 381.581 89.581 C
380.697 88.697 L
381.581 89.581 L
375.53 95.631 376.908 101.245 379.407 103.744 C
379.407 103.744 L
381.176 105.514 383.197 105.642 384.419 104.419 C
385.303 105.303 L
384.419 104.419 L
385.732 103.107 385.49 100.811 383.443 98.764 C
383.443 98.764 L
380.879 96.2 376.179 94.982 371.981 99.181 C
370.781 100.381 L
371.981 99.181 L
366.933 104.228 367.361 108.644 369.057 111.333 C
369.724 112.39 L
367.61 113.724 L
P
G
WC
WF
R N
N
416.667 353.057 M
416.667 353.057 L
412.852 355.464 407.165 355.54 401.413 349.787 C
402.297 348.903 L
401.413 349.787 L
396.069 344.444 397.634 338.152 400.996 334.79 C
400.996 334.79 L
403.423 332.363 407.393 331.019 410.187 333.813 C
410.218 333.844 L
410.187 333.813 L
412.78 336.405 411.81 340.063 409.512 342.361 C
409.512 342.361 L
405.9 345.973 398.698 347.072 391.813 340.187 C
391.813 340.187 L
391.813 340.187 L
384.928 333.302 386.027 326.1 389.639 322.488 C
389.639 322.488 L
391.937 320.19 395.595 319.22 398.187 321.813 C
398.218 321.844 L
398.187 321.813 L
400.78 324.405 399.81 328.063 397.512 330.361 C
397.512 330.361 L
393.9 333.973 386.698 335.072 379.813 328.187 C
380.697 327.303 L
379.813 328.187 L
372.928 321.302 374.027 314.1 377.639 310.488 C
377.639 310.488 L
379.937 308.19 383.595 307.22 386.187 309.813 C
386.218 309.844 L
386.187 309.813 L
388.981 312.607 387.637 316.577 385.21 319.004 C
385.21 319.004 L
381.848 322.366 375.556 323.931 370.213 318.587 C
371.097 317.703 L
370.213 318.587 L
364.46 312.835 364.536 307.148 366.943 303.333 C
367.61 302.276 L
369.724 303.61 L
369.057 304.667 L
367.361 307.356 366.933 311.772 371.981 316.819 C
372.106 316.944 L
371.981 316.819 L
376.179 321.018 380.879 319.8 383.443 317.236 C
383.443 317.236 L
385.49 315.189 385.732 312.893 384.419 311.581 C
385.303 310.697 L
384.419 311.581 L
383.197 310.358 381.176 310.486 379.407 312.256 C
379.407 312.256 L
376.908 314.755 375.53 320.369 381.581 326.419 C
381.581 326.419 L
387.631 332.47 393.245 331.092 395.744 328.593 C
395.744 328.593 L
397.514 326.824 397.642 324.803 396.419 323.581 C
397.303 322.697 L
396.419 323.581 L
395.197 322.358 393.176 322.486 391.407 324.256 C
391.407 324.256 L
388.908 326.755 387.53 332.369 393.581 338.419 C
392.697 339.303 L
393.581 338.419 L
399.632 344.47 405.245 343.092 407.744 340.593 C
407.744 340.593 L
409.514 338.824 409.642 336.803 408.419 335.581 C
409.303 334.697 L
408.419 335.581 L
407.107 334.268 404.811 334.51 402.764 336.557 C
402.764 336.557 L
400.2 339.121 398.982 343.821 403.181 348.019 C
403.261 348.1 L
403.181 348.019 L
408.228 353.067 412.644 352.639 415.333 350.943 C
416.39 350.276 L
417.724 352.39 L
P
G
WC
WF
R N
N
366.75 284.0 M
366.75 284.0 L
366.75 274.0 L
366.75 273.31 367.31 272.75 368.0 272.75 C
368.69 272.75 369.25 273.31 369.25 274.0 C
369.25 274.0 L
369.25 284.0 L
369.25 284.69 368.69 285.25 368.0 285.25 C
367.31 285.25 366.75 284.69 366.75 284.0 C
P
366.75 264.0 M
366.75 264.0 L
366.75 254.0 L
366.75 253.31 367.31 252.75 368.0 252.75 C
368.69 252.75 369.25 253.31 369.25 254.0 C
369.25 254.0 L
369.25 264.0 L
369.25 264.69 368.69 265.25 368.0 265.25 C
367.31 265.25 366.75 264.69 366.75 264.0 C
P
366.75 244.0 M
366.75 244.0 L
366.75 234.0 L
366.75 233.31 367.31 232.75 368.0 232.75 C
368.69 232.75 369.25 233.31 369.25 234.0 C
369.25 234.0 L
369.25 244.0 L
369.25 244.69 368.69 245.25 368.0 245.25 C
367.31 245.25 366.75 244.69 366.75 244.0 C
P
366.75 224.0 M
366.75 224.0 L
366.75 214.0 L
366.75 213.31 367.31 212.75 368.0 212.75 C
368.69 212.75 369.25 213.31 369.25 214.0 C
369.25 214.0 L
369.25 224.0 L
369.25 224.69 368.69 225.25 368.0 225.25 C
367.31 225.25 366.75 224.69 366.75 224.0 C
P
366.75 204.0 M
366.75 204.0 L
366.75 194.0 L
366.75 193.31 367.31 192.75 368.0 192.75 C
368.69 192.75 369.25 193.31 369.25 194.0 C
369.25 194.0 L
369.25 204.0 L
369.25 204.69 368.69 205.25 368.0 205.25 C
367.31 205.25 366.75 204.69 366.75 204.0 C
P
366.75 184.0 M
366.75 184.0 L
366.75 174.0 L
366.75 173.31 367.31 172.75 368.0 172.75 C
368.69 172.75 369.25 173.31 369.25 174.0 C
369.25 174.0 L
369.25 184.0 L
369.25 184.69 368.69 185.25 368.0 185.25 C
367.31 185.25 366.75 184.69 366.75 184.0 C
P
366.75 164.0 M
366.75 164.0 L
366.75 154.0 L
366.75 153.31 367.31 152.75 368.0 152.75 C
368.69 152.75 369.25 153.31 369.25 154.0 C
369.25 154.0 L
369.25 164.0 L
369.25 164.69 368.69 165.25 368.0 165.25 C
367.31 165.25 366.75 164.69 366.75 164.0 C
P
366.75 144.0 M
366.75 144.0 L
366.75 134.0 L
366.75 133.31 367.31 132.75 368.0 132.75 C
368.69 132.75 369.25 133.31 369.25 134.0 C
369.25 134.0 L
369.25 144.0 L
369.25 144.69 368.69 145.25 368.0 145.25 C
367.31 145.25 366.75 144.69 366.75 144.0 C
P
366.75 124.0 M
366.75 124.0 L
366.75 114.0 L
366.75 113.31 367.31 112.75 368.0 112.75 C
368.69 112.75 369.25 113.31 369.25 114.0 C
369.25 114.0 L
369.25 124.0 L
369.25 124.69 368.69 125.25 368.0 125.25 C
367.31 125.25 366.75 124.69 366.75 124.0 C
P
366.75 304.0 M
366.75 304.0 L
366.75 294.0 L
366.75 293.31 367.31 292.75 368.0 292.75 C
368.69 292.75 369.25 293.31 369.25 294.0 C
369.25 294.0 L
369.25 304.0 L
369.25 304.69 368.69 305.25 368.0 305.25 C
367.31 305.25 366.75 304.69 366.75 304.0 C
P
G
WC
WF
R N
N
110.75 284.0 M
110.75 284.0 L
110.75 274.0 L
110.75 273.31 111.31 272.75 112.0 272.75 C
112.69 272.75 113.25 273.31 113.25 274.0 C
113.25 274.0 L
113.25 284.0 L
113.25 284.69 112.69 285.25 112.0 285.25 C
111.31 285.25 110.75 284.69 110.75 284.0 C
P
110.75 264.0 M
110.75 264.0 L
110.75 254.0 L
110.75 253.31 111.31 252.75 112.0 252.75 C
112.69 252.75 113.25 253.31 113.25 254.0 C
113.25 254.0 L
113.25 264.0 L
113.25 264.69 112.69 265.25 112.0 265.25 C
111.31 265.25 110.75 264.69 110.75 264.0 C
P
110.75 244.0 M
110.75 244.0 L
110.75 234.0 L
110.75 233.31 111.31 232.75 112.0 232.75 C
112.69 232.75 113.25 233.31 113.25 234.0 C
113.25 234.0 L
113.25 244.0 L
113.25 244.69 112.69 245.25 112.0 245.25 C
111.31 245.25 110.75 244.69 110.75 244.0 C
P
110.75 224.0 M
110.75 224.0 L
110.75 214.0 L
110.75 213.31 111.31 212.75 112.0 212.75 C
112.69 212.75 113.25 213.31 113.25 214.0 C
113.25 214.0 L
113.25 224.0 L
113.25 224.69 112.69 225.25 112.0 225.25 C
111.31 225.25 110.75 224.69 110.75 224.0 C
P
110.75 204.0 M
110.75 204.0 L
110.75 194.0 L
110.75 193.31 111.31 192.75 112.0 192.75 C
112.69 192.75 113.25 193.31 113.25 194.0 C
113.25 194.0 L
113.25 204.0 L
113.25 204.69 112.69 205.25 112.0 205.25 C
111.31 205.25 110.75 204.69 110.75 204.0 C
P
110.75 184.0 M
110.75 184.0 L
110.75 174.0 L
110.75 173.31 111.31 172.75 112.0 172.75 C
112.69 172.75 113.25 173.31 113.25 174.0 C
113.25 174.0 L
113.25 184.0 L
113.25 184.69 112.69 185.25 112.0 185.25 C
111.31 185.25 110.75 184.69 110.75 184.0 C
P
110.75 164.0 M
110.75 164.0 L
110.75 154.0 L
110.75 153.31 111.31 152.75 112.0 152.75 C
112.69 152.75 113.25 153.31 113.25 154.0 C
113.25 154.0 L
113.25 164.0 L
113.25 164.69 112.69 165.25 112.0 165.25 C
111.31 165.25 110.75 164.69 110.75 164.0 C
P
110.75 144.0 M
110.75 144.0 L
110.75 134.0 L
110.75 133.31 111.31 132.75 112.0 132.75 C
112.69 132.75 113.25 133.31 113.25 134.0 C
113.25 134.0 L
113.25 144.0 L
113.25 144.69 112.69 145.25 112.0 145.25 C
111.31 145.25 110.75 144.69 110.75 144.0 C
P
110.75 124.0 M
110.75 124.0 L
110.75 114.0 L
110.75 113.31 111.31 112.75 112.0 112.75 C
112.69 112.75 113.25 113.31 113.25 114.0 C
113.25 114.0 L
113.25 124.0 L
113.25 124.69 112.69 125.25 112.0 125.25 C
111.31 125.25 110.75 124.69 110.75 124.0 C
P
110.75 304.0 M
110.75 304.0 L
110.75 294.0 L
110.75 293.31 111.31 292.75 112.0 292.75 C
112.69 292.75 113.25 293.31 113.25 294.0 C
113.25 294.0 L
113.25 304.0 L
113.25 304.69 112.69 305.25 112.0 305.25 C
111.31 305.25 110.75 304.69 110.75 304.0 C
P
G
WC
WF
R N
N
207.25 231.0 M
207.25 231.0 L
223.25 219.0 L
224.25 218.25 L
225.75 220.25 L
224.75 221.0 L
208.75 233.0 L
207.75 233.75 L
206.25 231.75 L
P
G
WC
WF
R N
N
272.75 185.0 M
272.75 185.0 L
256.75 197.0 L
255.75 197.75 L
254.25 195.75 L
255.25 195.0 L
271.25 183.0 L
272.25 182.25 L
273.75 184.25 L
P
G
WC
WF
R N
N
208.75 183.0 M
208.75 183.0 L
272.75 231.0 L
273.75 231.75 L
272.25 233.75 L
271.25 233.0 L
207.25 185.0 L
206.25 184.25 L
207.75 182.25 L
P
G
WC
WF
R N
pgSave restore
showpage
%%EOF
