%!PS-Adobe-3.0 EPSF-3.0
%%BoundingBox: 133 365 491 660
%%Creator: hjf with JaxoDraw-2.1-0
%%Title: 
%%CreationDate: 13/9/2013
%%BeginProlog
/imStr 0 def /imageSrc {currentfile /ASCII85Decode filter /RunLengthDecode filter  imStr readstring pop } def
/BD {bind def} bind def
/D {def} BD
/C {curveto} BD
/L {lineto} BD
/M {moveto} BD
/R {grestore} BD
/G {gsave} BD
/N {newpath} BD
/P {closepath} BD
/EC {eoclip} BD
/WC {clip} BD
/EF {eofill} BD
/WF {fill} BD
/SG {setgray} BD
/SC {setrgbcolor} BD
/ISOF {
     dup findfont dup length 1 add dict begin {
             1 index /FID eq {pop pop} {D} ifelse
     } forall /Encoding ISOLatin1Encoding D
     currentdict end definefont
} BD
/NZ {dup 1 lt {pop 1} if} BD
/S {
     moveto 1 index stringwidth pop NZ sub
     1 index length 1 sub NZ div 0
     3 2 roll ashow newpath} BD
/FL [
    /AvantGarde-Book ISOF
    /AvantGarde-BookOblique ISOF
    /AvantGarde-Demi ISOF
    /AvantGarde-DemiOblique ISOF
    /Bookman-Demi ISOF
    /Bookman-DemiItalic ISOF
    /Bookman-Light ISOF
    /Bookman-LightItalic ISOF
    /Courier ISOF
    /Courier-Bold ISOF
    /Courier-BoldOblique ISOF
    /Courier-Oblique ISOF
    /Helvetica ISOF
    /Helvetica-Bold ISOF
    /Helvetica-BoldOblique ISOF
    /Helvetica-Narrow ISOF
    /Helvetica-Narrow-Bold ISOF
    /Helvetica-Narrow-BoldOblique ISOF
    /Helvetica-Narrow-Oblique ISOF
    /Helvetica-Oblique ISOF
    /NewCenturySchlbk-Bold ISOF
    /NewCenturySchlbk-BoldItalic ISOF
    /NewCenturySchlbk-Italic ISOF
    /NewCenturySchlbk-Roman ISOF
    /Palatino-Bold ISOF
    /Palatino-BoldItalic ISOF
    /Palatino-Italic ISOF
    /Palatino-Roman ISOF
    /Symbol findfont
    /Times-Bold ISOF
    /Times-BoldItalic ISOF
    /Times-Italic ISOF
    /Times-Roman ISOF
    /ZapfDingbats findfont
    /ZapfChancery-MediumItalic ISOF
] D
/F {
     FL exch get exch scalefont
     [1 0 0 -1 0 0] makefont setfont} BD
%%EndProlog
%%BeginSetup
<< /PageSize [612.0 792.0] /DeferredMediaSelection true /ImagingBBox null /ManualFeed false /NumCopies 1 >> pop 
%%EndSetup
%%Page: 1 1
/pgSave save def
792.0 0 exch translate 1 -1 scale[72 300 div 0 0 72 300 div 0 0]concat
G
[4.1666665 0.0 0.0 4.1666665 300.0 300.0] concat
N
0.0 0.0 M
468.0 0.0 L
468.0 648.0 L
0.0 648.0 L
0.0 0.0 L
P
WC
N
63.834 63.528 M
63.834 63.528 L
69.578 61.511 73.282 60.625 74.191 63.212 C
74.191 63.212 L
74.772 64.868 73.994 67.832 72.472 72.166 C
72.472 72.166 L
72.472 72.166 L
70.232 78.544 70.137 80.753 71.544 81.247 C
71.544 81.247 L
72.791 81.685 75.358 81.1 79.834 79.528 C
79.834 79.528 L
79.834 79.528 L
85.578 77.511 89.282 76.626 90.191 79.212 C
90.191 79.212 L
90.772 80.868 89.994 83.832 88.472 88.166 C
88.0 88.0 L
88.472 88.166 L
86.232 94.544 86.137 96.753 87.544 97.247 C
87.544 97.247 L
88.791 97.685 91.358 97.1 95.834 95.528 C
96.0 96.0 L
95.834 95.528 L
101.578 93.511 105.282 92.625 106.191 95.212 C
106.191 95.212 L
106.772 96.868 105.994 99.832 104.472 104.166 C
104.0 104.0 L
104.472 104.166 L
102.232 110.544 102.137 112.753 103.544 113.247 C
103.544 113.247 L
104.791 113.685 107.358 113.1 111.834 111.528 C
112.306 111.363 L
112.637 112.306 L
112.166 112.472 L
107.832 113.994 104.868 114.772 103.212 114.191 C
103.212 114.191 L
100.625 113.282 101.511 109.578 103.528 103.834 C
103.528 103.834 L
105.1 99.358 105.685 96.791 105.247 95.544 C
105.247 95.544 L
104.753 94.137 102.544 94.232 96.166 96.472 C
96.166 96.472 L
91.832 97.994 88.868 98.772 87.212 98.191 C
87.212 98.191 L
84.625 97.282 85.511 93.578 87.528 87.834 C
87.528 87.834 L
89.1 83.358 89.685 80.791 89.247 79.544 C
89.247 79.544 L
88.753 78.137 86.544 78.232 80.166 80.472 C
80.0 80.0 L
80.166 80.472 L
75.832 81.994 72.868 82.772 71.212 82.191 C
71.212 82.191 L
68.625 81.282 69.511 77.578 71.528 71.834 C
72.0 72.0 L
71.528 71.834 L
73.1 67.358 73.685 64.791 73.247 63.544 C
73.247 63.544 L
72.753 62.137 70.544 62.232 64.166 64.472 C
63.694 64.637 L
63.363 63.694 L
P
G
WC
WF
R N
N
112.472 303.834 M
112.472 303.834 L
114.489 309.578 115.375 313.282 112.788 314.191 C
112.788 314.191 L
111.132 314.772 108.169 313.994 103.834 312.472 C
104.0 312.0 L
103.834 312.472 L
97.456 310.232 95.247 310.137 94.753 311.544 C
94.753 311.544 L
94.315 312.791 94.9 315.358 96.472 319.834 C
96.472 319.834 L
96.472 319.834 L
98.489 325.578 99.374 329.282 96.788 330.191 C
96.788 330.191 L
95.132 330.772 92.169 329.994 87.834 328.472 C
88.0 328.0 L
87.834 328.472 L
81.456 326.232 79.247 326.137 78.753 327.544 C
78.753 327.544 L
78.315 328.791 78.9 331.358 80.472 335.834 C
80.0 336.0 L
80.472 335.834 L
82.489 341.578 83.375 345.282 80.788 346.191 C
80.788 346.191 L
79.132 346.772 76.169 345.994 71.834 344.472 C
72.0 344.0 L
71.834 344.472 L
65.456 342.232 63.247 342.136 62.753 343.544 C
62.753 343.544 L
62.315 344.791 62.9 347.358 64.472 351.834 C
64.637 352.306 L
63.694 352.637 L
63.528 352.166 L
62.006 347.832 61.228 344.868 61.809 343.212 C
61.809 343.212 L
62.718 340.625 66.422 341.511 72.166 343.528 C
72.051 343.488 L
72.166 343.528 L
76.642 345.1 79.209 345.686 80.456 345.247 C
80.456 345.247 L
81.863 344.753 81.768 342.544 79.528 336.166 C
79.528 336.166 L
78.006 331.832 77.228 328.868 77.809 327.212 C
77.809 327.212 L
78.718 324.625 82.422 325.511 88.166 327.528 C
88.166 327.528 L
92.642 329.1 95.209 329.685 96.456 329.247 C
96.456 329.247 L
97.863 328.753 97.768 326.544 95.528 320.166 C
96.0 320.0 L
95.528 320.166 L
94.006 315.832 93.228 312.868 93.809 311.212 C
93.809 311.212 L
94.718 308.625 98.422 309.511 104.166 311.528 C
104.166 311.528 L
108.642 313.1 111.209 313.685 112.456 313.247 C
112.456 313.247 L
113.863 312.753 113.768 310.544 111.528 304.166 C
111.363 303.694 L
112.306 303.363 L
P
G
WC
WF
R N
N
367.834 303.528 M
367.834 303.528 L
373.578 301.511 377.282 300.626 378.191 303.212 C
378.191 303.212 L
378.772 304.868 377.994 307.831 376.472 312.166 C
376.0 312.0 L
376.472 312.166 L
374.232 318.544 374.136 320.753 375.544 321.247 C
375.544 321.247 L
376.791 321.685 379.358 321.1 383.834 319.528 C
384.0 320.0 L
383.834 319.528 L
389.578 317.511 393.282 316.626 394.191 319.212 C
394.191 319.212 L
394.772 320.868 393.994 323.831 392.472 328.166 C
392.0 328.0 L
392.472 328.166 L
390.232 334.544 390.136 336.753 391.544 337.247 C
391.544 337.247 L
392.791 337.685 395.358 337.1 399.834 335.528 C
399.708 335.573 L
399.834 335.528 L
405.578 333.511 409.282 332.626 410.191 335.212 C
410.191 335.212 L
410.772 336.868 409.994 339.831 408.472 344.166 C
408.0 344.0 L
408.472 344.166 L
406.232 350.544 406.136 352.753 407.544 353.247 C
407.544 353.247 L
408.791 353.685 411.358 353.1 415.834 351.528 C
416.306 351.363 L
416.637 352.306 L
416.166 352.472 L
411.832 353.994 408.868 354.772 407.212 354.191 C
407.212 354.191 L
404.625 353.282 405.511 349.578 407.528 343.834 C
407.573 343.708 L
407.528 343.834 L
409.1 339.358 409.685 336.791 409.247 335.544 C
409.247 335.544 L
408.753 334.137 406.544 334.232 400.166 336.472 C
400.0 336.0 L
400.166 336.472 L
395.832 337.994 392.868 338.772 391.212 338.191 C
391.212 338.191 L
388.625 337.282 389.511 333.578 391.528 327.834 C
391.528 327.834 L
393.1 323.358 393.685 320.791 393.247 319.544 C
393.247 319.544 L
392.753 318.137 390.544 318.232 384.166 320.472 C
384.166 320.472 L
379.832 321.994 376.868 322.772 375.212 322.191 C
375.212 322.191 L
372.625 321.282 373.511 317.578 375.528 311.834 C
375.528 311.834 L
377.1 307.358 377.685 304.791 377.247 303.544 C
377.247 303.544 L
376.753 302.137 374.544 302.232 368.166 304.472 C
367.694 304.637 L
367.363 303.694 L
P
G
WC
WF
R N
N
367.528 112.166 M
367.528 112.166 L
365.511 106.422 364.626 102.718 367.212 101.809 C
367.212 101.809 L
368.868 101.228 371.832 102.006 376.166 103.528 C
376.0 104.0 L
376.166 103.528 L
382.544 105.768 384.753 105.864 385.247 104.456 C
385.247 104.456 L
385.685 103.209 385.1 100.642 383.528 96.166 C
383.003 94.67 L
383.528 96.166 L
381.511 90.422 380.626 86.718 383.212 85.809 C
383.212 85.809 L
384.868 85.228 387.832 86.006 392.166 87.528 C
392.0 88.0 L
392.166 87.528 L
398.544 89.768 400.753 89.864 401.247 88.456 C
401.247 88.456 L
401.685 87.209 401.1 84.642 399.528 80.166 C
399.573 80.292 L
399.528 80.166 L
397.511 74.422 396.626 70.718 399.212 69.809 C
399.212 69.809 L
400.868 69.228 403.832 70.006 408.166 71.528 C
408.0 72.0 L
408.166 71.528 L
414.544 73.768 416.753 73.864 417.247 72.456 C
417.247 72.456 L
417.685 71.209 417.1 68.642 415.528 64.166 C
415.363 63.694 L
416.306 63.363 L
416.472 63.834 L
417.994 68.168 418.772 71.132 418.191 72.788 C
418.191 72.788 L
417.282 75.375 413.578 74.489 407.834 72.472 C
407.834 72.472 L
403.358 70.9 400.791 70.315 399.544 70.753 C
399.544 70.753 L
398.137 71.247 398.232 73.456 400.472 79.834 C
400.0 80.0 L
400.472 79.834 L
401.994 84.168 402.772 87.132 402.191 88.788 C
402.191 88.788 L
401.282 91.375 397.578 90.489 391.834 88.472 C
391.834 88.472 L
387.358 86.9 384.791 86.315 383.544 86.753 C
383.544 86.753 L
382.137 87.247 382.232 89.456 384.472 95.834 C
384.0 96.0 L
384.472 95.834 L
385.994 100.168 386.772 103.132 386.191 104.788 C
386.191 104.788 L
385.282 107.375 381.578 106.489 375.834 104.472 C
375.834 104.472 L
371.358 102.9 368.791 102.315 367.544 102.753 C
367.544 102.753 L
366.137 103.247 366.232 105.456 368.472 111.834 C
368.637 112.306 L
367.694 112.637 L
P
G
WC
WF
R N
N
368.5 132.0 M
368.5 132.0 L
368.5 142.0 L
368.5 142.276 368.276 142.5 368.0 142.5 C
367.724 142.5 367.5 142.276 367.5 142.0 C
367.5 142.0 L
367.5 132.0 L
367.5 131.724 367.724 131.5 368.0 131.5 C
368.276 131.5 368.5 131.724 368.5 132.0 C
P
368.5 152.0 M
368.5 152.0 L
368.5 162.0 L
368.5 162.276 368.276 162.5 368.0 162.5 C
367.724 162.5 367.5 162.276 367.5 162.0 C
367.5 162.0 L
367.5 152.0 L
367.5 151.724 367.724 151.5 368.0 151.5 C
368.276 151.5 368.5 151.724 368.5 152.0 C
P
368.5 172.0 M
368.5 172.0 L
368.5 182.0 L
368.5 182.276 368.276 182.5 368.0 182.5 C
367.724 182.5 367.5 182.276 367.5 182.0 C
367.5 182.0 L
367.5 172.0 L
367.5 171.724 367.724 171.5 368.0 171.5 C
368.276 171.5 368.5 171.724 368.5 172.0 C
P
368.5 192.0 M
368.5 192.0 L
368.5 202.0 L
368.5 202.276 368.276 202.5 368.0 202.5 C
367.724 202.5 367.5 202.276 367.5 202.0 C
367.5 202.0 L
367.5 192.0 L
367.5 191.724 367.724 191.5 368.0 191.5 C
368.276 191.5 368.5 191.724 368.5 192.0 C
P
368.5 212.0 M
368.5 212.0 L
368.5 222.0 L
368.5 222.276 368.276 222.5 368.0 222.5 C
367.724 222.5 367.5 222.276 367.5 222.0 C
367.5 222.0 L
367.5 212.0 L
367.5 211.724 367.724 211.5 368.0 211.5 C
368.276 211.5 368.5 211.724 368.5 212.0 C
P
368.5 232.0 M
368.5 232.0 L
368.5 242.0 L
368.5 242.276 368.276 242.5 368.0 242.5 C
367.724 242.5 367.5 242.276 367.5 242.0 C
367.5 242.0 L
367.5 232.0 L
367.5 231.724 367.724 231.5 368.0 231.5 C
368.276 231.5 368.5 231.724 368.5 232.0 C
P
368.5 252.0 M
368.5 252.0 L
368.5 262.0 L
368.5 262.276 368.276 262.5 368.0 262.5 C
367.724 262.5 367.5 262.276 367.5 262.0 C
367.5 262.0 L
367.5 252.0 L
367.5 251.724 367.724 251.5 368.0 251.5 C
368.276 251.5 368.5 251.724 368.5 252.0 C
P
368.5 272.0 M
368.5 272.0 L
368.5 282.0 L
368.5 282.276 368.276 282.5 368.0 282.5 C
367.724 282.5 367.5 282.276 367.5 282.0 C
367.5 282.0 L
367.5 272.0 L
367.5 271.724 367.724 271.5 368.0 271.5 C
368.276 271.5 368.5 271.724 368.5 272.0 C
P
368.5 292.0 M
368.5 292.0 L
368.5 302.0 L
368.5 302.276 368.276 302.5 368.0 302.5 C
367.724 302.5 367.5 302.276 367.5 302.0 C
367.5 302.0 L
367.5 292.0 L
367.5 291.724 367.724 291.5 368.0 291.5 C
368.276 291.5 368.5 291.724 368.5 292.0 C
P
368.5 112.0 M
368.5 112.0 L
368.5 122.0 L
368.5 122.276 368.276 122.5 368.0 122.5 C
367.724 122.5 367.5 122.276 367.5 122.0 C
367.5 122.0 L
367.5 112.0 L
367.5 111.724 367.724 111.5 368.0 111.5 C
368.276 111.5 368.5 111.724 368.5 112.0 C
P
G
WC
WF
R N
N
111.5 284.0 M
111.5 284.0 L
111.5 274.0 L
111.5 273.724 111.724 273.5 112.0 273.5 C
112.276 273.5 112.5 273.724 112.5 274.0 C
112.5 274.0 L
112.5 284.0 L
112.5 284.276 112.276 284.5 112.0 284.5 C
111.724 284.5 111.5 284.276 111.5 284.0 C
P
111.5 264.0 M
111.5 264.0 L
111.5 254.0 L
111.5 253.724 111.724 253.5 112.0 253.5 C
112.276 253.5 112.5 253.724 112.5 254.0 C
112.5 254.0 L
112.5 264.0 L
112.5 264.276 112.276 264.5 112.0 264.5 C
111.724 264.5 111.5 264.276 111.5 264.0 C
P
111.5 244.0 M
111.5 244.0 L
111.5 234.0 L
111.5 233.724 111.724 233.5 112.0 233.5 C
112.276 233.5 112.5 233.724 112.5 234.0 C
112.5 234.0 L
112.5 244.0 L
112.5 244.276 112.276 244.5 112.0 244.5 C
111.724 244.5 111.5 244.276 111.5 244.0 C
P
111.5 224.0 M
111.5 224.0 L
111.5 214.0 L
111.5 213.724 111.724 213.5 112.0 213.5 C
112.276 213.5 112.5 213.724 112.5 214.0 C
112.5 214.0 L
112.5 224.0 L
112.5 224.276 112.276 224.5 112.0 224.5 C
111.724 224.5 111.5 224.276 111.5 224.0 C
P
111.5 204.0 M
111.5 204.0 L
111.5 194.0 L
111.5 193.724 111.724 193.5 112.0 193.5 C
112.276 193.5 112.5 193.724 112.5 194.0 C
112.5 194.0 L
112.5 204.0 L
112.5 204.276 112.276 204.5 112.0 204.5 C
111.724 204.5 111.5 204.276 111.5 204.0 C
P
111.5 184.0 M
111.5 184.0 L
111.5 174.0 L
111.5 173.724 111.724 173.5 112.0 173.5 C
112.276 173.5 112.5 173.724 112.5 174.0 C
112.5 174.0 L
112.5 184.0 L
112.5 184.276 112.276 184.5 112.0 184.5 C
111.724 184.5 111.5 184.276 111.5 184.0 C
P
111.5 164.0 M
111.5 164.0 L
111.5 154.0 L
111.5 153.724 111.724 153.5 112.0 153.5 C
112.276 153.5 112.5 153.724 112.5 154.0 C
112.5 154.0 L
112.5 164.0 L
112.5 164.276 112.276 164.5 112.0 164.5 C
111.724 164.5 111.5 164.276 111.5 164.0 C
P
111.5 144.0 M
111.5 144.0 L
111.5 134.0 L
111.5 133.724 111.724 133.5 112.0 133.5 C
112.276 133.5 112.5 133.724 112.5 134.0 C
112.5 134.0 L
112.5 144.0 L
112.5 144.276 112.276 144.5 112.0 144.5 C
111.724 144.5 111.5 144.276 111.5 144.0 C
P
111.5 124.0 M
111.5 124.0 L
111.5 114.0 L
111.5 113.724 111.724 113.5 112.0 113.5 C
112.276 113.5 112.5 113.724 112.5 114.0 C
112.5 114.0 L
112.5 124.0 L
112.5 124.276 112.276 124.5 112.0 124.5 C
111.724 124.5 111.5 124.276 111.5 124.0 C
P
111.5 304.0 M
111.5 304.0 L
111.5 294.0 L
111.5 293.724 111.724 293.5 112.0 293.5 C
112.276 293.5 112.5 293.724 112.5 294.0 C
112.5 294.0 L
112.5 304.0 L
112.5 304.276 112.276 304.5 112.0 304.5 C
111.724 304.5 111.5 304.276 111.5 304.0 C
P
G
WC
WF
R N
N
128.3 123.6 M
128.3 123.6 L
136.3 129.6 L
136.521 129.766 136.566 130.079 136.4 130.3 C
136.234 130.521 135.921 130.566 135.7 130.4 C
135.7 130.4 L
127.7 124.4 L
127.479 124.234 127.434 123.921 127.6 123.7 C
127.766 123.479 128.079 123.434 128.3 123.6 C
P
144.3 135.6 M
144.3 135.6 L
152.3 141.6 L
152.521 141.766 152.566 142.079 152.4 142.3 C
152.234 142.521 151.921 142.566 151.7 142.4 C
151.7 142.4 L
143.7 136.4 L
143.479 136.234 143.434 135.921 143.6 135.7 C
143.766 135.479 144.079 135.434 144.3 135.6 C
P
160.3 147.6 M
160.3 147.6 L
168.3 153.6 L
168.521 153.766 168.566 154.079 168.4 154.3 C
168.234 154.521 167.921 154.566 167.7 154.4 C
167.7 154.4 L
159.7 148.4 L
159.479 148.234 159.434 147.921 159.6 147.7 C
159.766 147.479 160.079 147.434 160.3 147.6 C
P
176.3 159.6 M
176.3 159.6 L
184.3 165.6 L
184.521 165.766 184.566 166.079 184.4 166.3 C
184.234 166.521 183.921 166.566 183.7 166.4 C
183.7 166.4 L
175.7 160.4 L
175.479 160.234 175.434 159.921 175.6 159.7 C
175.766 159.479 176.079 159.434 176.3 159.6 C
P
192.3 171.6 M
192.3 171.6 L
200.3 177.6 L
200.521 177.766 200.566 178.079 200.4 178.3 C
200.234 178.521 199.921 178.566 199.7 178.4 C
199.7 178.4 L
191.7 172.4 L
191.479 172.234 191.434 171.921 191.6 171.7 C
191.766 171.479 192.079 171.434 192.3 171.6 C
P
208.3 183.6 M
208.3 183.6 L
216.3 189.6 L
216.521 189.766 216.566 190.079 216.4 190.3 C
216.234 190.521 215.921 190.566 215.7 190.4 C
215.7 190.4 L
207.7 184.4 L
207.479 184.234 207.434 183.921 207.6 183.7 C
207.766 183.479 208.079 183.434 208.3 183.6 C
P
224.3 195.6 M
224.3 195.6 L
232.3 201.6 L
232.521 201.766 232.566 202.079 232.4 202.3 C
232.234 202.521 231.921 202.566 231.7 202.4 C
231.7 202.4 L
223.7 196.4 L
223.479 196.234 223.434 195.921 223.6 195.7 C
223.766 195.479 224.079 195.434 224.3 195.6 C
P
112.3 111.6 M
112.3 111.6 L
120.3 117.6 L
120.521 117.766 120.566 118.079 120.4 118.3 C
120.234 118.521 119.921 118.566 119.7 118.4 C
119.7 118.4 L
111.7 112.4 L
111.479 112.234 111.434 111.921 111.6 111.7 C
111.766 111.479 112.079 111.434 112.3 111.6 C
P
G
WC
WF
R N
N
351.7 292.4 M
351.7 292.4 L
343.7 286.4 L
343.479 286.234 343.434 285.921 343.6 285.7 C
343.766 285.479 344.079 285.434 344.3 285.6 C
344.3 285.6 L
352.3 291.6 L
352.521 291.766 352.566 292.079 352.4 292.3 C
352.234 292.521 351.921 292.566 351.7 292.4 C
P
335.7 280.4 M
335.7 280.4 L
327.7 274.4 L
327.479 274.234 327.434 273.921 327.6 273.7 C
327.766 273.479 328.079 273.434 328.3 273.6 C
328.3 273.6 L
336.3 279.6 L
336.521 279.766 336.566 280.079 336.4 280.3 C
336.234 280.521 335.921 280.566 335.7 280.4 C
P
319.7 268.4 M
319.7 268.4 L
311.7 262.4 L
311.479 262.234 311.434 261.921 311.6 261.7 C
311.766 261.479 312.079 261.434 312.3 261.6 C
312.3 261.6 L
320.3 267.6 L
320.521 267.766 320.566 268.079 320.4 268.3 C
320.234 268.521 319.921 268.566 319.7 268.4 C
P
303.7 256.4 M
303.7 256.4 L
295.7 250.4 L
295.479 250.234 295.434 249.921 295.6 249.7 C
295.766 249.479 296.079 249.434 296.3 249.6 C
296.3 249.6 L
304.3 255.6 L
304.521 255.766 304.566 256.079 304.4 256.3 C
304.234 256.521 303.921 256.566 303.7 256.4 C
P
287.7 244.4 M
287.7 244.4 L
279.7 238.4 L
279.479 238.234 279.434 237.921 279.6 237.7 C
279.766 237.479 280.079 237.434 280.3 237.6 C
280.3 237.6 L
288.3 243.6 L
288.521 243.766 288.566 244.079 288.4 244.3 C
288.234 244.521 287.921 244.566 287.7 244.4 C
P
271.7 232.4 M
271.7 232.4 L
263.7 226.4 L
263.479 226.234 263.434 225.921 263.6 225.7 C
263.766 225.479 264.079 225.434 264.3 225.6 C
264.3 225.6 L
272.3 231.6 L
272.521 231.766 272.566 232.079 272.4 232.3 C
272.234 232.521 271.921 232.566 271.7 232.4 C
P
255.7 220.4 M
255.7 220.4 L
247.7 214.4 L
247.479 214.234 247.434 213.921 247.6 213.7 C
247.766 213.479 248.079 213.434 248.3 213.6 C
248.3 213.6 L
256.3 219.6 L
256.521 219.766 256.566 220.079 256.4 220.3 C
256.234 220.521 255.921 220.566 255.7 220.4 C
P
367.7 304.4 M
367.7 304.4 L
359.7 298.4 L
359.479 298.234 359.434 297.921 359.6 297.7 C
359.766 297.479 360.079 297.434 360.3 297.6 C
360.3 297.6 L
368.3 303.6 L
368.521 303.766 368.566 304.079 368.4 304.3 C
368.234 304.521 367.921 304.566 367.7 304.4 C
P
G
WC
WF
R N
0.88235295 SG
N
280.0 208.0 M
280.0 225.673 262.091 240.0 240.0 240.0 C
217.909 240.0 200.0 225.673 200.0 208.0 C
200.0 190.327 217.909 176.0 240.0 176.0 C
262.091 176.0 280.0 190.327 280.0 208.0 C
P
G
WC
WF
R N
0.0 SG
N
280.5 208.0 M
280.5 208.0 L
280.5 226.048 262.258 240.5 240.0 240.5 C
240.0 240.0 L
240.0 240.5 L
217.742 240.5 199.5 226.048 199.5 208.0 C
200.0 208.0 L
199.5 208.0 L
199.5 189.952 217.742 175.5 240.0 175.5 C
240.0 176.0 L
240.0 175.5 L
262.258 175.5 280.5 189.952 280.5 208.0 C
280.0 208.0 L
280.5 208.0 L
279.5 208.0 M
279.5 208.0 L
279.5 190.701 261.925 176.5 240.0 176.5 C
240.0 176.5 L
218.075 176.5 200.5 190.701 200.5 208.0 C
200.5 208.0 L
200.5 225.299 218.075 239.5 240.0 239.5 C
240.0 239.5 L
261.925 239.5 279.5 225.299 279.5 208.0 C
P
G
WC
WF
R N
N
255.7 195.6 M
255.7 195.6 L
263.7 189.6 L
263.921 189.434 264.234 189.479 264.4 189.7 C
264.566 189.921 264.521 190.234 264.3 190.4 C
264.3 190.4 L
256.3 196.4 L
256.079 196.566 255.766 196.521 255.6 196.3 C
255.434 196.079 255.479 195.766 255.7 195.6 C
P
271.7 183.6 M
271.7 183.6 L
279.7 177.6 L
279.921 177.434 280.234 177.479 280.4 177.7 C
280.566 177.921 280.521 178.234 280.3 178.4 C
280.3 178.4 L
272.3 184.4 L
272.079 184.566 271.766 184.521 271.6 184.3 C
271.434 184.079 271.479 183.766 271.7 183.6 C
P
287.7 171.6 M
287.7 171.6 L
295.7 165.6 L
295.921 165.434 296.234 165.479 296.4 165.7 C
296.566 165.921 296.521 166.234 296.3 166.4 C
296.3 166.4 L
288.3 172.4 L
288.079 172.566 287.766 172.521 287.6 172.3 C
287.434 172.079 287.479 171.766 287.7 171.6 C
P
303.7 159.6 M
303.7 159.6 L
311.7 153.6 L
311.921 153.434 312.234 153.479 312.4 153.7 C
312.566 153.921 312.521 154.234 312.3 154.4 C
312.3 154.4 L
304.3 160.4 L
304.079 160.566 303.766 160.521 303.6 160.3 C
303.434 160.079 303.479 159.766 303.7 159.6 C
P
319.7 147.6 M
319.7 147.6 L
327.7 141.6 L
327.921 141.434 328.234 141.479 328.4 141.7 C
328.566 141.921 328.521 142.234 328.3 142.4 C
328.3 142.4 L
320.3 148.4 L
320.079 148.566 319.766 148.521 319.6 148.3 C
319.434 148.079 319.479 147.766 319.7 147.6 C
P
335.7 135.6 M
335.7 135.6 L
343.7 129.6 L
343.921 129.434 344.234 129.479 344.4 129.7 C
344.566 129.921 344.521 130.234 344.3 130.4 C
344.3 130.4 L
336.3 136.4 L
336.079 136.566 335.766 136.521 335.6 136.3 C
335.434 136.079 335.479 135.766 335.7 135.6 C
P
351.7 123.6 M
351.7 123.6 L
359.7 117.6 L
359.921 117.434 360.234 117.479 360.4 117.7 C
360.566 117.921 360.521 118.234 360.3 118.4 C
360.3 118.4 L
352.3 124.4 L
352.079 124.566 351.766 124.521 351.6 124.3 C
351.434 124.079 351.479 123.766 351.7 123.6 C
P
239.7 207.6 M
239.7 207.6 L
247.7 201.6 L
247.921 201.434 248.234 201.479 248.4 201.7 C
248.566 201.921 248.521 202.234 248.3 202.4 C
248.3 202.4 L
240.3 208.4 L
240.079 208.566 239.766 208.521 239.6 208.3 C
239.434 208.079 239.479 207.766 239.7 207.6 C
P
G
WC
WF
R N
N
224.3 220.4 M
224.3 220.4 L
216.3 226.4 L
216.079 226.566 215.766 226.521 215.6 226.3 C
215.434 226.079 215.479 225.766 215.7 225.6 C
215.7 225.6 L
223.7 219.6 L
223.921 219.434 224.234 219.479 224.4 219.7 C
224.566 219.921 224.521 220.234 224.3 220.4 C
P
208.3 232.4 M
208.3 232.4 L
200.3 238.4 L
200.079 238.566 199.766 238.521 199.6 238.3 C
199.434 238.079 199.479 237.766 199.7 237.6 C
199.7 237.6 L
207.7 231.6 L
207.921 231.434 208.234 231.479 208.4 231.7 C
208.566 231.921 208.521 232.234 208.3 232.4 C
P
192.3 244.4 M
192.3 244.4 L
184.3 250.4 L
184.079 250.566 183.766 250.521 183.6 250.3 C
183.434 250.079 183.479 249.766 183.7 249.6 C
183.7 249.6 L
191.7 243.6 L
191.921 243.434 192.234 243.479 192.4 243.7 C
192.566 243.921 192.521 244.234 192.3 244.4 C
P
176.3 256.4 M
176.3 256.4 L
168.3 262.4 L
168.079 262.566 167.766 262.521 167.6 262.3 C
167.434 262.079 167.479 261.766 167.7 261.6 C
167.7 261.6 L
175.7 255.6 L
175.921 255.434 176.234 255.479 176.4 255.7 C
176.566 255.921 176.521 256.234 176.3 256.4 C
P
160.3 268.4 M
160.3 268.4 L
152.3 274.4 L
152.079 274.566 151.766 274.521 151.6 274.3 C
151.434 274.079 151.479 273.766 151.7 273.6 C
151.7 273.6 L
159.7 267.6 L
159.921 267.434 160.234 267.479 160.4 267.7 C
160.566 267.921 160.521 268.234 160.3 268.4 C
P
144.3 280.4 M
144.3 280.4 L
136.3 286.4 L
136.079 286.566 135.766 286.521 135.6 286.3 C
135.434 286.079 135.479 285.766 135.7 285.6 C
135.7 285.6 L
143.7 279.6 L
143.921 279.434 144.234 279.479 144.4 279.7 C
144.566 279.921 144.521 280.234 144.3 280.4 C
P
128.3 292.4 M
128.3 292.4 L
120.3 298.4 L
120.079 298.566 119.766 298.521 119.6 298.3 C
119.434 298.079 119.479 297.766 119.7 297.6 C
119.7 297.6 L
127.7 291.6 L
127.921 291.434 128.234 291.479 128.4 291.7 C
128.566 291.921 128.521 292.234 128.3 292.4 C
P
240.3 208.4 M
240.3 208.4 L
232.3 214.4 L
232.079 214.566 231.766 214.521 231.6 214.3 C
231.434 214.079 231.479 213.766 231.7 213.6 C
231.7 213.6 L
239.7 207.6 L
239.921 207.434 240.234 207.479 240.4 207.7 C
240.566 207.921 240.521 208.234 240.3 208.4 C
P
G
WC
WF
R N
pgSave restore
showpage
%%EOF
