%!PS-Adobe-3.0 EPSF-3.0
%%BoundingBox: 86 364 538 660
%%Creator: hjf with JaxoDraw-2.1-0
%%Title: 
%%CreationDate: 16/9/2013
%%BeginProlog
/imStr 0 def /imageSrc {currentfile /ASCII85Decode filter /RunLengthDecode filter  imStr readstring pop } def
/BD {bind def} bind def
/D {def} BD
/C {curveto} BD
/L {lineto} BD
/M {moveto} BD
/R {grestore} BD
/G {gsave} BD
/N {newpath} BD
/P {closepath} BD
/EC {eoclip} BD
/WC {clip} BD
/EF {eofill} BD
/WF {fill} BD
/SG {setgray} BD
/SC {setrgbcolor} BD
/ISOF {
     dup findfont dup length 1 add dict begin {
             1 index /FID eq {pop pop} {D} ifelse
     } forall /Encoding ISOLatin1Encoding D
     currentdict end definefont
} BD
/NZ {dup 1 lt {pop 1} if} BD
/S {
     moveto 1 index stringwidth pop NZ sub
     1 index length 1 sub NZ div 0
     3 2 roll ashow newpath} BD
/FL [
    /AvantGarde-Book ISOF
    /AvantGarde-BookOblique ISOF
    /AvantGarde-Demi ISOF
    /AvantGarde-DemiOblique ISOF
    /Bookman-Demi ISOF
    /Bookman-DemiItalic ISOF
    /Bookman-Light ISOF
    /Bookman-LightItalic ISOF
    /Courier ISOF
    /Courier-Bold ISOF
    /Courier-BoldOblique ISOF
    /Courier-Oblique ISOF
    /Helvetica ISOF
    /Helvetica-Bold ISOF
    /Helvetica-BoldOblique ISOF
    /Helvetica-Narrow ISOF
    /Helvetica-Narrow-Bold ISOF
    /Helvetica-Narrow-BoldOblique ISOF
    /Helvetica-Narrow-Oblique ISOF
    /Helvetica-Oblique ISOF
    /NewCenturySchlbk-Bold ISOF
    /NewCenturySchlbk-BoldItalic ISOF
    /NewCenturySchlbk-Italic ISOF
    /NewCenturySchlbk-Roman ISOF
    /Palatino-Bold ISOF
    /Palatino-BoldItalic ISOF
    /Palatino-Italic ISOF
    /Palatino-Roman ISOF
    /Symbol findfont
    /Times-Bold ISOF
    /Times-BoldItalic ISOF
    /Times-Italic ISOF
    /Times-Roman ISOF
    /ZapfDingbats findfont
    /ZapfChancery-MediumItalic ISOF
] D
/F {
     FL exch get exch scalefont
     [1 0 0 -1 0 0] makefont setfont} BD
%%EndProlog
%%BeginSetup
<< /PageSize [612.0 792.0] /DeferredMediaSelection true /ImagingBBox null /ManualFeed false /NumCopies 1 >> pop 
%%EndSetup
%%Page: 1 1
/pgSave save def
792.0 0 exch translate 1 -1 scale[72 300 div 0 0 72 300 div 0 0]concat
G
[4.1666665 0.0 0.0 4.1666665 300.0 300.0] concat
N
0.0 0.0 M
468.0 0.0 L
468.0 648.0 L
0.0 648.0 L
0.0 0.0 L
P
WC
N
15.333 62.943 M
15.333 62.943 L
19.148 60.536 24.835 60.461 30.587 66.213 C
29.703 67.097 L
30.587 66.213 L
35.931 71.556 34.366 77.848 31.004 81.21 C
31.004 81.21 L
28.577 83.637 24.607 84.981 21.813 82.187 C
22.697 81.303 L
21.813 82.187 L
19.22 79.595 20.19 75.937 22.488 73.639 C
22.488 73.639 L
26.1 70.027 33.302 68.928 40.187 75.813 C
39.303 76.697 L
40.187 75.813 L
47.072 82.698 45.973 89.9 42.361 93.512 C
42.361 93.512 L
40.063 95.81 36.405 96.78 33.813 94.187 C
34.697 93.303 L
33.813 94.187 L
31.22 91.595 32.19 87.937 34.488 85.639 C
34.488 85.639 L
38.1 82.027 45.302 80.928 52.187 87.813 C
51.303 88.697 L
52.187 87.813 L
59.072 94.698 57.973 101.9 54.361 105.512 C
54.361 105.512 L
52.063 107.81 48.405 108.78 45.813 106.187 C
46.697 105.303 L
45.813 106.187 L
43.019 103.393 44.363 99.423 46.79 96.996 C
46.79 96.996 L
50.152 93.634 56.444 92.069 61.787 97.413 C
61.973 97.599 L
61.787 97.413 L
67.539 103.165 67.464 108.852 65.057 112.667 C
64.39 113.724 L
62.276 112.39 L
62.943 111.333 L
64.639 108.644 65.067 104.228 60.019 99.181 C
60.903 98.297 L
60.019 99.181 L
55.821 94.982 51.121 96.2 48.557 98.764 C
48.557 98.764 L
46.51 100.811 46.268 103.107 47.581 104.419 C
47.581 104.419 L
47.581 104.419 L
48.803 105.642 50.824 105.514 52.593 103.744 C
52.593 103.744 L
55.092 101.245 56.47 95.631 50.419 89.581 C
49.44 88.601 L
50.419 89.581 L
44.369 83.53 38.755 84.908 36.256 87.407 C
36.256 87.407 L
34.486 89.176 34.358 91.197 35.581 92.419 C
35.692 92.53 L
35.581 92.419 L
36.803 93.642 38.824 93.514 40.593 91.744 C
40.593 91.744 L
43.092 89.245 44.47 83.631 38.419 77.581 C
37.44 76.601 L
38.419 77.581 L
32.369 71.53 26.755 72.908 24.256 75.407 C
24.256 75.407 L
22.486 77.176 22.358 79.197 23.581 80.419 C
25.626 82.465 L
23.581 80.419 L
24.893 81.732 27.189 81.49 29.236 79.443 C
29.236 79.443 L
31.8 76.879 33.018 72.179 28.819 67.981 C
28.819 67.981 L
28.819 67.981 L
23.772 62.933 19.356 63.361 16.667 65.057 C
15.61 65.724 L
14.276 63.61 L
P
G
WC
WF
R N
N
415.69 305.211 M
415.69 305.211 L
411.227 304.068 407.25 299.587 407.25 290.56 C
408.5 290.56 L
407.25 290.56 L
407.25 282.584 412.871 279.044 417.708 279.044 C
417.708 279.044 L
421.101 279.044 424.75 280.91 424.75 284.8 C
423.5 284.8 L
424.75 284.8 L
424.75 288.386 421.609 290.298 418.41 290.298 C
418.41 290.298 L
413.214 290.298 407.25 285.678 407.25 275.2 C
408.5 275.2 L
407.25 275.2 L
407.25 264.722 413.214 260.102 418.41 260.102 C
418.41 260.102 L
421.609 260.102 424.75 262.014 424.75 265.6 C
423.5 265.6 L
424.75 265.6 L
424.75 269.186 421.609 271.098 418.41 271.098 C
418.41 271.098 L
413.214 271.098 407.25 266.478 407.25 256.0 C
408.5 256.0 L
407.25 256.0 L
407.25 245.522 413.214 240.902 418.41 240.902 C
418.41 240.902 L
421.609 240.902 424.75 242.814 424.75 246.4 C
423.5 246.4 L
424.75 246.4 L
424.75 249.986 421.609 251.898 418.41 251.898 C
418.41 251.898 L
413.214 251.898 407.25 247.278 407.25 236.8 C
408.5 236.8 L
407.25 236.8 L
407.25 226.322 413.214 221.702 418.41 221.702 C
418.41 221.702 L
421.609 221.702 424.75 223.614 424.75 227.2 C
423.5 227.2 L
424.75 227.2 L
424.75 230.786 421.609 232.698 418.41 232.698 C
418.41 232.698 L
413.214 232.698 407.25 228.078 407.25 217.6 C
408.5 217.6 L
407.25 217.6 L
407.25 207.122 413.214 202.502 418.41 202.502 C
418.41 202.502 L
421.609 202.502 424.75 204.414 424.75 208.0 C
423.5 208.0 L
424.75 208.0 L
424.75 211.586 421.609 213.498 418.41 213.498 C
418.41 213.498 L
413.214 213.498 407.25 208.878 407.25 198.4 C
408.5 198.4 L
407.25 198.4 L
407.25 187.922 413.214 183.302 418.41 183.302 C
418.41 183.302 L
421.609 183.302 424.75 185.214 424.75 188.8 C
423.5 188.8 L
424.75 188.8 L
424.75 192.386 421.609 194.298 418.41 194.298 C
418.41 194.298 L
413.214 194.298 407.25 189.678 407.25 179.2 C
408.5 179.2 L
407.25 179.2 L
407.25 168.722 413.214 164.102 418.41 164.102 C
418.41 164.102 L
421.609 164.102 424.75 166.014 424.75 169.6 C
423.5 169.6 L
424.75 169.6 L
424.75 173.186 421.609 175.098 418.41 175.098 C
418.41 175.098 L
413.214 175.098 407.25 170.478 407.25 160.0 C
408.5 160.0 L
407.25 160.0 L
407.25 149.522 413.214 144.902 418.41 144.902 C
418.41 144.902 L
421.609 144.902 424.75 146.814 424.75 150.4 C
423.5 150.4 L
424.75 150.4 L
424.75 153.986 421.609 155.898 418.41 155.898 C
418.41 155.898 L
413.214 155.898 407.25 151.278 407.25 140.8 C
408.5 140.8 L
407.25 140.8 L
407.25 130.322 413.214 125.702 418.41 125.702 C
418.41 125.702 L
421.609 125.702 424.75 127.614 424.75 131.2 C
423.5 131.2 L
424.75 131.2 L
424.75 135.09 421.101 136.956 417.708 136.956 C
417.708 136.956 L
412.871 136.956 407.25 133.416 407.25 125.44 C
408.5 125.44 L
407.25 125.44 L
407.25 116.413 411.227 111.932 415.69 110.789 C
416.901 110.479 L
417.521 112.901 L
416.31 113.211 L
413.274 113.988 409.75 117.187 409.75 125.44 C
409.75 125.44 L
409.75 131.888 414.1 134.456 417.708 134.456 C
417.708 134.456 L
420.519 134.456 422.25 133.027 422.25 131.2 C
422.25 131.2 L
422.25 129.505 420.8 128.202 418.41 128.202 C
418.41 128.202 L
414.906 128.202 409.75 131.37 409.75 140.8 C
409.75 140.8 L
409.75 150.23 414.906 153.398 418.41 153.398 C
418.41 153.398 L
420.8 153.398 422.25 152.095 422.25 150.4 C
422.25 150.4 L
422.25 148.705 420.8 147.402 418.41 147.402 C
418.41 147.402 L
414.906 147.402 409.75 150.57 409.75 160.0 C
409.75 160.0 L
409.75 169.43 414.906 172.598 418.41 172.598 C
418.41 172.598 L
420.8 172.598 422.25 171.295 422.25 169.6 C
422.25 169.6 L
422.25 167.905 420.8 166.602 418.41 166.602 C
418.41 166.602 L
414.906 166.602 409.75 169.77 409.75 179.2 C
409.75 179.2 L
409.75 188.63 414.906 191.798 418.41 191.798 C
418.41 191.798 L
420.8 191.798 422.25 190.495 422.25 188.8 C
422.25 188.8 L
422.25 187.105 420.8 185.802 418.41 185.802 C
418.41 185.802 L
414.906 185.802 409.75 188.97 409.75 198.4 C
409.75 198.4 L
409.75 207.83 414.906 210.998 418.41 210.998 C
418.41 210.998 L
420.8 210.998 422.25 209.695 422.25 208.0 C
422.25 208.0 L
422.25 206.305 420.8 205.002 418.41 205.002 C
418.41 205.002 L
414.906 205.002 409.75 208.17 409.75 217.6 C
409.75 217.6 L
409.75 227.03 414.906 230.198 418.41 230.198 C
418.41 230.198 L
420.8 230.198 422.25 228.895 422.25 227.2 C
422.25 227.2 L
422.25 225.505 420.8 224.202 418.41 224.202 C
418.41 224.202 L
414.906 224.202 409.75 227.37 409.75 236.8 C
409.75 236.8 L
409.75 246.23 414.906 249.398 418.41 249.398 C
418.41 249.398 L
420.8 249.398 422.25 248.095 422.25 246.4 C
422.25 246.4 L
422.25 244.705 420.8 243.402 418.41 243.402 C
418.41 243.402 L
414.906 243.402 409.75 246.57 409.75 256.0 C
409.75 256.0 L
409.75 265.43 414.906 268.598 418.41 268.598 C
418.41 268.598 L
420.8 268.598 422.25 267.295 422.25 265.6 C
422.25 265.6 L
422.25 263.905 420.8 262.602 418.41 262.602 C
418.41 262.602 L
414.906 262.602 409.75 265.77 409.75 275.2 C
409.75 275.2 L
409.75 284.63 414.906 287.798 418.41 287.798 C
418.41 287.798 L
420.8 287.798 422.25 286.495 422.25 284.8 C
422.25 284.8 L
422.25 282.973 420.519 281.544 417.708 281.544 C
417.708 281.544 L
414.1 281.544 409.75 284.112 409.75 290.56 C
409.75 290.56 L
409.75 298.813 413.274 302.012 416.31 302.789 C
417.521 303.099 L
416.901 305.521 L
P
G
WC
WF
R N
N
464.667 353.057 M
464.667 353.057 L
460.852 355.464 455.165 355.54 449.413 349.787 C
450.297 348.903 L
449.413 349.787 L
444.069 344.444 445.634 338.152 448.996 334.79 C
448.996 334.79 L
451.423 332.363 455.393 331.019 458.187 333.813 C
458.218 333.844 L
458.187 333.813 L
460.78 336.405 459.81 340.063 457.512 342.361 C
457.512 342.361 L
453.9 345.973 446.698 347.072 439.813 340.187 C
439.813 340.187 L
439.813 340.187 L
432.928 333.302 434.027 326.1 437.639 322.488 C
437.639 322.488 L
439.937 320.19 443.595 319.22 446.187 321.813 C
446.218 321.844 L
446.187 321.813 L
448.78 324.405 447.81 328.063 445.512 330.361 C
445.512 330.361 L
441.9 333.973 434.698 335.072 427.813 328.187 C
428.697 327.303 L
427.813 328.187 L
420.928 321.302 422.027 314.1 425.639 310.488 C
425.639 310.488 L
427.937 308.19 431.595 307.22 434.187 309.813 C
434.218 309.844 L
434.187 309.813 L
436.981 312.607 435.637 316.577 433.21 319.004 C
433.21 319.004 L
429.848 322.366 423.556 323.931 418.213 318.587 C
419.097 317.703 L
418.213 318.587 L
412.46 312.835 412.536 307.148 414.943 303.333 C
415.61 302.276 L
417.724 303.61 L
417.057 304.667 L
415.361 307.356 414.933 311.772 419.981 316.819 C
420.106 316.944 L
419.981 316.819 L
424.179 321.018 428.879 319.8 431.443 317.236 C
431.443 317.236 L
433.49 315.189 433.732 312.893 432.419 311.581 C
433.303 310.697 L
432.419 311.581 L
431.197 310.358 429.176 310.486 427.407 312.256 C
427.407 312.256 L
424.908 314.755 423.53 320.369 429.581 326.419 C
429.581 326.419 L
435.631 332.47 441.245 331.092 443.744 328.593 C
443.744 328.593 L
445.514 326.824 445.642 324.803 444.419 323.581 C
445.303 322.697 L
444.419 323.581 L
443.197 322.358 441.176 322.486 439.407 324.256 C
439.407 324.256 L
436.908 326.755 435.53 332.369 441.581 338.419 C
440.697 339.303 L
441.581 338.419 L
447.632 344.47 453.245 343.092 455.744 340.593 C
455.744 340.593 L
457.514 338.824 457.642 336.803 456.419 335.581 C
457.303 334.697 L
456.419 335.581 L
455.107 334.268 452.811 334.51 450.764 336.557 C
450.764 336.557 L
448.2 339.121 446.982 343.821 451.181 348.019 C
451.261 348.1 L
451.181 348.019 L
456.228 353.067 460.644 352.639 463.333 350.943 C
464.39 350.276 L
465.724 352.39 L
P
G
WC
WF
R N
N
414.943 112.667 M
414.943 112.667 L
412.536 108.852 412.46 103.165 418.213 97.413 C
419.097 98.297 L
418.213 97.413 L
423.556 92.069 429.848 93.634 433.21 96.996 C
433.21 96.996 L
435.637 99.423 436.981 103.393 434.187 106.187 C
434.249 106.125 L
434.187 106.187 L
431.595 108.78 427.937 107.81 425.639 105.512 C
425.639 105.512 L
422.027 101.9 420.928 94.698 427.813 87.813 C
426.833 88.792 L
427.813 87.813 L
434.698 80.928 441.9 82.027 445.512 85.639 C
445.512 85.639 L
447.81 87.937 448.78 91.595 446.187 94.187 C
446.249 94.125 L
446.187 94.187 L
443.595 96.78 439.937 95.81 437.639 93.512 C
437.639 93.512 L
434.027 89.9 432.928 82.698 439.813 75.813 C
440.697 76.697 L
439.813 75.813 L
446.698 68.928 453.9 70.027 457.512 73.639 C
457.512 73.639 L
459.81 75.937 460.78 79.595 458.187 82.187 C
458.352 82.023 L
458.187 82.187 L
455.393 84.981 451.423 83.637 448.996 81.21 C
448.996 81.21 L
445.634 77.848 444.069 71.556 449.413 66.213 C
447.738 67.887 L
449.413 66.213 L
455.165 60.461 460.852 60.536 464.667 62.943 C
465.724 63.61 L
464.39 65.724 L
463.333 65.057 L
460.644 63.361 456.228 62.933 451.181 67.981 C
450.297 67.097 L
451.181 67.981 L
446.982 72.179 448.2 76.879 450.764 79.443 C
450.764 79.443 L
452.811 81.49 455.107 81.732 456.419 80.419 C
457.303 81.303 L
456.419 80.419 L
457.642 79.197 457.514 77.176 455.744 75.407 C
455.744 75.407 L
453.245 72.908 447.632 71.53 441.581 77.581 C
441.917 77.244 L
441.581 77.581 L
435.53 83.631 436.908 89.245 439.407 91.744 C
439.407 91.744 L
441.176 93.514 443.197 93.642 444.419 92.419 C
445.303 93.303 L
444.419 92.419 L
445.642 91.197 445.514 89.176 443.744 87.407 C
443.744 87.407 L
441.245 84.908 435.631 83.53 429.581 89.581 C
428.697 88.697 L
429.581 89.581 L
423.53 95.631 424.908 101.245 427.407 103.744 C
427.407 103.744 L
429.176 105.514 431.197 105.642 432.419 104.419 C
433.303 105.303 L
432.419 104.419 L
433.732 103.107 433.49 100.811 431.443 98.764 C
431.443 98.764 L
428.879 96.2 424.179 94.982 419.981 99.181 C
418.781 100.381 L
419.981 99.181 L
414.933 104.228 415.361 108.644 417.057 111.333 C
417.724 112.39 L
415.61 113.724 L
P
G
WC
WF
R N
N
65.057 303.333 M
65.057 303.333 L
67.464 307.148 67.539 312.835 61.787 318.587 C
61.787 318.587 L
61.787 318.587 L
56.444 323.931 50.152 322.366 46.79 319.004 C
46.79 319.004 L
44.363 316.577 43.019 312.607 45.813 309.813 C
45.172 310.454 L
45.813 309.813 L
48.405 307.22 52.063 308.19 54.361 310.488 C
54.361 310.488 L
57.973 314.1 59.072 321.302 52.187 328.187 C
53.44 326.935 L
52.187 328.187 L
45.302 335.072 38.1 333.973 34.488 330.361 C
34.488 330.361 L
32.19 328.063 31.22 324.405 33.813 321.813 C
33.897 321.729 L
33.813 321.813 L
36.405 319.22 40.063 320.19 42.361 322.488 C
42.361 322.488 L
45.973 326.1 47.072 333.302 40.187 340.187 C
40.45 339.924 L
40.187 340.187 L
33.302 347.072 26.1 345.973 22.488 342.361 C
22.488 342.361 L
20.19 340.063 19.22 336.405 21.813 333.813 C
21.503 334.123 L
21.813 333.813 L
24.607 331.019 28.577 332.363 31.004 334.79 C
31.004 334.79 L
34.366 338.152 35.931 344.444 30.587 349.787 C
29.703 348.903 L
30.587 349.787 L
24.835 355.54 19.148 355.464 15.333 353.057 C
14.276 352.39 L
15.61 350.276 L
16.667 350.943 L
19.356 352.639 23.772 353.067 28.819 348.019 C
28.944 347.894 L
28.819 348.019 L
33.018 343.821 31.8 339.121 29.236 336.557 C
29.236 336.557 L
27.189 334.51 24.893 334.268 23.581 335.581 C
22.697 334.697 L
23.581 335.581 L
22.358 336.803 22.486 338.824 24.256 340.593 C
24.256 340.593 L
26.755 343.092 32.369 344.47 38.419 338.419 C
39.303 339.303 L
38.419 338.419 L
44.47 332.369 43.092 326.755 40.593 324.256 C
40.593 324.256 L
38.824 322.486 36.803 322.358 35.581 323.581 C
34.697 322.697 L
35.581 323.581 L
34.358 324.803 34.486 326.824 36.256 328.593 C
36.256 328.593 L
38.755 331.092 44.369 332.47 50.419 326.419 C
51.303 327.303 L
50.419 326.419 L
56.47 320.369 55.092 314.755 52.593 312.256 C
52.593 312.256 L
50.824 310.486 48.803 310.358 47.581 311.581 C
46.697 310.697 L
47.581 311.581 L
46.268 312.893 46.51 315.189 48.557 317.236 C
48.557 317.236 L
51.121 319.8 55.821 321.018 60.019 316.819 C
60.903 317.703 L
60.019 316.819 L
65.067 311.772 64.639 307.356 62.943 304.667 C
62.276 303.61 L
64.39 302.276 L
P
G
WC
WF
R N
N
64.31 110.789 M
64.31 110.789 L
68.773 111.932 72.75 116.413 72.75 125.44 C
71.5 125.44 L
72.75 125.44 L
72.75 133.416 67.129 136.956 62.292 136.956 C
62.292 136.956 L
58.899 136.956 55.25 135.09 55.25 131.2 C
56.5 131.2 L
55.25 131.2 L
55.25 127.614 58.391 125.702 61.59 125.702 C
61.59 125.702 L
66.786 125.702 72.75 130.322 72.75 140.8 C
71.5 140.8 L
72.75 140.8 L
72.75 151.278 66.786 155.898 61.59 155.898 C
61.59 155.898 L
58.391 155.898 55.25 153.986 55.25 150.4 C
56.5 150.4 L
55.25 150.4 L
55.25 146.814 58.391 144.902 61.59 144.902 C
61.59 144.902 L
66.786 144.902 72.75 149.522 72.75 160.0 C
71.5 160.0 L
72.75 160.0 L
72.75 170.478 66.786 175.098 61.59 175.098 C
61.59 175.098 L
58.391 175.098 55.25 173.186 55.25 169.6 C
56.5 169.6 L
55.25 169.6 L
55.25 166.014 58.391 164.102 61.59 164.102 C
61.59 164.102 L
66.786 164.102 72.75 168.722 72.75 179.2 C
71.5 179.2 L
72.75 179.2 L
72.75 189.678 66.786 194.298 61.59 194.298 C
61.59 194.298 L
58.391 194.298 55.25 192.386 55.25 188.8 C
56.5 188.8 L
55.25 188.8 L
55.25 185.214 58.391 183.302 61.59 183.302 C
61.59 183.302 L
66.786 183.302 72.75 187.922 72.75 198.4 C
71.5 198.4 L
72.75 198.4 L
72.75 208.878 66.786 213.498 61.59 213.498 C
61.59 213.498 L
58.391 213.498 55.25 211.586 55.25 208.0 C
56.5 208.0 L
55.25 208.0 L
55.25 204.414 58.391 202.502 61.59 202.502 C
61.59 202.502 L
66.786 202.502 72.75 207.122 72.75 217.6 C
71.5 217.6 L
72.75 217.6 L
72.75 228.078 66.786 232.698 61.59 232.698 C
61.59 232.698 L
58.391 232.698 55.25 230.786 55.25 227.2 C
56.5 227.2 L
55.25 227.2 L
55.25 223.614 58.391 221.702 61.59 221.702 C
61.59 221.702 L
66.786 221.702 72.75 226.322 72.75 236.8 C
71.5 236.8 L
72.75 236.8 L
72.75 247.278 66.786 251.898 61.59 251.898 C
61.59 251.898 L
58.391 251.898 55.25 249.986 55.25 246.4 C
56.5 246.4 L
55.25 246.4 L
55.25 242.814 58.391 240.902 61.59 240.902 C
61.59 240.902 L
66.786 240.902 72.75 245.522 72.75 256.0 C
71.5 256.0 L
72.75 256.0 L
72.75 266.478 66.786 271.098 61.59 271.098 C
61.59 271.098 L
58.391 271.098 55.25 269.186 55.25 265.6 C
56.5 265.6 L
55.25 265.6 L
55.25 262.014 58.391 260.102 61.59 260.102 C
61.59 260.102 L
66.786 260.102 72.75 264.722 72.75 275.2 C
71.5 275.2 L
72.75 275.2 L
72.75 285.678 66.786 290.298 61.59 290.298 C
61.59 290.298 L
58.391 290.298 55.25 288.386 55.25 284.8 C
56.5 284.8 L
55.25 284.8 L
55.25 280.91 58.899 279.044 62.292 279.044 C
62.292 279.044 L
67.129 279.044 72.75 282.584 72.75 290.56 C
71.5 290.56 L
72.75 290.56 L
72.75 299.587 68.773 304.068 64.31 305.211 C
63.099 305.521 L
62.479 303.099 L
63.69 302.789 L
66.727 302.012 70.25 298.813 70.25 290.56 C
70.25 290.56 L
70.25 284.112 65.9 281.544 62.292 281.544 C
62.292 281.544 L
59.481 281.544 57.75 282.973 57.75 284.8 C
57.75 284.8 L
57.75 286.495 59.2 287.798 61.59 287.798 C
61.59 287.798 L
65.094 287.798 70.25 284.63 70.25 275.2 C
70.25 275.2 L
70.25 265.77 65.094 262.602 61.59 262.602 C
61.59 262.602 L
59.2 262.602 57.75 263.905 57.75 265.6 C
57.75 265.6 L
57.75 267.295 59.2 268.598 61.59 268.598 C
61.59 268.598 L
65.094 268.598 70.25 265.43 70.25 256.0 C
70.25 256.0 L
70.25 246.57 65.094 243.402 61.59 243.402 C
61.59 243.402 L
59.2 243.402 57.75 244.705 57.75 246.4 C
57.75 246.4 L
57.75 248.095 59.2 249.398 61.59 249.398 C
61.59 249.398 L
65.094 249.398 70.25 246.23 70.25 236.8 C
70.25 236.8 L
70.25 227.37 65.094 224.202 61.59 224.202 C
61.59 224.202 L
59.2 224.202 57.75 225.505 57.75 227.2 C
57.75 227.2 L
57.75 228.895 59.2 230.198 61.59 230.198 C
61.59 230.198 L
65.094 230.198 70.25 227.03 70.25 217.6 C
70.25 217.6 L
70.25 208.17 65.094 205.002 61.59 205.002 C
61.59 205.002 L
59.2 205.002 57.75 206.305 57.75 208.0 C
57.75 208.0 L
57.75 209.695 59.2 210.998 61.59 210.998 C
61.59 210.998 L
65.094 210.998 70.25 207.83 70.25 198.4 C
70.25 198.4 L
70.25 188.97 65.094 185.802 61.59 185.802 C
61.59 185.802 L
59.2 185.802 57.75 187.105 57.75 188.8 C
57.75 188.8 L
57.75 190.495 59.2 191.798 61.59 191.798 C
61.59 191.798 L
65.094 191.798 70.25 188.63 70.25 179.2 C
70.25 179.2 L
70.25 169.77 65.094 166.602 61.59 166.602 C
61.59 166.602 L
59.2 166.602 57.75 167.905 57.75 169.6 C
57.75 169.6 L
57.75 171.295 59.2 172.598 61.59 172.598 C
61.59 172.598 L
65.094 172.598 70.25 169.43 70.25 160.0 C
70.25 160.0 L
70.25 150.57 65.094 147.402 61.59 147.402 C
61.59 147.402 L
59.2 147.402 57.75 148.705 57.75 150.4 C
57.75 150.4 L
57.75 152.095 59.2 153.398 61.59 153.398 C
61.59 153.398 L
65.094 153.398 70.25 150.23 70.25 140.8 C
70.25 140.8 L
70.25 131.37 65.094 128.202 61.59 128.202 C
61.59 128.202 L
59.2 128.202 57.75 129.505 57.75 131.2 C
57.75 131.2 L
57.75 133.027 59.481 134.456 62.292 134.456 C
62.292 134.456 L
65.9 134.456 70.25 131.888 70.25 125.44 C
70.25 125.44 L
70.25 117.187 66.727 113.988 63.69 113.211 C
62.479 112.901 L
63.099 110.479 L
P
G
WC
WF
R N
N
240.31 110.789 M
240.31 110.789 L
244.774 111.932 248.75 116.413 248.75 125.44 C
247.5 125.44 L
248.75 125.44 L
248.75 133.416 243.129 136.956 238.292 136.956 C
238.292 136.956 L
234.899 136.956 231.25 135.09 231.25 131.2 C
232.5 131.2 L
231.25 131.2 L
231.25 127.614 234.391 125.702 237.59 125.702 C
237.59 125.702 L
242.786 125.702 248.75 130.322 248.75 140.8 C
247.5 140.8 L
248.75 140.8 L
248.75 151.278 242.786 155.898 237.59 155.898 C
237.59 155.898 L
234.391 155.898 231.25 153.986 231.25 150.4 C
232.5 150.4 L
231.25 150.4 L
231.25 146.814 234.391 144.902 237.59 144.902 C
237.59 144.902 L
242.786 144.902 248.75 149.522 248.75 160.0 C
247.5 160.0 L
248.75 160.0 L
248.75 170.478 242.786 175.098 237.59 175.098 C
237.59 175.098 L
234.391 175.098 231.25 173.186 231.25 169.6 C
232.5 169.6 L
231.25 169.6 L
231.25 166.014 234.391 164.102 237.59 164.102 C
237.59 164.102 L
242.786 164.102 248.75 168.722 248.75 179.2 C
247.5 179.2 L
248.75 179.2 L
248.75 189.678 242.786 194.298 237.59 194.298 C
237.59 194.298 L
234.391 194.298 231.25 192.386 231.25 188.8 C
232.5 188.8 L
231.25 188.8 L
231.25 185.214 234.391 183.302 237.59 183.302 C
237.59 183.302 L
242.786 183.302 248.75 187.922 248.75 198.4 C
247.5 198.4 L
248.75 198.4 L
248.75 208.878 242.786 213.498 237.59 213.498 C
237.59 213.498 L
234.391 213.498 231.25 211.586 231.25 208.0 C
232.5 208.0 L
231.25 208.0 L
231.25 204.414 234.391 202.502 237.59 202.502 C
237.59 202.502 L
242.786 202.502 248.75 207.122 248.75 217.6 C
247.5 217.6 L
248.75 217.6 L
248.75 228.078 242.786 232.698 237.59 232.698 C
237.59 232.698 L
234.391 232.698 231.25 230.786 231.25 227.2 C
232.5 227.2 L
231.25 227.2 L
231.25 223.614 234.391 221.702 237.59 221.702 C
237.59 221.702 L
242.786 221.702 248.75 226.322 248.75 236.8 C
247.5 236.8 L
248.75 236.8 L
248.75 247.278 242.786 251.898 237.59 251.898 C
237.59 251.898 L
234.391 251.898 231.25 249.986 231.25 246.4 C
232.5 246.4 L
231.25 246.4 L
231.25 242.814 234.391 240.902 237.59 240.902 C
237.59 240.902 L
242.786 240.902 248.75 245.522 248.75 256.0 C
247.5 256.0 L
248.75 256.0 L
248.75 266.478 242.786 271.098 237.59 271.098 C
237.59 271.098 L
234.391 271.098 231.25 269.186 231.25 265.6 C
232.5 265.6 L
231.25 265.6 L
231.25 262.014 234.391 260.102 237.59 260.102 C
237.59 260.102 L
242.786 260.102 248.75 264.722 248.75 275.2 C
247.5 275.2 L
248.75 275.2 L
248.75 285.678 242.786 290.298 237.59 290.298 C
237.59 290.298 L
234.391 290.298 231.25 288.386 231.25 284.8 C
232.5 284.8 L
231.25 284.8 L
231.25 280.91 234.899 279.044 238.292 279.044 C
238.292 279.044 L
243.129 279.044 248.75 282.584 248.75 290.56 C
247.5 290.56 L
248.75 290.56 L
248.75 299.587 244.774 304.068 240.31 305.211 C
239.099 305.521 L
238.479 303.099 L
239.69 302.789 L
242.727 302.012 246.25 298.813 246.25 290.56 C
246.25 290.56 L
246.25 284.112 241.9 281.544 238.292 281.544 C
238.292 281.544 L
235.481 281.544 233.75 282.973 233.75 284.8 C
233.75 284.8 L
233.75 286.495 235.2 287.798 237.59 287.798 C
237.59 287.798 L
241.094 287.798 246.25 284.63 246.25 275.2 C
246.25 275.2 L
246.25 265.77 241.094 262.602 237.59 262.602 C
237.59 262.602 L
235.2 262.602 233.75 263.905 233.75 265.6 C
233.75 265.6 L
233.75 267.295 235.2 268.598 237.59 268.598 C
237.59 268.598 L
241.094 268.598 246.25 265.43 246.25 256.0 C
246.25 256.0 L
246.25 246.57 241.094 243.402 237.59 243.402 C
237.59 243.402 L
235.2 243.402 233.75 244.705 233.75 246.4 C
233.75 246.4 L
233.75 248.095 235.2 249.398 237.59 249.398 C
237.59 249.398 L
241.094 249.398 246.25 246.23 246.25 236.8 C
246.25 236.8 L
246.25 227.37 241.094 224.202 237.59 224.202 C
237.59 224.202 L
235.2 224.202 233.75 225.505 233.75 227.2 C
233.75 227.2 L
233.75 228.895 235.2 230.198 237.59 230.198 C
237.59 230.198 L
241.094 230.198 246.25 227.03 246.25 217.6 C
246.25 217.6 L
246.25 208.17 241.094 205.002 237.59 205.002 C
237.59 205.002 L
235.2 205.002 233.75 206.305 233.75 208.0 C
233.75 208.0 L
233.75 209.695 235.2 210.998 237.59 210.998 C
237.59 210.998 L
241.094 210.998 246.25 207.83 246.25 198.4 C
246.25 198.4 L
246.25 188.97 241.094 185.802 237.59 185.802 C
237.59 185.802 L
235.2 185.802 233.75 187.105 233.75 188.8 C
233.75 188.8 L
233.75 190.495 235.2 191.798 237.59 191.798 C
237.59 191.798 L
241.094 191.798 246.25 188.63 246.25 179.2 C
246.25 179.2 L
246.25 169.77 241.094 166.602 237.59 166.602 C
237.59 166.602 L
235.2 166.602 233.75 167.905 233.75 169.6 C
233.75 169.6 L
233.75 171.295 235.2 172.598 237.59 172.598 C
237.59 172.598 L
241.094 172.598 246.25 169.43 246.25 160.0 C
246.25 160.0 L
246.25 150.57 241.094 147.402 237.59 147.402 C
237.59 147.402 L
235.2 147.402 233.75 148.705 233.75 150.4 C
233.75 150.4 L
233.75 152.095 235.2 153.398 237.59 153.398 C
237.59 153.398 L
241.094 153.398 246.25 150.23 246.25 140.8 C
246.25 140.8 L
246.25 131.37 241.094 128.202 237.59 128.202 C
237.59 128.202 L
235.2 128.202 233.75 129.505 233.75 131.2 C
233.75 131.2 L
233.75 133.027 235.481 134.456 238.292 134.456 C
238.292 134.456 L
241.9 134.456 246.25 131.888 246.25 125.44 C
246.25 125.44 L
246.25 117.187 242.727 113.988 239.69 113.211 C
238.479 112.901 L
239.099 110.479 L
P
G
WC
WF
R N
N
62.79 303.685 M
62.79 303.685 L
63.956 299.213 68.518 295.25 77.689 295.25 C
77.689 296.5 L
77.689 295.25 L
85.732 295.25 89.304 300.882 89.304 305.731 C
89.304 305.731 L
89.304 309.118 87.436 312.75 83.556 312.75 C
83.556 311.5 L
83.556 312.75 L
79.982 312.75 78.068 309.629 78.068 306.437 C
78.068 306.437 L
78.068 301.229 82.736 295.25 93.333 295.25 C
93.333 296.5 L
93.333 295.25 L
103.931 295.25 108.599 301.229 108.599 306.437 C
108.599 306.437 L
108.599 309.629 106.685 312.75 103.111 312.75 C
103.111 311.5 L
103.111 312.75 L
99.538 312.75 97.624 309.629 97.624 306.437 C
97.624 306.437 L
97.624 301.229 102.291 295.25 112.889 295.25 C
112.889 296.5 L
112.889 295.25 L
123.486 295.25 128.154 301.229 128.154 306.437 C
128.154 306.437 L
128.154 309.629 126.24 312.75 122.667 312.75 C
122.667 311.5 L
122.667 312.75 L
119.093 312.75 117.179 309.629 117.179 306.437 C
117.179 306.437 L
117.179 301.229 121.847 295.25 132.444 295.25 C
132.444 296.5 L
132.444 295.25 L
143.042 295.25 147.71 301.229 147.71 306.437 C
147.71 306.437 L
147.71 309.629 145.796 312.75 142.222 312.75 C
142.222 311.5 L
142.222 312.75 L
138.649 312.75 136.735 309.629 136.735 306.437 C
136.735 306.437 L
136.735 301.229 141.403 295.25 152.0 295.25 C
152.0 296.5 L
152.0 295.25 L
162.597 295.25 167.265 301.229 167.265 306.437 C
167.265 306.437 L
167.265 309.629 165.351 312.75 161.778 312.75 C
161.778 311.5 L
161.778 312.75 L
158.204 312.75 156.29 309.629 156.29 306.437 C
156.29 306.437 L
156.29 301.229 160.958 295.25 171.556 295.25 C
171.556 296.5 L
171.556 295.25 L
182.153 295.25 186.821 301.229 186.821 306.437 C
186.821 306.437 L
186.821 309.629 184.907 312.75 181.333 312.75 C
181.333 311.5 L
181.333 312.75 L
177.76 312.75 175.846 309.629 175.846 306.437 C
175.846 306.437 L
175.846 301.229 180.514 295.25 191.111 295.25 C
191.111 296.5 L
191.111 295.25 L
201.709 295.25 206.376 301.229 206.376 306.437 C
206.376 306.437 L
206.376 309.629 204.462 312.75 200.889 312.75 C
200.889 311.5 L
200.889 312.75 L
197.315 312.75 195.401 309.629 195.401 306.437 C
195.401 306.437 L
195.401 301.229 200.069 295.25 210.667 295.25 C
210.667 296.5 L
210.667 295.25 L
221.264 295.25 225.932 301.229 225.932 306.437 C
225.932 306.437 L
225.932 309.629 224.018 312.75 220.444 312.75 C
220.444 311.5 L
220.444 312.75 L
216.564 312.75 214.696 309.118 214.696 305.731 C
214.696 305.731 L
214.696 300.882 218.268 295.25 226.311 295.25 C
226.311 296.5 L
226.311 295.25 L
235.482 295.25 240.044 299.213 241.21 303.685 C
241.525 304.894 L
239.106 305.525 L
238.79 304.315 L
238.001 301.287 234.741 297.75 226.311 297.75 C
226.311 297.75 L
219.781 297.75 217.196 302.126 217.196 305.731 C
217.196 305.731 L
217.196 308.529 218.622 310.25 220.444 310.25 C
220.444 310.25 L
222.135 310.25 223.432 308.811 223.432 306.437 C
223.432 306.437 L
223.432 302.938 220.237 297.75 210.667 297.75 C
210.667 297.75 L
201.097 297.75 197.901 302.938 197.901 306.437 C
197.901 306.437 L
197.901 308.811 199.199 310.25 200.889 310.25 C
200.889 310.25 L
202.579 310.25 203.876 308.811 203.876 306.437 C
203.876 306.437 L
203.876 302.938 200.681 297.75 191.111 297.75 C
191.111 297.75 L
181.541 297.75 178.346 302.938 178.346 306.437 C
178.346 306.437 L
178.346 308.811 179.643 310.25 181.333 310.25 C
181.333 310.25 L
183.024 310.25 184.321 308.811 184.321 306.437 C
184.321 306.437 L
184.321 302.938 181.125 297.75 171.556 297.75 C
171.556 297.75 L
161.986 297.75 158.79 302.938 158.79 306.437 C
158.79 306.437 L
158.79 308.811 160.088 310.25 161.778 310.25 C
161.778 310.25 L
163.468 310.25 164.765 308.811 164.765 306.437 C
164.765 306.437 L
164.765 302.938 161.57 297.75 152.0 297.75 C
152.0 297.75 L
142.43 297.75 139.235 302.938 139.235 306.437 C
139.235 306.437 L
139.235 308.811 140.532 310.25 142.222 310.25 C
142.222 310.25 L
143.912 310.25 145.21 308.811 145.21 306.437 C
145.21 306.437 L
145.21 302.938 142.014 297.75 132.444 297.75 C
132.444 297.75 L
122.875 297.75 119.679 302.938 119.679 306.437 C
119.679 306.437 L
119.679 308.811 120.977 310.25 122.667 310.25 C
122.667 310.25 L
124.357 310.25 125.654 308.811 125.654 306.437 C
125.654 306.437 L
125.654 302.938 122.459 297.75 112.889 297.75 C
112.889 297.75 L
103.319 297.75 100.124 302.938 100.124 306.437 C
100.124 306.437 L
100.124 308.811 101.421 310.25 103.111 310.25 C
103.111 310.25 L
104.801 310.25 106.099 308.811 106.099 306.437 C
106.099 306.437 L
106.099 302.938 102.903 297.75 93.333 297.75 C
93.333 297.75 L
83.763 297.75 80.568 302.938 80.568 306.437 C
80.568 306.437 L
80.568 308.811 81.865 310.25 83.556 310.25 C
83.556 310.25 L
85.378 310.25 86.804 308.529 86.804 305.731 C
86.804 305.731 L
86.804 302.126 84.219 297.75 77.689 297.75 C
77.689 297.75 L
69.26 297.75 65.999 301.287 65.21 304.315 C
64.894 305.525 L
62.475 304.894 L
P
G
WC
WF
R N
N
238.79 303.685 M
238.79 303.685 L
239.956 299.213 244.518 295.25 253.689 295.25 C
253.689 296.5 L
253.689 295.25 L
261.732 295.25 265.304 300.882 265.304 305.731 C
265.304 305.731 L
265.304 309.118 263.436 312.75 259.556 312.75 C
259.556 311.5 L
259.556 312.75 L
255.982 312.75 254.068 309.629 254.068 306.437 C
254.068 306.437 L
254.068 301.229 258.736 295.25 269.333 295.25 C
269.333 296.5 L
269.333 295.25 L
279.931 295.25 284.599 301.229 284.599 306.437 C
284.599 306.437 L
284.599 309.629 282.685 312.75 279.111 312.75 C
279.111 311.5 L
279.111 312.75 L
275.538 312.75 273.624 309.629 273.624 306.437 C
273.624 306.437 L
273.624 301.229 278.291 295.25 288.889 295.25 C
288.889 296.5 L
288.889 295.25 L
299.486 295.25 304.154 301.229 304.154 306.437 C
304.154 306.437 L
304.154 309.629 302.24 312.75 298.667 312.75 C
298.667 311.5 L
298.667 312.75 L
295.093 312.75 293.179 309.629 293.179 306.437 C
293.179 306.437 L
293.179 301.229 297.847 295.25 308.444 295.25 C
308.444 296.5 L
308.444 295.25 L
319.042 295.25 323.71 301.229 323.71 306.437 C
323.71 306.437 L
323.71 309.629 321.796 312.75 318.222 312.75 C
318.222 311.5 L
318.222 312.75 L
314.649 312.75 312.735 309.629 312.735 306.437 C
312.735 306.437 L
312.735 301.229 317.403 295.25 328.0 295.25 C
328.0 296.5 L
328.0 295.25 L
338.597 295.25 343.265 301.229 343.265 306.437 C
343.265 306.437 L
343.265 309.629 341.351 312.75 337.778 312.75 C
337.778 311.5 L
337.778 312.75 L
334.204 312.75 332.29 309.629 332.29 306.437 C
332.29 306.437 L
332.29 301.229 336.958 295.25 347.556 295.25 C
347.556 296.5 L
347.556 295.25 L
358.153 295.25 362.821 301.229 362.821 306.437 C
362.821 306.437 L
362.821 309.629 360.907 312.75 357.333 312.75 C
357.333 311.5 L
357.333 312.75 L
353.76 312.75 351.846 309.629 351.846 306.437 C
351.846 306.437 L
351.846 301.229 356.514 295.25 367.111 295.25 C
367.111 296.5 L
367.111 295.25 L
377.709 295.25 382.376 301.229 382.376 306.437 C
382.376 306.437 L
382.376 309.629 380.462 312.75 376.889 312.75 C
376.889 311.5 L
376.889 312.75 L
373.315 312.75 371.401 309.629 371.401 306.437 C
371.401 306.437 L
371.401 301.229 376.069 295.25 386.667 295.25 C
386.667 296.5 L
386.667 295.25 L
397.264 295.25 401.932 301.229 401.932 306.437 C
401.932 306.437 L
401.932 309.629 400.018 312.75 396.444 312.75 C
396.444 311.5 L
396.444 312.75 L
392.564 312.75 390.696 309.118 390.696 305.731 C
390.696 305.731 L
390.696 300.882 394.268 295.25 402.311 295.25 C
402.311 296.5 L
402.311 295.25 L
411.482 295.25 416.044 299.213 417.21 303.685 C
417.525 304.894 L
415.106 305.525 L
414.79 304.315 L
414.001 301.287 410.74 297.75 402.311 297.75 C
402.311 297.75 L
395.781 297.75 393.196 302.126 393.196 305.731 C
393.196 305.731 L
393.196 308.529 394.622 310.25 396.444 310.25 C
396.444 310.25 L
398.135 310.25 399.432 308.811 399.432 306.437 C
399.432 306.437 L
399.432 302.938 396.237 297.75 386.667 297.75 C
386.667 297.75 L
377.097 297.75 373.901 302.938 373.901 306.437 C
373.901 306.437 L
373.901 308.811 375.199 310.25 376.889 310.25 C
376.889 310.25 L
378.579 310.25 379.876 308.811 379.876 306.437 C
379.876 306.437 L
379.876 302.938 376.681 297.75 367.111 297.75 C
367.111 297.75 L
357.541 297.75 354.346 302.938 354.346 306.437 C
354.346 306.437 L
354.346 308.811 355.643 310.25 357.333 310.25 C
357.333 310.25 L
359.024 310.25 360.321 308.811 360.321 306.437 C
360.321 306.437 L
360.321 302.938 357.125 297.75 347.556 297.75 C
347.556 297.75 L
337.986 297.75 334.79 302.938 334.79 306.437 C
334.79 306.437 L
334.79 308.811 336.088 310.25 337.778 310.25 C
337.778 310.25 L
339.468 310.25 340.765 308.811 340.765 306.437 C
340.765 306.437 L
340.765 302.938 337.57 297.75 328.0 297.75 C
328.0 297.75 L
318.43 297.75 315.235 302.938 315.235 306.437 C
315.235 306.437 L
315.235 308.811 316.532 310.25 318.222 310.25 C
318.222 310.25 L
319.912 310.25 321.21 308.811 321.21 306.437 C
321.21 306.437 L
321.21 302.938 318.014 297.75 308.444 297.75 C
308.444 297.75 L
298.875 297.75 295.679 302.938 295.679 306.437 C
295.679 306.437 L
295.679 308.811 296.977 310.25 298.667 310.25 C
298.667 310.25 L
300.357 310.25 301.654 308.811 301.654 306.437 C
301.654 306.437 L
301.654 302.938 298.459 297.75 288.889 297.75 C
288.889 297.75 L
279.319 297.75 276.124 302.938 276.124 306.437 C
276.124 306.437 L
276.124 308.811 277.421 310.25 279.111 310.25 C
279.111 310.25 L
280.801 310.25 282.099 308.811 282.099 306.437 C
282.099 306.437 L
282.099 302.938 278.903 297.75 269.333 297.75 C
269.333 297.75 L
259.763 297.75 256.568 302.938 256.568 306.437 C
256.568 306.437 L
256.568 308.811 257.865 310.25 259.556 310.25 C
259.556 310.25 L
261.378 310.25 262.804 308.529 262.804 305.731 C
262.804 305.731 L
262.804 302.126 260.219 297.75 253.689 297.75 C
253.689 297.75 L
245.26 297.75 241.999 301.287 241.21 304.315 C
240.894 305.525 L
238.475 304.894 L
P
G
WC
WF
R N
N
417.21 112.315 M
417.21 112.315 L
416.044 116.787 411.482 120.75 402.311 120.75 C
402.311 119.5 L
402.311 120.75 L
394.268 120.75 390.696 115.119 390.696 110.269 C
390.696 110.269 L
390.696 106.882 392.564 103.25 396.444 103.25 C
396.444 104.5 L
396.444 103.25 L
400.018 103.25 401.932 106.371 401.932 109.563 C
401.932 109.563 L
401.932 114.771 397.264 120.75 386.667 120.75 C
386.667 119.5 L
386.667 120.75 L
376.069 120.75 371.401 114.771 371.401 109.563 C
371.401 109.563 L
371.401 106.371 373.315 103.25 376.889 103.25 C
376.889 104.5 L
376.889 103.25 L
380.462 103.25 382.376 106.371 382.376 109.563 C
382.376 109.563 L
382.376 114.771 377.709 120.75 367.111 120.75 C
367.111 119.5 L
367.111 120.75 L
356.514 120.75 351.846 114.771 351.846 109.563 C
351.846 109.563 L
351.846 106.371 353.76 103.25 357.333 103.25 C
357.333 104.5 L
357.333 103.25 L
360.907 103.25 362.821 106.371 362.821 109.563 C
362.821 109.563 L
362.821 114.771 358.153 120.75 347.556 120.75 C
347.556 119.5 L
347.556 120.75 L
336.958 120.75 332.29 114.771 332.29 109.563 C
332.29 109.563 L
332.29 106.371 334.204 103.25 337.778 103.25 C
337.778 104.5 L
337.778 103.25 L
341.351 103.25 343.265 106.371 343.265 109.563 C
343.265 109.563 L
343.265 114.771 338.597 120.75 328.0 120.75 C
328.0 119.5 L
328.0 120.75 L
317.403 120.75 312.735 114.771 312.735 109.563 C
312.735 109.563 L
312.735 106.371 314.649 103.25 318.222 103.25 C
318.222 104.5 L
318.222 103.25 L
321.796 103.25 323.71 106.371 323.71 109.563 C
323.71 109.563 L
323.71 114.771 319.042 120.75 308.444 120.75 C
308.444 119.5 L
308.444 120.75 L
297.847 120.75 293.179 114.771 293.179 109.563 C
293.179 109.563 L
293.179 106.371 295.093 103.25 298.667 103.25 C
298.667 104.5 L
298.667 103.25 L
302.24 103.25 304.154 106.371 304.154 109.563 C
304.154 109.563 L
304.154 114.771 299.486 120.75 288.889 120.75 C
288.889 119.5 L
288.889 120.75 L
278.292 120.75 273.624 114.771 273.624 109.563 C
273.624 109.563 L
273.624 106.371 275.538 103.25 279.111 103.25 C
279.111 104.5 L
279.111 103.25 L
282.685 103.25 284.599 106.371 284.599 109.563 C
284.599 109.563 L
284.599 114.771 279.931 120.75 269.333 120.75 C
269.333 119.5 L
269.333 120.75 L
258.736 120.75 254.068 114.771 254.068 109.563 C
254.068 109.563 L
254.068 106.371 255.982 103.25 259.556 103.25 C
259.556 104.5 L
259.556 103.25 L
263.436 103.25 265.304 106.882 265.304 110.269 C
265.304 110.269 L
265.304 115.119 261.732 120.75 253.689 120.75 C
253.689 119.5 L
253.689 120.75 L
244.518 120.75 239.956 116.787 238.79 112.315 C
238.475 111.106 L
240.894 110.475 L
241.21 111.685 L
241.999 114.713 245.259 118.25 253.689 118.25 C
253.689 118.25 L
260.219 118.25 262.804 113.874 262.804 110.269 C
262.804 110.269 L
262.804 107.471 261.378 105.75 259.556 105.75 C
259.556 105.75 L
257.865 105.75 256.568 107.189 256.568 109.563 C
256.568 109.563 L
256.568 113.062 259.763 118.25 269.333 118.25 C
269.333 118.25 L
278.903 118.25 282.099 113.062 282.099 109.563 C
282.099 109.563 L
282.099 107.189 280.801 105.75 279.111 105.75 C
279.111 105.75 L
277.421 105.75 276.124 107.189 276.124 109.563 C
276.124 109.563 L
276.124 113.062 279.319 118.25 288.889 118.25 C
288.889 118.25 L
298.459 118.25 301.654 113.062 301.654 109.563 C
301.654 109.563 L
301.654 107.189 300.357 105.75 298.667 105.75 C
298.667 105.75 L
296.977 105.75 295.679 107.189 295.679 109.563 C
295.679 109.563 L
295.679 113.062 298.875 118.25 308.444 118.25 C
308.444 118.25 L
318.014 118.25 321.21 113.062 321.21 109.563 C
321.21 109.563 L
321.21 107.189 319.912 105.75 318.222 105.75 C
318.222 105.75 L
316.532 105.75 315.235 107.189 315.235 109.563 C
315.235 109.563 L
315.235 113.062 318.43 118.25 328.0 118.25 C
328.0 118.25 L
337.57 118.25 340.765 113.062 340.765 109.563 C
340.765 109.563 L
340.765 107.189 339.468 105.75 337.778 105.75 C
337.778 105.75 L
336.088 105.75 334.79 107.189 334.79 109.563 C
334.79 109.563 L
334.79 113.062 337.986 118.25 347.556 118.25 C
347.556 118.25 L
357.125 118.25 360.321 113.062 360.321 109.563 C
360.321 109.563 L
360.321 107.189 359.024 105.75 357.333 105.75 C
357.333 105.75 L
355.643 105.75 354.346 107.189 354.346 109.563 C
354.346 109.563 L
354.346 113.062 357.541 118.25 367.111 118.25 C
367.111 118.25 L
376.681 118.25 379.876 113.062 379.876 109.563 C
379.876 109.563 L
379.876 107.189 378.579 105.75 376.889 105.75 C
376.889 105.75 L
375.199 105.75 373.901 107.189 373.901 109.563 C
373.901 109.563 L
373.901 113.062 377.097 118.25 386.667 118.25 C
386.667 118.25 L
396.237 118.25 399.432 113.062 399.432 109.563 C
399.432 109.563 L
399.432 107.189 398.135 105.75 396.444 105.75 C
396.444 105.75 L
394.622 105.75 393.196 107.471 393.196 110.269 C
393.196 110.269 L
393.196 113.874 395.781 118.25 402.311 118.25 C
402.311 118.25 L
410.74 118.25 414.001 114.713 414.79 111.685 C
415.106 110.475 L
417.525 111.106 L
P
G
WC
WF
R N
N
241.21 112.315 M
241.21 112.315 L
240.044 116.787 235.482 120.75 226.311 120.75 C
226.311 119.5 L
226.311 120.75 L
218.268 120.75 214.696 115.119 214.696 110.269 C
214.696 110.269 L
214.696 106.882 216.564 103.25 220.444 103.25 C
220.444 104.5 L
220.444 103.25 L
224.018 103.25 225.932 106.371 225.932 109.563 C
225.932 109.563 L
225.932 114.771 221.264 120.75 210.667 120.75 C
210.667 119.5 L
210.667 120.75 L
200.069 120.75 195.401 114.771 195.401 109.563 C
195.401 109.563 L
195.401 106.371 197.315 103.25 200.889 103.25 C
200.889 104.5 L
200.889 103.25 L
204.462 103.25 206.376 106.371 206.376 109.563 C
206.376 109.563 L
206.376 114.771 201.709 120.75 191.111 120.75 C
191.111 119.5 L
191.111 120.75 L
180.514 120.75 175.846 114.771 175.846 109.563 C
175.846 109.563 L
175.846 106.371 177.76 103.25 181.333 103.25 C
181.333 104.5 L
181.333 103.25 L
184.907 103.25 186.821 106.371 186.821 109.563 C
186.821 109.563 L
186.821 114.771 182.153 120.75 171.556 120.75 C
171.556 119.5 L
171.556 120.75 L
160.958 120.75 156.29 114.771 156.29 109.563 C
156.29 109.563 L
156.29 106.371 158.204 103.25 161.778 103.25 C
161.778 104.5 L
161.778 103.25 L
165.351 103.25 167.265 106.371 167.265 109.563 C
167.265 109.563 L
167.265 114.771 162.597 120.75 152.0 120.75 C
152.0 119.5 L
152.0 120.75 L
141.403 120.75 136.735 114.771 136.735 109.563 C
136.735 109.563 L
136.735 106.371 138.649 103.25 142.222 103.25 C
142.222 104.5 L
142.222 103.25 L
145.796 103.25 147.71 106.371 147.71 109.563 C
147.71 109.563 L
147.71 114.771 143.042 120.75 132.444 120.75 C
132.444 119.5 L
132.444 120.75 L
121.847 120.75 117.179 114.771 117.179 109.563 C
117.179 109.563 L
117.179 106.371 119.093 103.25 122.667 103.25 C
122.667 104.5 L
122.667 103.25 L
126.24 103.25 128.154 106.371 128.154 109.563 C
128.154 109.563 L
128.154 114.771 123.486 120.75 112.889 120.75 C
112.889 119.5 L
112.889 120.75 L
102.291 120.75 97.624 114.771 97.624 109.563 C
97.624 109.563 L
97.624 106.371 99.538 103.25 103.111 103.25 C
103.111 104.5 L
103.111 103.25 L
106.685 103.25 108.599 106.371 108.599 109.563 C
108.599 109.563 L
108.599 114.771 103.931 120.75 93.333 120.75 C
93.333 119.5 L
93.333 120.75 L
82.736 120.75 78.068 114.771 78.068 109.563 C
78.068 109.563 L
78.068 106.371 79.982 103.25 83.556 103.25 C
83.556 104.5 L
83.556 103.25 L
87.436 103.25 89.304 106.882 89.304 110.269 C
89.304 110.269 L
89.304 115.119 85.732 120.75 77.689 120.75 C
77.689 119.5 L
77.689 120.75 L
68.518 120.75 63.956 116.787 62.79 112.315 C
62.475 111.106 L
64.894 110.475 L
65.21 111.685 L
65.999 114.713 69.259 118.25 77.689 118.25 C
77.689 118.25 L
84.219 118.25 86.804 113.874 86.804 110.269 C
86.804 110.269 L
86.804 107.471 85.378 105.75 83.556 105.75 C
83.556 105.75 L
81.865 105.75 80.568 107.189 80.568 109.563 C
80.568 109.563 L
80.568 113.062 83.763 118.25 93.333 118.25 C
93.333 118.25 L
102.903 118.25 106.099 113.062 106.099 109.563 C
106.099 109.563 L
106.099 107.189 104.801 105.75 103.111 105.75 C
103.111 105.75 L
101.421 105.75 100.124 107.189 100.124 109.563 C
100.124 109.563 L
100.124 113.062 103.319 118.25 112.889 118.25 C
112.889 118.25 L
122.459 118.25 125.654 113.062 125.654 109.563 C
125.654 109.563 L
125.654 107.189 124.357 105.75 122.667 105.75 C
122.667 105.75 L
120.977 105.75 119.679 107.189 119.679 109.563 C
119.679 109.563 L
119.679 113.062 122.875 118.25 132.444 118.25 C
132.444 118.25 L
142.014 118.25 145.21 113.062 145.21 109.563 C
145.21 109.563 L
145.21 107.189 143.912 105.75 142.222 105.75 C
142.222 105.75 L
140.532 105.75 139.235 107.189 139.235 109.563 C
139.235 109.563 L
139.235 113.062 142.43 118.25 152.0 118.25 C
152.0 118.25 L
161.57 118.25 164.765 113.062 164.765 109.563 C
164.765 109.563 L
164.765 107.189 163.468 105.75 161.778 105.75 C
161.778 105.75 L
160.088 105.75 158.79 107.189 158.79 109.563 C
158.79 109.563 L
158.79 113.062 161.986 118.25 171.556 118.25 C
171.556 118.25 L
181.125 118.25 184.321 113.062 184.321 109.563 C
184.321 109.563 L
184.321 107.189 183.024 105.75 181.333 105.75 C
181.333 105.75 L
179.643 105.75 178.346 107.189 178.346 109.563 C
178.346 109.563 L
178.346 113.062 181.541 118.25 191.111 118.25 C
191.111 118.25 L
200.681 118.25 203.876 113.062 203.876 109.563 C
203.876 109.563 L
203.876 107.189 202.579 105.75 200.889 105.75 C
200.889 105.75 L
199.199 105.75 197.901 107.189 197.901 109.563 C
197.901 109.563 L
197.901 113.062 201.097 118.25 210.667 118.25 C
210.667 118.25 L
220.237 118.25 223.432 113.062 223.432 109.563 C
223.432 109.563 L
223.432 107.189 222.135 105.75 220.444 105.75 C
220.444 105.75 L
218.622 105.75 217.196 107.471 217.196 110.269 C
217.196 110.269 L
217.196 113.874 219.781 118.25 226.311 118.25 C
226.311 118.25 L
234.741 118.25 238.001 114.713 238.79 111.685 C
239.106 110.475 L
241.525 111.106 L
P
G
WC
WF
R N
pgSave restore
showpage
%%EOF
