%!PS-Adobe-3.0 EPSF-3.0
%%BoundingBox: 87 527 345 689
%%Creator: hjf with JaxoDraw-2.1-0
%%Title: 
%%CreationDate: 13/9/2013
%%BeginProlog
/imStr 0 def /imageSrc {currentfile /ASCII85Decode filter /RunLengthDecode filter  imStr readstring pop } def
/BD {bind def} bind def
/D {def} BD
/C {curveto} BD
/L {lineto} BD
/M {moveto} BD
/R {grestore} BD
/G {gsave} BD
/N {newpath} BD
/P {closepath} BD
/EC {eoclip} BD
/WC {clip} BD
/EF {eofill} BD
/WF {fill} BD
/SG {setgray} BD
/SC {setrgbcolor} BD
/ISOF {
     dup findfont dup length 1 add dict begin {
             1 index /FID eq {pop pop} {D} ifelse
     } forall /Encoding ISOLatin1Encoding D
     currentdict end definefont
} BD
/NZ {dup 1 lt {pop 1} if} BD
/S {
     moveto 1 index stringwidth pop NZ sub
     1 index length 1 sub NZ div 0
     3 2 roll ashow newpath} BD
/FL [
    /AvantGarde-Book ISOF
    /AvantGarde-BookOblique ISOF
    /AvantGarde-Demi ISOF
    /AvantGarde-DemiOblique ISOF
    /Bookman-Demi ISOF
    /Bookman-DemiItalic ISOF
    /Bookman-Light ISOF
    /Bookman-LightItalic ISOF
    /Courier ISOF
    /Courier-Bold ISOF
    /Courier-BoldOblique ISOF
    /Courier-Oblique ISOF
    /Helvetica ISOF
    /Helvetica-Bold ISOF
    /Helvetica-BoldOblique ISOF
    /Helvetica-Narrow ISOF
    /Helvetica-Narrow-Bold ISOF
    /Helvetica-Narrow-BoldOblique ISOF
    /Helvetica-Narrow-Oblique ISOF
    /Helvetica-Oblique ISOF
    /NewCenturySchlbk-Bold ISOF
    /NewCenturySchlbk-BoldItalic ISOF
    /NewCenturySchlbk-Italic ISOF
    /NewCenturySchlbk-Roman ISOF
    /Palatino-Bold ISOF
    /Palatino-BoldItalic ISOF
    /Palatino-Italic ISOF
    /Palatino-Roman ISOF
    /Symbol findfont
    /Times-Bold ISOF
    /Times-BoldItalic ISOF
    /Times-Italic ISOF
    /Times-Roman ISOF
    /ZapfDingbats findfont
    /ZapfChancery-MediumItalic ISOF
] D
/F {
     FL exch get exch scalefont
     [1 0 0 -1 0 0] makefont setfont} BD
%%EndProlog
%%BeginSetup
<< /PageSize [612.0 792.0] /DeferredMediaSelection true /ImagingBBox null /ManualFeed false /NumCopies 1 >> pop 
%%EndSetup
%%Page: 1 1
/pgSave save def
792.0 0 exch translate 1 -1 scale[72 300 div 0 0 72 300 div 0 0]concat
G
[4.1666665 0.0 0.0 4.1666665 300.0 300.0] concat
N
0.0 0.0 M
468.0 0.0 L
468.0 648.0 L
0.0 648.0 L
0.0 0.0 L
P
WC
N
48.5 64.0 M
48.5 64.0 L
48.5 160.0 L
48.5 160.5 L
47.5 160.5 L
47.5 160.0 L
47.5 64.0 L
47.5 63.5 L
48.5 63.5 L
P
G
WC
WF
R N
N
48.354 160.354 M
48.354 160.354 L
16.354 192.354 L
16.0 192.707 L
15.293 192.0 L
15.646 191.646 L
47.646 159.646 L
48.0 159.293 L
48.707 160.0 L
P
G
WC
WF
R N
N
47.646 64.354 M
47.646 64.354 L
15.646 32.354 L
15.293 32.0 L
16.0 31.293 L
16.354 31.646 L
48.354 63.646 L
48.707 64.0 L
48.0 64.707 L
P
G
WC
WF
R N
N
240.5 64.0 M
240.5 64.0 L
240.5 160.0 L
240.5 160.5 L
239.5 160.5 L
239.5 160.0 L
239.5 64.0 L
239.5 63.5 L
240.5 63.5 L
P
G
WC
WF
R N
N
48.224 63.553 M
48.224 63.553 L
240.224 159.553 L
240.671 159.776 L
240.224 160.671 L
239.776 160.447 L
47.776 64.447 L
47.329 64.224 L
47.776 63.329 L
P
G
WC
WF
R N
N
240.224 64.447 M
240.224 64.447 L
48.224 160.447 L
47.776 160.671 L
47.329 159.776 L
47.776 159.553 L
239.776 63.553 L
240.224 63.329 L
240.671 64.224 L
P
G
WC
WF
R N
N
240.354 159.646 M
240.354 159.646 L
272.354 191.646 L
272.707 192.0 L
272.0 192.707 L
271.646 192.354 L
239.646 160.354 L
239.293 160.0 L
240.0 159.293 L
P
G
WC
WF
R N
N
272.354 32.354 M
272.354 32.354 L
240.354 64.354 L
240.0 64.707 L
239.293 64.0 L
239.646 63.646 L
271.646 31.646 L
272.0 31.293 L
272.707 32.0 L
P
G
WC
WF
R N
N
144.5 112.0 M
144.5 112.0 L
144.5 152.0 L
144.5 152.5 L
143.5 152.5 L
143.5 152.0 L
143.5 112.0 L
143.5 111.5 L
144.5 111.5 L
P
G
WC
WF
R N
pgSave restore
showpage
%%EOF
