%!PS-Adobe-2.0 EPSF-2.0
%%Creator: dvips(k) 5.98 Copyright 2009 Radical Eye Software
%%Title: /home/hjf/fivepoint/figures/Jaxo_tmp.dvi
%%CreationDate: Fri Sep 13 19:38:03 2013
%%BoundingBox: 160 549 435 721
%%EndComments
%DVIPSWebPage: (www.radicaleye.com)
%DVIPSCommandLine: dvips -E -o /home/hjf/fivepoint/figures/topo3305l.eps
%+ /home/hjf/fivepoint/figures/Jaxo_tmp.dvi
%DVIPSParameters: dpi=600
%DVIPSSource:  TeX output 2013.09.13:1938
%%BeginProcSet: tex.pro 0 0
%!
/TeXDict 300 dict def TeXDict begin/N{def}def/B{bind def}N/S{exch}N/X{S
N}B/A{dup}B/TR{translate}N/isls false N/vsize 11 72 mul N/hsize 8.5 72
mul N/landplus90{false}def/@rigin{isls{[0 landplus90{1 -1}{-1 1}ifelse 0
0 0]concat}if 72 Resolution div 72 VResolution div neg scale isls{
landplus90{VResolution 72 div vsize mul 0 exch}{Resolution -72 div hsize
mul 0}ifelse TR}if Resolution VResolution vsize -72 div 1 add mul TR[
matrix currentmatrix{A A round sub abs 0.00001 lt{round}if}forall round
exch round exch]setmatrix}N/@landscape{/isls true N}B/@manualfeed{
statusdict/manualfeed true put}B/@copies{/#copies X}B/FMat[1 0 0 -1 0 0]
N/FBB[0 0 0 0]N/nn 0 N/IEn 0 N/ctr 0 N/df-tail{/nn 8 dict N nn begin
/FontType 3 N/FontMatrix fntrx N/FontBBox FBB N string/base X array
/BitMaps X/BuildChar{CharBuilder}N/Encoding IEn N end A{/foo setfont}2
array copy cvx N load 0 nn put/ctr 0 N[}B/sf 0 N/df{/sf 1 N/fntrx FMat N
df-tail}B/dfs{div/sf X/fntrx[sf 0 0 sf neg 0 0]N df-tail}B/E{pop nn A
definefont setfont}B/Cw{Cd A length 5 sub get}B/Ch{Cd A length 4 sub get
}B/Cx{128 Cd A length 3 sub get sub}B/Cy{Cd A length 2 sub get 127 sub}
B/Cdx{Cd A length 1 sub get}B/Ci{Cd A type/stringtype ne{ctr get/ctr ctr
1 add N}if}B/CharBuilder{save 3 1 roll S A/base get 2 index get S
/BitMaps get S get/Cd X pop/ctr 0 N Cdx 0 Cx Cy Ch sub Cx Cw add Cy
setcachedevice Cw Ch true[1 0 0 -1 -.1 Cx sub Cy .1 sub]{Ci}imagemask
restore}B/D{/cc X A type/stringtype ne{]}if nn/base get cc ctr put nn
/BitMaps get S ctr S sf 1 ne{A A length 1 sub A 2 index S get sf div put
}if put/ctr ctr 1 add N}B/I{cc 1 add D}B/bop{userdict/bop-hook known{
bop-hook}if/SI save N @rigin 0 0 moveto/V matrix currentmatrix A 1 get A
mul exch 0 get A mul add .99 lt{/QV}{/RV}ifelse load def pop pop}N/eop{
SI restore userdict/eop-hook known{eop-hook}if showpage}N/@start{
userdict/start-hook known{start-hook}if pop/VResolution X/Resolution X
1000 div/DVImag X/IEn 256 array N 2 string 0 1 255{IEn S A 360 add 36 4
index cvrs cvn put}for pop 65781.76 div/vsize X 65781.76 div/hsize X}N
/p{show}N/RMat[1 0 0 -1 0 0]N/BDot 260 string N/Rx 0 N/Ry 0 N/V{}B/RV/v{
/Ry X/Rx X V}B statusdict begin/product where{pop false[(Display)(NeXT)
(LaserWriter 16/600)]{A length product length le{A length product exch 0
exch getinterval eq{pop true exit}if}{pop}ifelse}forall}{false}ifelse
end{{gsave TR -.1 .1 TR 1 1 scale Rx Ry false RMat{BDot}imagemask
grestore}}{{gsave TR -.1 .1 TR Rx Ry scale 1 1 false RMat{BDot}
imagemask grestore}}ifelse B/QV{gsave newpath transform round exch round
exch itransform moveto Rx 0 rlineto 0 Ry neg rlineto Rx neg 0 rlineto
fill grestore}B/a{moveto}B/delta 0 N/tail{A/delta X 0 rmoveto}B/M{S p
delta add tail}B/b{S p tail}B/c{-4 M}B/d{-3 M}B/e{-2 M}B/f{-1 M}B/g{0 M}
B/h{1 M}B/i{2 M}B/j{3 M}B/k{4 M}B/w{0 rmoveto}B/l{p -4 w}B/m{p -3 w}B/n{
p -2 w}B/o{p -1 w}B/q{p 1 w}B/r{p 2 w}B/s{p 3 w}B/t{p 4 w}B/x{0 S
rmoveto}B/y{3 2 roll p a}B/bos{/SS save N}B/eos{SS restore}B end

%%EndProcSet
%%BeginProcSet: pstricks.pro 0 0
% $Id: pstricks.pro 90 2009-01-30 10:58:51Z herbert $
%
%% PostScript prologue for pstricks.tex.
%% Version 1.06, 2009/01/30
%%
%% This program can be redistributed and/or modified under the terms
%% of the LaTeX Project Public License Distributed from CTAN archives
%% in directory macros/latex/base/lppl.txt.
%
%
% Define the follwing gs-functions if not known, eg when using distiller
%
systemdict /.setopacityalpha known not {/.setopacityalpha { pop } def } if
systemdict /.setblendmode known not {/.setblendmode { pop } def } if
systemdict /.setshapealpha known not {/.setshapealpha { pop } def } if
%
/tx@Dict 200 dict def 				% the main PSTricks dictionary
tx@Dict begin
/ADict 25 dict def				% The arrow dictionaray
/CM { matrix currentmatrix } bind def
/SLW /setlinewidth load def
/CLW /currentlinewidth load def
/CP /currentpoint load def
/ED { exch def } bind def
/L /lineto load def
/T /translate load def
/TMatrix { } def
/RAngle { 0 } def
/Sqrt { dup 0 lt { pop 0 } { sqrt } ifelse } def  % return 0 for negative arguments 
/Atan { /atan load stopped { pop pop 0 } if } def % return 0 if atan not known
/ATAN1 {neg -1 atan 180 sub } def		% atan(x) (only one parameter)
/Div { dup 0 eq { pop } { div } ifelse } def  	% control the division
/tan { dup cos abs 1.e-10 lt 
  { pop 1.e10 } 				% return 1.e10 as infinit
  { dup sin exch cos div } ifelse 		% default sin/cos
} def
/Tan { dup sin exch cos Div } def 		% sin(x)/cos(x) x in degrees
/Acos {dup dup mul neg 1 add dup 0 lt {		% arc cos, returns 0 when negative root
  pop pop 0 }{ sqrt exch atan} ifelse } def
/NET { neg exch neg exch T } def	      	% change coordinate system to the negative one		
/Pyth { dup mul exch dup mul add sqrt } def   	% Pythagoras, expects 2 parameter
/Pyth2 {					% Pythagoras, xA yA xB yB
  3 -1 roll 		% xA xB yB yA
  sub			% xA xB yB-yA
  3 1 roll 		% yB-yA xA xB
  sub			% yB-yA xA-xB
  Pyth } def
/PtoC { 2 copy cos mul 3 1 roll sin mul } def 	% Polar to Cartesian
/Rand { rand 4294967295 div } def		% a real random number
%----------------- hv added 20050516 ---------------
/PiDiv2 1.57079632680 def
/Pi 3.14159265359 def 
/TwoPi 6.28318530718 def
/Euler 2.71828182846 def 
%/e Euler bind def
%
/RadtoDeg { 180 mul Pi div } bind def 		% convert from radian to degrees
/DegtoRad { Pi mul 180 div } bind def 		% viceversa
%----------------- hv end---------------------------
/PathLength@ { /z z y y1 sub x x1 sub Pyth add def /y1 y def /x1 x def } def
%
/PathLength { 
  flattenpath /z 0 def 
  { /y1 ED /x1 ED /y2 y1 def /x2 x1 def }
  { /y ED /x ED PathLength@ } 
  {} 
  { /y y2 def /x x2 def PathLength@ }
  /pathforall load stopped { pop pop pop pop } if 
  z 
} def
%
/STP { .996264 dup scale } def			% BP/PT scaling
/STV { SDict begin normalscale end STP  } def	% 
%
%%-------------- DG begin patch 15 ---------------%%
%/DashLine { dup 0 gt { /a .5 def PathLength exch div } { pop /a 1 def
%PathLength } ifelse /b ED /x ED /y ED /z y x add def b a .5 sub 2 mul y
%mul sub z Div round z mul a .5 sub 2 mul y mul add b exch Div dup y mul
%/y ED x mul /x ED x 0 gt y 0 gt and { [ y x ] 1 a sub y mul } { [ 1 0 ]
%0 } ifelse setdash stroke } def
/DashLine {
  dup 0 gt { /a .5 def PathLength exch div } { pop /a 1 def PathLength } ifelse
  /b ED /x1 ED /y1 ED /x ED /y ED 
  /z y x add y1 add x1 add def
  /Coef b a .5 sub 2 mul y mul sub z Div round 
    z mul a .5 sub 2 mul y mul add b exch Div def 
  /y y Coef mul def 
  /x x Coef mul def 
  /y1 y1 Coef mul def 
  /x1 x1 Coef mul def
  x1 0 gt y1 0 gt or x 0 gt or y 0 gt and 
    { [ y x y1 x1 ] 1 a sub y mul }
    { [ 1 0 ] 0 } ifelse 
  setdash stroke
} def
%%-------------- DG end patch 15 ---------------%%
/DotLine { 
  /b PathLength def 
  /a ED /z ED /y CLW def 
  /z y z add def 
  a 0 gt { 
    /b b a div def 
  }{ 
    a 0 eq { 
      /b b y sub def 
    }{ a -3 eq { 
      /b b y add def } if 
    } ifelse 
  } ifelse 
  [ 0 b b z Div round Div dup 0 le { pop 1 } if ] 
  a 0 gt { 0 }{ y 2 div a -2 gt { neg }if } ifelse 
  setdash 1 setlinecap stroke 
} def
%
/LineFill { % hv ------------ patch 7 -------------
  gsave 
  abs /hatchWidthInc ED
  abs /hatchSepInc ED
  abs CLW add /a ED 
  a 0 dtransform round exch round exch
  2 copy idtransform 
  exch Atan rotate 
  idtransform pop /a ED 
  .25 .25 itransform pathbbox 
  /y2 ED 
  a Div ceiling cvi /x2 ED /y1 ED 
  a Div cvi /x1 ED /y2 y2 y1 sub def 
  clip 
  newpath 
  2 setlinecap 
  systemdict
  /setstrokeadjust known { true setstrokeadjust } if 
  x2 x1 sub 1 add { 
    x1 a mul y1 moveto 0 y2 rlineto stroke 
    /x1 x1 1 add 
      hatchWidthInc 0 gt { CLW add } if 
    def 
    hatchSepInc 0 gt hatchWidthInc 0 gt or { 
      /a a hatchSepInc add def
      CLW hatchWidthInc add SLW 
    } if
  } repeat 
  grestore 
  pop pop } def
%
/PenroseFill {%	 on stack: scaling factor
  dup dup scale
  1 exch div round /penroseFactor ED 
  a 0 dtransform round exch round exch
  2 copy idtransform 
  exch Atan rotate 
  idtransform pop /a ED 
  .25 .25 itransform pathbbox 
  /y2 ED 
  a Div ceiling cvi /x2 ED /y1 ED 
  a Div cvi /x1 ED /y2 y2 y1 sub def 
  clip 
  newpath 
  systemdict
  /setstrokeadjust known { true setstrokeadjust } if 
  /I/S/L/W/G/+/Z/F/E/D[/def/exch/for{E D}/add{s E get mul}
 { Z -36.2001 1 33 }{25 E S rlineto}{/q Z dup q G E q 1 + G}{Z 2 2}]{cvx def}forall
  [0 72 1008 {dup sin E cos }F ]1 setlinejoin/s W{/a W{/b I 10{/i I 4{/m I moveto
  i m +/j I 10{/l Z b m l + G a l G sub s m get div .2 + floor .3 + 25
  mul j l + S rmoveto}F i L j L stroke }F}F}F}F 
  grestore 
  pop pop 
} def
%
%gsave abs CLW add /a ED a 0 dtransform round exch round exch
%2 copy idtransform exch Atan rotate idtransform pop /a ED .25 .25
%% DG/SR modification begin - Dec. 12, 1997 - Patch 2
%%itransform translate pathbbox /y2 ED a Div ceiling cvi /x2 ED /y1 ED a
%itransform pathbbox /y2 ED a Div ceiling cvi /x2 ED /y1 ED a
%% DG/SR modification end
%Div cvi /x1 ED /y2 y2 y1 sub def clip newpath 2 setlinecap systemdict
%/setstrokeadjust known { true setstrokeadjust } if x2 x1 sub 1 add { x1
%% DG/SR modification begin - Jun.  1, 1998 - Patch 3 (from Michael Vulis)
%% a mul y1 moveto 0 y2 rlineto stroke /x1 x1 1 add def } repeat grestore }
%% def
%a mul y1 moveto 0 y2 rlineto stroke /x1 x1 1 add def } repeat grestore
%pop pop } def
%% DG/SR modification end
%
/BeginArrow { 
  ADict begin 			% hold it local, for end see EndArrow
  /@mtrx CM def 
  gsave 
  2 copy T 
  2 index sub neg exch 
  3 index sub exch Atan 
  rotate newpath 
} def
%
/EndArrow { @mtrx setmatrix CP grestore end } def % end the ADict
%
/Arrow { 
  CLW mul add dup 
  2 div /w ED 
  mul dup /h ED 
  mul /a ED 
  { 0 h T 1 -1 scale } if 
  w neg h moveto 
  0 0 L w h L w neg a neg rlineto 
  gsave fill grestore 
} def
%
/ArrowD { % the sides are drawn as curves (hv 20071211)
  CLW mul add dup 
  2 div /w ED 
  mul dup /h ED 
  mul /Inset ED 
  { 0 h T 1 -1 scale } if % changes the direction
% we use y=w/h^2 * x^2 as equation for the control points
% for the coordinates the arrow is seen from top to bottom
% the bottom (tip) is (0;0)
  w neg h moveto % lower left of >
  w 9 div 4 mul neg h 3 div 2 mul
  w 9 div neg       h 3 div  
  0 0 curveto    % tip of >
  w 9 div        h 3 div  
  w 9 div 4 mul  h 3 div 2 mul
  w h curveto % upper left of >
  w neg Inset neg rlineto % move to x=0 and inset
  gsave fill grestore 
} def 
%
/Tbar { 
  CLW mul add /z ED 
  z -2 div CLW 2 div moveto 
  z 0 rlineto stroke 
  0 CLW moveto 
} def
%
/Bracket { 
  CLW mul add dup CLW sub 2 div 
  /x ED mul CLW add /y ED /z CLW 2 div def 
  x neg y moveto 
  x neg CLW 2 div L x CLW 2 div L x y L stroke 
  0 CLW moveto 
} def
%
/RoundBracket { 
  CLW mul add dup 2 div 
  /x ED mul /y ED /mtrx CM def 
  0 CLW 2 div T x y mul 0 ne { x y scale } if 
  1 1 moveto 
  .85 .5 .35 0 0 0 curveto 
  -.35 0 -.85 .5 -1 1 curveto 
  mtrx setmatrix stroke 0 CLW moveto 
} def
%
/SD { 0 360 arc fill } def
%
/EndDot { % DS is the dot size 
  { /z DS def } { /z 0 def } ifelse 
  /b ED 0 z DS SD b { 0 z DS CLW sub SD } if 
  0 DS z add CLW 4 div sub moveto } def
%
/Shadow { [ { /moveto load } { /lineto load } { /curveto load } {
  /closepath load } /pathforall load stopped { pop pop pop pop CP /moveto
  load } if ] cvx newpath 3 1 roll T exec } def
%
%/NArray { 
%   aload length 2 div dup dup cvi eq not { exch pop } if /n exch
%   cvi def 
%} def
%
/NArray { % holds the coordinates and on top of stack the showpoints boolean
  /showpoints ED 
  counttomark 2 div dup cvi /n ED 
  n eq not { exch pop } if
  showpoints { ] aload /Points ED } { n 2 mul 1 add -1 roll pop } ifelse 
} def
%
/Line { 
  NArray n 0 eq not 
    { n 1 eq { 0 0 /n 2 def } if ArrowA /n n 2 sub def 
      n { Lineto } repeat 
      CP 4 2 roll ArrowB L pop pop 
    } if 
} def
%
/Arcto { 
  /a [ 6 -2 roll ] cvx def 
  a r 
  /arcto load stopped { 5 } { 4 } ifelse { pop } repeat 
  a 
} def
%
/CheckClosed { dup n 2 mul 1 sub index eq 2 index n 2 mul 1 add index eq
  and { pop pop /n n 1 sub def } if } def
/Polygon { NArray n 2 eq { 0 0 /n 3 def } if n 3 lt { n { pop pop }
  repeat } { n 3 gt { CheckClosed } if n 2 mul -2 roll /y0 ED /x0 ED /y1
  ED /x1 ED x1 y1 /x1 x0 x1 add 2 div def /y1 y0 y1 add 2 div def x1 y1
  moveto /n n 2 sub def n { Lineto } repeat x1 y1 x0 y0 6 4 roll Lineto
  Lineto pop pop closepath } ifelse } def
/Diamond { 
  /mtrx CM def 
  T rotate 
  /h ED 
  /w ED 
  dup 0 eq { pop } { CLW mul neg 
    /d ED 
    /a w h Atan def 
    /h d a sin Div h add def 
    /w d a cos Div w add def } ifelse 
  mark w 2 div h 2 div w 0 0 h neg w neg 0 0 h w 2 div h 2 div 
  /ArrowA { moveto } def 
  /ArrowB { } def 
  false Line 
  closepath mtrx setmatrix } def
% DG modification begin - Jan. 15, 1997
%/Triangle { /mtrx CM def translate rotate /h ED 2 div /w ED dup 0 eq {
%pop } { CLW mul /d ED /h h d w h Atan sin Div sub def /w w d h w Atan 2
%div dup cos exch sin Div mul sub def } ifelse mark 0 d w neg d 0 h w d 0
%d /ArrowA { moveto } def /ArrowB { } def false Line closepath mtrx
%setmatrix } def
%
/Triangle { 
  /mtrx CM def 
  translate 
  rotate /h ED 2 div /w ED 
  dup CLW mul /d ED 
  /h h d w h Atan sin Div sub def 
  /w w d h w Atan 2 div dup cos exch sin Div mul sub def 
  mark 
  0 d w neg d 0 h w d 0 d 
  /ArrowA { moveto } def 
  /ArrowB { } def 
  false 
  Line 
  closepath 
  mtrx
% DG/SR modification begin - Jun.  1, 1998 - Patch 3 (from Michael Vulis)
% setmatrix } def
  setmatrix pop 
} def
% DG/SR modification end
%
/CCA { 
  /y ED /x ED 
  2 copy y sub /dy1 ED 
  x sub /dx1 ED 
  /l1 dx1 dy1 Pyth def 
} def
%
/CC { 
  /l0 l1 def 
  /x1 x dx sub def 
  /y1 y dy sub def 
  /dx0 dx1 def 
  /dy0 dy1 def 
  CCA 
  /dx dx0 l1 c exp mul dx1 l0 c exp mul add def 
  /dy dy0 l1 c exp mul dy1 l0 c exp mul add def 
  /m dx0 dy0 Atan dx1 dy1 Atan sub 2 div cos abs b exp a mul dx dy Pyth Div 2 div def 
  /x2 x l0 dx mul m mul sub def
  /y2 y l0 dy mul m mul sub def 
  /dx l1 dx mul m mul neg def 
  /dy l1 dy mul m mul neg def 
} def
%
/IC { 
  /c c 1 add def 
  c 0 lt { /c 0 def } { c 3 gt { /c 3 def } if } ifelse 
  /a a 2 mul 3 div 45 cos b exp div def 
  CCA 
  /dx 0 def 
  /dy 0 def 
} def
%
/BOC { IC CC x2 y2 x1 y1 ArrowA CP 4 2 roll x y curveto } def
/NC { CC x1 y1 x2 y2 x y curveto } def
/EOC { x dx sub y dy sub 4 2 roll ArrowB 2 copy curveto } def
/BAC { IC CC x y moveto CC x1 y1 CP ArrowA } def
/NAC { x2 y2 x y curveto CC x1 y1 } def
/EAC { x2 y2 x y ArrowB curveto pop pop } def
%
/OpenCurve { 
  NArray n 3 lt 
    { n { pop pop } repeat } 
    { BOC /n n 3 sub def n { NC } repeat EOC } ifelse 
} def
%
/AltCurve { 
  { false NArray n 2 mul 2 roll 
    [ n 2 mul 3 sub 1 roll ] aload
    /Points ED 
    n 2 mul -2 roll } 
  { false NArray } ifelse 
  n 4 lt { n { pop pop } repeat } { BAC /n n 4 sub def n { NAC } repeat EAC } ifelse 
} def
%
/ClosedCurve { 
  NArray n 3 lt 
    { n { pop pop } repeat } 
    { n 3 gt { CheckClosed } if 
      6 copy n 2 mul 6 add 6 roll 
      IC CC x y moveto n { NC } repeat 
      closepath pop pop 
    } ifelse 
} def
%
/SQ { /r ED r r moveto r r neg L r neg r neg L r neg r L fill } def
/ST { /y ED /x ED x y moveto x neg y L 0 x L fill } def
/SP { /r ED gsave 0 r moveto 4 { 72 rotate 0 r L } repeat fill grestore } def
%
/FontDot { 
  DS 2 mul dup 
  matrix scale matrix concatmatrix exch matrix
  rotate matrix concatmatrix exch 
  findfont exch makefont setfont 
} def
%
/Rect { 
  x1 y1 y2 add 2 div moveto 
  x1 y2 lineto 
  x2 y2 lineto 
  x2 y1 lineto
  x1 y1 lineto 
  closepath 
} def
%
/OvalFrame { 
  x1 x2 eq y1 y2 eq or 
    { pop pop x1 y1 moveto x2 y2 L } 
    { y1 y2 sub abs x1 x2 sub abs 2 copy gt 
      { exch pop } { pop } ifelse 
      2 div exch { dup 3 1 roll mul exch } if 
      2 copy lt { pop } { exch pop } ifelse
      /b ED 
      x1 y1 y2 add 2 div moveto 
      x1 y2 x2 y2 b arcto 
      x2 y2 x2 y1 b arcto
      x2 y1 x1 y1 b arcto 
      x1 y1 x1 y2 b arcto 
      16 { pop } repeat 
      closepath 
    } ifelse 
} def
%
/Frame { 
  CLW mul /a ED 
  3 -1 roll 
  2 copy gt { exch } if 
  a sub /y2 ED 
  a add /y1 ED 
  2 copy gt { exch } if 
  a sub /x2 ED 
  a add /x1 ED 
  1 index 0 eq { pop pop Rect } { OvalFrame } ifelse 
} def
%
/BezierNArray { 
  /f ED 
  counttomark 2 div dup cvi /n ED 
  n eq not { exch pop } if 
  n 1 sub neg 3 mod 3 add 3 mod { 0 0 /n n 1 add def } repeat 
  f { ] aload /Points ED } { n 2 mul 1 add -1 roll pop } ifelse 
} def
%
/OpenBezier { 
  BezierNArray 
  n 1 eq 
    { pop pop } 
    { ArrowA n 4 sub 3 idiv 
      { 6 2 roll 4 2 roll curveto } repeat 
      6 2 roll 4 2 roll ArrowB curveto } ifelse 
} def
%
/ClosedBezier { 
  BezierNArray 
  n 1 eq 
    { pop pop } 
    { moveto n 1 sub 3 idiv 
      { 6 2 roll 4 2 roll curveto } repeat 
      closepath } ifelse 
} def
%
/BezierShowPoints { 
  gsave 
  Points aload length 2 div cvi /n ED 
  moveto 
  n 1 sub { lineto } repeat 
  CLW 2 div SLW [ 4 4 ] 0 setdash stroke 
  grestore 
} def
%
/Parab { 
  /y0 ED /x0 ED /y1 ED /x1 ED 
  /dx x0 x1 sub 3 div def 
  /dy y0 y1 sub 3 div def 
  x0 dx sub y0 dy add x1 y1 ArrowA
  x0 dx add y0 dy add x0 2 mul x1 sub y1 ArrowB 
  curveto 
  /Points [ x1 y1 x0 y0 x0 2 mul x1 sub y1 ] def 
} def
%
/Grid { 
  newpath 
  /a 4 string def 
  /b ED /c ED /n ED 
  cvi dup 1 lt { pop 1 } if 
  /s ED 
  s div dup 0 eq { pop 1 } if 
  /dy ED s div dup 0 eq { pop 1 } if
  /dx ED dy div round dy mul 
  /y0 ED dx div round dx mul 
  /x0 ED dy div round cvi 
  /y2 ED dx div round cvi 
  /x2 ED dy div round cvi 
  /y1 ED dx div round cvi 
  /x1 ED 
  /h y2 y1 sub 0 gt { 1 } { -1 } ifelse def 
  /w x2 x1 sub 0 gt { 1 } { -1 } ifelse def 
  b 0 gt { 
    /z1 b 4 div CLW 2 div add def
%    /Helvetica findfont b scalefont setfont 
    /b b .95 mul CLW 2 div add def } if 
  systemdict /setstrokeadjust known 
    { true setstrokeadjust /t { } def }
    { /t { transform 0.25 sub round 0.25 add exch 0.25 sub round 0.25 add
       exch itransform } bind def } ifelse 
  gsave n 0 gt { 1 setlinecap [ 0 dy n div ] dy n div 2 div setdash } { 2 setlinecap } ifelse 
  /i x1 def 
  /f y1 dy mul n 0 gt { dy n div 2 div h mul sub } if def 
  /g y2 dy mul n 0 gt { dy n div 2 div h mul add } if def 
  x2 x1 sub w mul 1 add dup 1000 gt { pop 1000 } if 
  { i dx mul dup y0 moveto 
    b 0 gt 
      { gsave c i a cvs dup stringwidth pop 
        /z2 ED w 0 gt {z1} {z1 z2 add neg} ifelse 
	h 0 gt {b neg}{z1} ifelse 
        rmoveto show grestore } if 
    dup t f moveto 
    g t L stroke 
    /i i w add def 
  } repeat 
  grestore 
  gsave 
  n 0 gt
  % DG/SR modification begin - Nov. 7, 1997 - Patch 1
  %{ 1 setlinecap [ 0 dx n div ] dy n div 2 div setdash }
    { 1 setlinecap [ 0 dx n div ] dx n div 2 div setdash }
  % DG/SR modification end
    { 2 setlinecap } ifelse 
  /i y1 def 
  /f x1 dx mul n 0 gt { dx n div 2 div w mul sub } if def 
  /g x2 dx mul n 0 gt { dx n div 2 div w mul add } if def 
  y2 y1 sub h mul 1 add dup 1000 gt { pop 1000 } if 
  { newpath i dy mul dup x0 exch moveto 
    b 0 gt { gsave c i a cvs dup stringwidth pop 
      /z2 ED 
      w 0 gt {z1 z2 add neg} {z1} ifelse 
      h 0 gt {z1} {b neg} ifelse 
      rmoveto show grestore } if 
    dup f exch t moveto 
    g exch t L stroke 
    /i i h add def 
  } repeat 
  grestore 
} def
%
/ArcArrow { 
  /d ED /b ED /a ED 
  gsave 
  newpath 0 -1000 moveto clip 
  newpath 
  0 1 0 0 b 
  grestore 
  c mul 
  /e ED 
  pop pop pop r a e d PtoC y add exch x add
  exch r a PtoC y add exch x add exch b pop pop pop pop a e d CLW 8 div c
  mul neg d 
} def
%
/Ellipse { /mtrx CM def T scale 0 0 1 5 3 roll arc mtrx setmatrix } def
%
/ArcAdjust { %%%% Vincent Guirardel
% given a target length (targetLength) and an initial angle (angle0) [in the stack],
% let  M(angle0)=(rx*cos(angle0),ry*sin(angle0))=(x0,y0).
% This computes an angle t such that (x0,y0) is at distance 
% targetLength from the point M(t)=(rx*cos(t),ry*sin(t)).
% NOTE: this an absolute angle, it does not have to be added or substracted to angle0
% contrary to TvZ's code.
% To achieve, this, one iterates the following process: start with some angle t,
% compute the point M' at distance targetLength of (x0,y0) on the semi-line [(x0,y0) M(t)].
% Now take t' (= new angle) so that (0,0) M(t') and M' are aligned.
%
% Another difference with TvZ's code is that we need d (=add/sub) to be defined.
% the value of d = add/sub is used to know on which side we have to move.
% It is only used in the initialisation of the angle before the iteration.
%
%%%%%%%%%%%%%%%%%%%%%%%%%%%%%%%%%%%%%%%%%%%%%%%%%%%%%%%%%%%%%%%%
% Input stack:  1: target length 2: initial angle
% variables used : rx, ry, d (=add/sub)
%
  /targetLength ED /angle0 ED
  /x0 rx angle0 cos mul def
  /y0 ry angle0 sin mul def
% we are looking for an angle t such that (x0,y0) is at distance targetLength 
% from the point M(t)=(rx*cos(t),ry*sin(t)))
%initialisation of angle (using 1st order approx = TvZ's code)
  targetLength 57.2958 mul
  angle0 sin rx mul dup mul
  angle0 cos ry mul dup mul
  add sqrt div 
% if initialisation angle is two large (more than 90 degrees) set it to 90 degrees
% (if the ellipse is very curved at the point where we draw the arrow, %
% the value can be much more than 360 degrees !)
% this should avoid going on the wrong side (more than 180 degrees) or go near
% a bad attractive point (at 180 degrees)
  dup 90 ge { pop 90 } if 
  angle0 exch d % add or sub
% maximum number of times to iterate the iterative procedure:
% iterative procedure: takes an angle t on top of stack, computes a 
% better angle (and put it on top of stack)
  30 { dup
% compute distance D between (x0,y0) and M(t)
    dup cos rx mul x0 sub dup mul exch sin ry mul y0 sub dup mul add sqrt
% if D almost equals targetLength, we stop
    dup targetLength sub abs 1e-5 le { pop exit } if
% stack now contains D t
% compute the point M(t') at distance targetLength of (x0,y0) on the semi-line [(x0,y0) M(t)]:
% M(t')= ( (x(t)-x0)*targetLength/d+x0 , (y(t)-y0)*targetLength/d+y0 )
    exch dup cos rx mul x0 sub  exch sin ry mul y0 sub
% stack contains:  y(t)-y0, x(t)-x0, d
    2 index Div targetLength mul y0 add ry Div exch
    2 index Div targetLength mul x0 add rx Div
% stack contains x(t')/rx , y(t')/ry , d
% now compute t', and remove D from stack
    atan exch pop
  } repeat
% we don't look at what happened... in particular, if targetLength is greater 
% than the diameter of the ellipse...
% the final angle will be around /angle0 + 180. maybe we should treat this pathological case...
% after iteration, stack contains an angle t such that M(t) is the tail of the arrow
% to give back the result as a an angle relative to angle0 we could add the following line:
% angle0 sub 0 exch d
%
% begin bug fix 2006-01-11
% we want to adjust the new angle t' by a multiple of 360 so that  | t'-angle0 | <= 180
%(we don't want to make the ellipse turn more or less than it should)...
dup angle0 sub dup abs 180 gt { 180 add 360 div floor 360 mul sub } { pop } ifelse
% end bug fix
} def
%
/EllipticArcArrow {
  /d ED      % is add or sub
  /b ED      % arrow procedure
  /a1 ED     % angle
  gsave
  newpath
  0 -1000 moveto
  clip                  % Set clippath far from arrow.
  newpath
  0 1 0 0 b             % Draw arrow to determine length.
  grestore
% Length of arrow is on top of stack. Next 3 numbers are junk.
%
  a1 exch ArcAdjust   % Angular position of base of arrow.
  /a2 ED
  pop pop pop
  a2 cos rx mul xOrig add % hv 2007-08-29   x->xOrig
  a2 sin ry mul yOrig add % hv 2007-08-29   y->yOrig
  a1 cos rx mul xOrig add % 
  a1 sin ry mul yOrig add % 
% Now arrow tip coor and base coor are on stack.
  b pop pop pop pop       % Draw arrow, and discard coordinates.
  a2 CLW 8 div
% change value of d (test it by looking if  `` 1 1 d '' gives 2 or not )
  1 1 d 2 eq { /d { sub } def } { /d { add } def } ifelse
  ArcAdjust
% resets original value of d
  1 1 d 2 eq { /d { sub } def } { /d { add } def } ifelse  % Adjust angle to give overlap.
} def
%%------------------ tvz/DG/hv (2004-05-10) end -------------------%%
%
/Rot { CP CP translate 3 -1 roll neg rotate NET  } def
%
/RotBegin { 
  tx@Dict /TMatrix known not { /TMatrix { } def /RAngle { 0 } def } if 
  /TMatrix [ TMatrix CM ] cvx def 
  /a ED 
  a Rot /RAngle [ RAngle dup a add ] cvx def 
} def
%
/RotEnd { 
  /TMatrix [ TMatrix setmatrix ] cvx def 
  /RAngle [ RAngle pop ] cvx def 
} def
%
/PutCoor { gsave CP T CM STV exch exec moveto setmatrix CP grestore } def
/PutBegin { /TMatrix [ TMatrix CM ] cvx def CP 4 2 roll T moveto } def
/PutEnd { CP /TMatrix [ TMatrix setmatrix ] cvx def moveto } def
%
/Uput { 
  /a ED 
  add 2 div /h ED 2 
  div /w ED 
  /s a sin def 
  /c a cos def 
  /b s abs c abs 2 copy gt dup 
    /q ED 
    { pop } { exch pop } ifelse def 
  /w1 c b div w mul def 
  /h1 s b div h mul def 
  q { w1 abs w sub dup c mul abs }{ h1 abs h sub dup s mul abs } ifelse 
} def
%
/UUput { 
  /z ED 
  abs /y ED 
  /x ED 
  q { x s div c mul abs y gt }{ x c div s mul abs y gt } ifelse 
    { x x mul y y mul sub z z mul add sqrt z add } 
    { q { x s div } { x c div } ifelse abs 
    } ifelse 
  a PtoC 
  h1 add exch 
  w1 add exch 
} def
%
/BeginOL { 
  dup (all) eq exch TheOL eq or 
    { IfVisible not { Visible /IfVisible true def } if } 
    { IfVisible { Invisible /IfVisible false def } if } ifelse 
} def
%
/InitOL { 
  /OLUnit [ 3000 3000 matrix defaultmatrix dtransform ] cvx def
  /Visible { CP OLUnit idtransform T moveto } def 
  /Invisible { CP OLUnit neg exch neg exch idtransform T moveto } def 
  /BOL { BeginOL } def
  /IfVisible true def 
} def
%
end
%-----------------------------------------------------------------------------%
%
% END pstricks.pro

%%EndProcSet
%%BeginProcSet: pst-algparser.pro 0 0
% $Id: pst-algparser.pro 26 2008-06-14 11:50:02Z herbert $
%%
%% PostScript prologue for PSTricks algorithm parser
%% Version 0.01, 2008/01/01
%%
%% This program can be redistributed and/or modified under the terms
%% of the LaTeX Project Public License Distributed from CTAN archives
%% in directory macros/latex/base/lppl.txt.
%%
%%-----------------------------------------------------------------------------%
%
/AlgParser { tx@AlgToPs begin AlgToPs end } def  % Dominique Rodriguez
%
/tx@CoreAnalyzerDict 100 dict def tx@CoreAnalyzerDict begin
%
% PS ANALYZER FOR ALGEBRAIC EXPRESSION V1.12
% E->T|E+T
% T->FS|T*FS
% FS -> F | +FS | -FS
% F->P|F^SF
% P->(E)|literal
% literal->number|var|var[E]|func(params)
% params->E|E,param
% number->TOBEFINISHED
%
%% E expression, T term, SF signed factor, F factor, P power
%
%% parser
%
%% str
%
%% C->E<condition_operators>E
%% STR index -> STR index+lenExpr
/AnalyzeCond { AnalyzeExpr ReadCondOp AnalyzeExpr EvalCondOp  } def
%
%% analyze Expression List (separator , or | )
%% STR index -> STR index+lenExpr
%% /AnalyzeListOfE {
%%   { NextNonBlankChar pop AnalyzeExpr%%dup Strlen eq { exit } if NextNonBlankChar
%%     NextNonBlankChar dup 0 eq { pop exit } if
%%     dup 44 ne 1 index 124 ne and { dup 41 ne { PROBLEMCONTACTBILLOU } { pop exit } ifelse } if
%%     pop NextNonBlankChar dup 0 eq { exit } if 124 ne { PROBLEMCONTACTBILLOU } if 1 add NextNonBlankChar 0 eq {toto} if } loop
%%   AnalyzeListOfEPostHook
%% } def
/AnalyzeListOfE {
  /NotFirst false def
  { NextNonBlankChar pop AnalyzeExpr
    NotFirst { EvalListOfExpr } { /NotFirst true def } ifelse
    dup Strlen eq { exit } if NextNonBlankChar
    dup 44 ne 1 index 124 ne and
    { dup 41 ne { PROBLEMCONTACTBILLOU } { pop exit } ifelse }
    if  pop 1 add } loop
  AnalyzeListOfEPostHook
} def
%%%%%%%%%%%%%%%%%%%%%%%%%%%%%%%%%%%%%%%%%%%%%%%%%%
%% E->T|E+T
%% STR index -> STR index+lenExpr
/AnalyzeExpr {
  AnalyzePreHook AnalyzeTerm IsEndingExpr
  { dup 0 ne { 32 eq { NextNonBlankChar } if } { pop } ifelse }
  { { RollOp 1 add NextNonBlankChar pop AnalyzeTerm PreEvalHook EvalAddSub IsEndingExpr { pop exit } if } loop }
  ifelse
  AnalyzePostHook
} def
%%%%%%%%%%%%%%%%%%%%%%%%%%%%%%%%%%%%%%%%%%%%%%%%%%
%% T->FS|T*FS
%% STR index
/AnalyzeTerm {
  AnalyzePreHook AnalyzeSignedFactor IsEndingTerm
  { dup 0 ne { 32 eq { NextNonBlankChar } if } { pop } ifelse }
  { { RollOp 1 add NextNonBlankChar pop AnalyzeSignedFactor PreEvalHook EvalMulDiv IsEndingTerm { pop exit } if} loop }
  ifelse
  AnalyzePostHook
} def
%%%%%%%%%%%%%%%%%%%%%%%%%%%%%%%%%%%%%%%%%%%%%%%%%%
%% FS -> F | +FS | -FS
%% STR index
/AnalyzeSignedFactor {
  AnalyzePreHook 2 copy get dup IsUnaryOp
  { RollOp 1 add NextNonBlankChar pop AnalyzeSignedFactor EvalUnaryOp }
  { pop AnalyzeFactor }
  ifelse AnalyzePostHook
} def
%%%%%%%%%%%%%%%%%%%%%%%%%%%%%%%%%%%%%%%%%%%%%%%%%%
%% F->P|F^P
%% STR index
/AnalyzeFactor {
  AnalyzePreHook AnalyzePower IsEndingFactor
  { dup 0 ne { 32 eq { NextNonBlankChar } if } { pop } ifelse }
  { { RollOp 1 add NextNonBlankChar pop AnalyzePower PreEvalHook EvalPower IsEndingFactor { pop exit } if} loop }
  ifelse  AnalyzePostHook
} def
%%%%%%%%%%%%%%%%%%%%%%%%%%%%%%%%%%%%%%%%%%%%%%%%%%
%% P->(E)|literal
%% STR index
/AnalyzePower {
  %% depending of first char either a number, or a literal
  2 copy get dup 40 eq%%an open par
  { pop 1 add NextNonBlankChar pop AnalyzeExpr 1 add NextNonBlankChar pop }
  { AnalyzeLiteral }
  ifelse
} def
%%%%%%%%%%%%%%%%%%%%%%%%%%%%%%%%%%%%%%%%%%%%%%%%%%
%% STR index STR[index] -> STR index
%/AnalyzeLiteral { IsNumber { EvalNumber } { EvalLiteral } ifelse } def
/AnalyzeLiteral { dup IsUnaryOp exch IsNumber or { EvalNumber } { EvalLiteral } ifelse } def%%dr 09102006
%%%%%%%%%%%%%%%%%%%%%%%%%%%%%%%%%%%%%%%%%%%%%%%%%%
%% recognize + or -
%% chr -> T/F
/IsUnaryOp { dup 43 eq exch 45 eq or } bind def
%%%%%%%%%%%%%%%%%%%%%%%%%%%%%%%%%%%%%%%%%%%%%%%%%%
%% a number can contain only : 0123456789.
%% chr -> T/F
/IsNumber { dup 48 ge exch dup 57 le 3 -1 roll and exch 46 eq or } bind def
%%%%%%%%%%%%%%%%%%%%%%%%%%%%%%%%%%%%%%%%%%%%%%%%%%
%% STR index -> STR index number
%% a number can be of the form [0-9]*.[0-9]*\([eE][+-]?[0-9]+\)?
%% STR index -> STR index' number
/ReadNumber {
  exch dup 3 -1 roll dup 3 1 roll
  %%read mantissa
  { 1 add  2 copy dup Strlen eq { pop pop 0 exit } if get dup IsNumber not { exit } if pop } loop
  dup 101 eq exch 69 eq or
  %%% there is a "e" or "E" -> read exponant
  { 1 add 2 copy get dup IsUnaryOp
    { pop 1 add 2 copy get } if
    { IsNumber not { exit } if 1 add 2 copy get } loop }
  if
  dup 4 1 roll
  3 -1 roll exch 1 index sub getinterval
} def
%%%%%%%%%%%%%%%%%%%%%%%%%%%%%%%%%%%%%%%%%%%%%%%%%%
%% a number can contain only : 0123456789.
%% chr -> T/F
/IsCondOp { dup 30 eq exch dup 60 ge exch 62 le and or } bind def
%%%%%%%%%%%%%%%%%%%%%%%%%%%%%%%%%%%%%%%%%%%%%%%%%%
%% STR index -> STR index number
%% a number can be of the form [0-9]*.[0-9]*\([eE][+-]?[0-9]+\)?
%% STR index -> STR index' number
/ReadCondOp {
  NextNonBlankChar 1 index 4 1 roll
  { IsCondOp not { exit } if 1 add  2 copy get } loop
  2 copy 5 -1 roll
  exch 1 index sub getinterval 3 1 roll
} def
%%%%%%%%%%%%%%%%%%%%%%%%%%%%%%%%%%%%%%%%%%%%%%%%%%
%% a literal can contain only : 0123456789.
%% chr -> T/F
/IsLiteral {%
  dup 48 ge exch dup  57 le 3 -1 roll and exch
  dup 65 ge exch dup  90 le 3 -1 roll and 3 -1 roll or exch
  dup 97 ge exch     122 le and or } bind def
%%%%%%%%%%%%%%%%%%%%%%%%%%%%%%%%%%%%%%%%%%%%%%%%%%
%% a literal can be of the form [a-zA-Z][a-zA-Z0-9]*\(\((Expression)\)|\(\[Expression\]\)\)?
%% STR index -> literal STR index' nextchr
/ReadLiteral {
  exch dup 3 -1 roll dup 3 1 roll
  %%read literal core
  { 2 copy dup Strlen eq { pop pop 0 exit } if get dup IsLiteral not { exit } if pop 1 add } loop
  4 1 roll dup 5 1 roll 3 -1 roll exch 1 index sub getinterval 4 1 roll
} def
%%%%%%%%%%%%%%%%%%%%%%%%%%%%%%%%%%%%%%%%%%%%%%%%%%
%% expr is ended by end of str or a clpar
%% STR index -> STR index STR[index] T/F
/IsEndingExpr {%
  2 copy dup Strlen eq
  %% if end of str is reached -> end !
  { pop pop 0 true }
  %% ending chr -> clpar, comma, |, <, >, =, !,
  {get dup  dup  41 eq
       exch dup 124 eq
       exch dup  93 eq
       exch dup  44 eq
       exch dup  30 eq
       exch dup  60 ge exch 62 le and or or or or or}
  ifelse } def
%%%%%%%%%%%%%%%%%%%%%%%%%%%%%%%%%%%%%%%%%%%%%%%%%%
%% expr is ended by end of str or a +-
%% STR index -> STR index STR[index] T/F
/IsEndingTerm { IsEndingExpr { true } { dup dup 43 eq exch 45 eq or } ifelse } def
%%%%%%%%%%%%%%%%%%%%%%%%%%%%%%%%%%%%%%%%%%%%%%%%%%
%% expr is ended by end of str or */
%% STR index -> STR index STR[index] T/F
/IsEndingFactor { IsEndingTerm { true } { dup dup 42 eq exch 47 eq or } ifelse } def
%%%%%%%%%%%%%%%%%%%%%%%%%%%%%%%%%%%%%%%%%%%%%%%%%%
%% expr is ended by end of str or ^
%% STR index -> STR index STR[index] T/F
/IsEndingPower { IsEndingFactor { true } { dup 94 eq } ifelse } def
%%%%%%%%%%%%%%%%%%%%%%%%%%%%%%%%%%%%%%%%%%%%%%%%%%
%% STR index -> STR index STR[index]
/NextNonBlankChar { { dup Strlen eq { 0 exit } if 2 copy get dup neBlkChar { exit } if pop 1 add } loop } bind def
/neBlkChar { dup 32 ne exch dup 10 ne exch 9 ne and and } bind def
%%%%%%%%%%%%%%%%%%%%%%%%
%% DEBUG
/BRK {false} def
/BRKtrue {/BRK true def} def
/BRKStop {BRK {BRKtoto} if } def
/BRKEvalStop {BRK exch if } def
/BRKBRK2true {BRK {BRK2true} if } def
/BRK2 {false} def
/BRK2true {/BRK2 true def} def
/BRK2Stop {BRK2 {BRK2toto} if } def/BRK {false} def
end
%
%-------------------------------------------------------------------------------%
%
/tx@AlgToPs 12 dict def tx@AlgToPs begin
%
%% algExpr -> PSVector
/AlgToPs { tx@CoreAnalyzerDict begin InitParser AnalyzeListOfE pop pop EndingSequence end } def
/EndingSequence { ExpressionVector aload length /end cvx exch 1 add array astore } def
/InitParser { /ExpressionVector [ /tx@AddMathFunc cvx /begin cvx ] def dup length /Strlen exch def 0 } def
/Strlen 0 def
/EvalListOfExpr {} def%
/EvalNumber {%
    ReadNumber  cvr /ExpressionVector ExpressionVector aload length dup 3 add -1 roll cvx
    exch 1 add array astore def NextNonBlankChar pop } def
/EvalAddSub {%
  /ExpressionVector ExpressionVector aload length dup 5 add -1 roll
  43 eq { /add } { /sub } ifelse cvx exch 1 add array astore def
} def
/EvalMulDiv {%
  /ExpressionVector ExpressionVector aload length dup 5 add -1 roll
  42 eq { /mul } { /div } ifelse cvx exch 1 add array astore def
} def
/EvalPower {%
  /ExpressionVector ExpressionVector aload length dup 5 add -1 roll
  pop /exp cvx exch 1 add array astore def
} def
/EvalLiteral {%
  ReadLiteral
  dup 40 eq%%% there is an open par -> function call
  { pop 2 index
    dup (Sum) eq { EvalSum }
    { dup (IfTE) eq { EvalCond }
      { dup (Derive) eq { pop EvalDerive }
	{ pop 1 add NextNonBlankChar pop AnalyzeListOfE 2 index TrigoFunc
          /ExpressionVector ExpressionVector aload length dup 5 add -1 roll cvn cvx
	  exch 1 add array astore def 1 add NextNonBlankChar pop } ifelse } ifelse} ifelse }
  { /ExpressionVector ExpressionVector aload length dup 6 add -1 roll cvn cvx exch 1 add array astore def
    dup 91 eq%%% there is an open bracket -> vector element
    { pop 1 add NextNonBlankChar pop AnalyzeExpr
      /ExpressionVector ExpressionVector aload length /cvi cvx exch /get cvx exch 2 add array astore def 1 add }
    { pop NextNonBlankChar pop }
    ifelse}
  ifelse
} def
%%%%%%%%%%%%%%%%%%%%%%%%%%%%%%%%%%%%%%%%%%%%%%%%%%
%% the derive function : Derive(n,f(x))
%% firstparindex lastparindex ->
/EvalDerive {
  %% manage the function descripiton
  1 add ReadNumber 3 1 roll NextNonBlankChar
  44 ne { ANALYZER_ERROR_missing_second_comma_in_Sum } if
  1 add NextNonBlankChar pop
  3 -1 roll cvi
  dup 0 eq
  { pop AnalyzeExpr 3 -1 roll pop 1 add }
  { 1 sub 3 1 roll (x)  exch tx@Derive begin DeriveIndexed end 4 -1 roll
    { (x) tx@Derive begin Derive end } repeat
    ExpressionVector exch /ExpressionVector [] def
    AlgToPs aload length
    /ExpressionVector 1 index 3 add -1 roll aload length dup 3 add -1 roll  /l2 exch def /l1 exch def
    l1 l2 add 1 add l2 neg roll l1 l2 add array astore def 3 -1 roll pop 1 add
    1 index length /Strlen exch def } ifelse
} def
/EvalSum {%
  pop 1 add NextNonBlankChar pop
  %% read the variable name
  ReadLiteral pop NextNonBlankChar
  44 ne { ANALYZER_ERROR_missing_first_comma_in_Sum } if
  %% read the initial value
  1 add NextNonBlankChar pop ReadNumber cvi 3 1 roll
  2 copy get 44 ne { ANALYZER_ERROR_missing_second_comma_in_Sum } if
  %% read the increment value
  1 add NextNonBlankChar pop ReadNumber cvi 3 1 roll
  2 copy get 44 ne { ANALYZER_ERROR_missing_second_comma_in_Sum } if
  %% read the limit value
  1 add NextNonBlankChar pop ReadNumber cvi 3 1 roll
  2 copy get 44 ne { ANALYZER_ERROR_missing_second_comma_in_Sum } if
  /ExpressionVector ExpressionVector aload length dup 7 add -3 roll 0 4 1 roll
  5 -1 roll 4 add array astore def
  %% keep ExpressionVector for later and create a new one for internal Sum computation
  ExpressionVector 3 1 roll /ExpressionVector [ 6 -1 roll cvn /exch cvx /def cvx ] def
  1 add NextNonBlankChar pop AnalyzeExpr
  %% add each term
  /ExpressionVector ExpressionVector aload length 1 add /add cvx exch array astore def
  /ExpressionVector 4 -1 roll aload length ExpressionVector cvx /for cvx 3 -1 roll 2 add
  array astore def 3 -1 roll pop 1 add
} def
%%%%%%%%%%%%%%%%%%%%%%%%%%%%%%%%%%%%%%%%%%%%%%%%%%
%% Convert to radians if trigo function call
%% (name) ->
/TrigoFunc {
  dup (cos) eq 1 index (sin) eq or exch (tan) eq or
  { /ExpressionVector ExpressionVector aload length Pi /div cvx 180 /mul cvx 5 -1 roll 4 add
    array astore def
  } if
} def
/EvalCond {%
  pop 1 add AnalyzeCond NextNonBlankChar
  44 ne { ANALYZER_ERROR_missing_first_comma_in_IfTE } if
  ExpressionVector 3 1 roll /ExpressionVector [] def
  1 add AnalyzeExpr ExpressionVector 3 1 roll /ExpressionVector [] def
  NextNonBlankChar 44 ne { ANALYZER_ERROR_missing_second_comma_in_IfTE } if
  1 add AnalyzeExpr
  NextNonBlankChar 41 ne { ANALYZER_ERROR_missing_ending parenthesis_in_IfTE } if
  ExpressionVector
  /ExpressionVector 6 -1 roll aload length dup
  6 add -1 roll cvx exch dup 4 add -1 roll cvx /ifelse cvx 3 -1 roll 3 add array astore def
  1 add 3 -1 roll pop
} def
%% CondOp STR index
/EvalCondOp {%
  3 -1 roll
  dup (=) eq  { /eq } {%
  dup (<) eq  { /lt } {%
  dup (>) eq  { /gt } {%
  dup (>=) eq { /ge } {%
  dup (<=) eq { /ge } {%
  dup (!=) eq { /ne } { ERROR_non_valid_conditional_operator }
  ifelse } ifelse } ifelse } ifelse } ifelse } ifelse
  cvx exch pop
  /ExpressionVector ExpressionVector aload length dup 3 add -1 roll exch 1 add array astore def } def
/EvalUnaryOp {
  3 -1 roll 45 eq { /ExpressionVector ExpressionVector aload length /neg cvx exch 1 add array astore def } if
} def
%%%%%%%%%%%%%%%%%%%%%%%%%%%%%%%%%%%%%%%%
%% H O O K S
/AnalyzePreHook {} bind def
/PreEvalHook {} bind def
/AnalyzeListOfEPostHook {} bind def
/AnalyzePostHook {} def
/RollOp { 3 1 roll } bind def
end   %tx@CoreAnalyzerDict
%
%--------------------------------------------------------------------%
%
/tx@Derive 41 dict def tx@Derive begin
%%increase ^^ for each function added
%%%%%%%%%%%%%%%%%%%%%%%%%%%%%%%%%%%%%%%%%%%%%%%%%%
%% algExpr variable -> PSVector
/Derive {%
  10240 string 3 1 roll 0 3 1 roll
  /Variable exch def
  tx@CoreAnalyzerDict begin InitParser AnalyzeListOfE end
} def
/Strlen 0 def
/InitParser { dup length /Strlen exch def 0 } def
%%%%%%%%%%%%%%%%%%%%%%%%%%%%%%%%%%%%%%%%%%%%%%%%%%
%% algExpr variable index -> PSVector
/DeriveIndexed {%
  3 1 roll 10240 string 3 1 roll 0 3 1 roll
  /Variable exch def
  tx@CoreAnalyzerDict begin InitParser pop 4 -1 roll AnalyzeExpr 4 -2 roll pop pop 4 -2 roll exch pop end
} def
%%%%%%%%%%%%%%%%%%%%%%%%%%%%%%%%%%%%%%%%%%%%%%%%%%
%% (u,v)'=-(u',v')
/EvalListOfExpr {%
  4 2 roll 2 copy 9 -1 roll dup length 4 1 roll putinterval add AddPipe
           2 copy 7 -1 roll dup length 4 1 roll putinterval add
  6 -2 roll pop pop
  2 copy pop 0 6 2 roll GetIntervalNewStr 5 1 roll 2 copy 0 exch getinterval 6 1 roll } def
%%%%%%%%%%%%%%%%%%%%%%%%%%%%%%%%%%%%%%%%%%%%%%%%%%
%% (-u)'=-(u')
/EvalUnaryOp {
  4 -2 roll 4 index (0) eq
  { (0) StrConcat 7 -1 roll pop }
  { 7 -1 roll 45 eq
    { AddSub AddOpPar true } { false } ifelse
    3 1 roll 5 index StrConcat 3 -1 roll { AddClPar } if } ifelse
  2 copy pop 0 6 2 roll GetIntervalNewStr
  7 -2 roll pop pop 2 index 6 index dup 4 index exch sub getinterval exch 6 2 roll
} def
%%%%%%%%%%%%%%%%%%%%%%%%%%%%%%%%%%%%%%%%%%%%%%%%%%
%% (number)'=0
/EvalNumber { ReadNumber (0) 6 2 roll } def
%%%%%%%%%%%%%%%%%%%%%%%%%%%%%%%%%%%%%%%%%%%%%%%%%%
%% (u+v)'=u'+v'
/EvalAddSub {%
  7 index dup (0) eq
  { pop true }%% du=0 nothing added
  { dup length exch 5 index 5 index 3 -1 roll putinterval 4 -1 roll add 3 1 roll false }
  ifelse
  5 index dup (0) eq
  { pop { (0) } { 4 -2 roll 2 copy pop 0  6 2 roll GetIntervalNewStr } ifelse }%%dv=0
  { exch
    { 5 -2 roll 7 index 45 eq { AddSub } if false } %%nothing yet added
    { 5 -2 roll 7 index 43 eq%%something yet added
      { AddAdd false } { AddSub AddOpPar true } ifelse }
    ifelse 11 1 roll
    3 -1 roll StrConcat 10 -1 roll { AddClPar } if
    2 copy pop 0 6 2 roll GetIntervalNewStr }
  ifelse
  mark 11 -5 roll cleartomark 2 index 6 index dup 4 index exch sub getinterval exch 6 2 roll
} def
%%%%%%%%%%%%%%%%%%%%%%%%%%%%%%%%%%%%%%%%%%%%%%%%%%
%% (u*v)' or (u/v)'
/EvalMulDiv { 6 index 42 eq {EvalMul} {EvalDiv} ifelse } def
%%%%%%%%%%%%%%%%%%%%%%%%%%%%%%%%%%%%%%%%%%%%%%%%%%
%% (u*v)'=u'*v+u*v'
/EvalMul {%
  4 -2 roll 7 index dup (0) eq
  { pop false }%%du=0
  { (1) eq%%du=1
    { false }
    { AddOpPar 7 index StrConcat AddClPar AddMul AddOpPar true } ifelse
    3 1 roll 6 index StrConcat 3 -1 roll { AddClPar } if
    true }%%du!=0
  ifelse
  5 1 roll 5 index (0) eq
  { 5 -1 roll not { (0) StrConcat } if }%%dv=0
  { 5 -1 roll { AddAdd } if
    4 index (1) eq
    { 8 index StrConcat }
    { AddOpPar 8 index StrConcat AddClPar AddMul AddOpPar 4 index StrConcat AddClPar }
    ifelse
  }%%dv!=0
  ifelse
  2 copy pop 0 6 2 roll GetIntervalNewStr
  mark 11 -5 roll cleartomark 2 index 6 index dup 4 index exch sub getinterval exch 6 2 roll
} def
%%%%%%%%%%%%%%%%%%%%%%%%%%%%%%%%%%%%%%%%%%%%%%%%%%
%% (u/v)'=(u'*v-u*v')/v^2
/EvalDiv {%
  4 -2 roll
  4 index (0) eq%%dv=0 -> u'/v
  { 7 index (0) eq { (0) StrConcat } { AddOpPar 7 index StrConcat AddClPar AddDiv 5 index StrConcat } ifelse }
  { 7 index dup (0) eq
    { pop }%%du=0
    { (1) eq%%du=1
      { false }
      { AddOpPar 7 index StrConcat AddClPar AddMul AddOpPar true } ifelse
      3 1 roll 6 index StrConcat 3 -1 roll { AddClPar } if}%%du!=0
    ifelse
      AddSub
      4 index (1) eq
      { 8 index StrConcat }
      { AddOpPar 8 index StrConcat AddClPar AddMul AddOpPar 4 index StrConcat AddClPar }
      ifelse
    %}%%dv!=0
    2 copy GetIntervalNewStr 3 1 roll pop 0 AddOpPar 3 -1 roll StrConcat AddClPar
    AddDiv AddOpPar 5 index StrConcat AddClPar 2 copy (^2) putinterval 2 add }
  ifelse
  2 copy pop 0 6 2 roll GetIntervalNewStr
  mark 11 -5 roll cleartomark 2 index 6 index dup 4 index exch sub getinterval exch 6 2 roll
} def
%%%%%%%%%%%%%%%%%%%%%%%%%%%%%%%%%%%%
%% str1 index str2 -> str1 index
/StrConcat { dup length 4 2 roll 2 copy 6 -1 roll putinterval 3 -1 roll add } bind def
/GetIntervalNewStr { 0 exch getinterval dup length string copy } bind def
%%%%%%%%%%%%%%%%%%%%%%%%%%%%%%%%%%%%%%%%%%%%%%%%%%
%% (u^v)'=(u^v)'=u'vu^(v-1)+v'u^(v)ln(u)
/EvalPower {%
  4 -2 roll 7 index (0) eq
  {%%if du=0 then (u^v)'=v'ln(u)u^v
    4 index (0) eq
    { (0) StrConcat }%%if dv=0 then (u^v)'=0
    { 4 index (1) ne { AddOpPar 4 index StrConcat (\)*) StrConcat } if
      8 index (e) ne { (ln\() StrConcat 8 index StrConcat (\)*) StrConcat } if
      AddOpPar 8 index StrConcat (\)^\() StrConcat 5 index StrConcat AddClPar } ifelse
  }
  {%%du!=0
    4 index (0) eq
    {%%if dv=0 then (u^v)'=vu'u^(v-1)
      5 index dup IsStrNumber
      { dup (0) eq
        { StrConcat }
        { dup dup (1) eq exch (1.0) eq or
          { StrConcat  }
	  { StrConcat
	    7 index dup (1) ne exch (1.0) ne and%%%dr 09102006 insert du if <> 1
	    { (*\() StrConcat 7 index StrConcat (\)) StrConcat } if%%%dr 09102006
            (*\() StrConcat 8 index StrConcat (\)) StrConcat
            5 index  dup dup (2) eq exch (2.0) eq or
	    { pop } { cvr 1 sub 20 string cvs 3 1 roll (^) StrConcat 3 -1 roll StrConcat } ifelse } ifelse } ifelse }
      { pop AddOpPar 5 index StrConcat (\)*\() StrConcat 8 index StrConcat (\)^\() StrConcat
        5 index StrConcat (-1\)) StrConcat } ifelse
    }
    {%%if dv!=0 and du!=0 then (u^v)'=u'vu^(v-1)+v'u^(v)ln(u)
      7 index (1) ne { AddOpPar 7 index StrConcat (\)*) StrConcat } if
      AddOpPar 5 index StrConcat (\)*\() StrConcat
      8 index StrConcat (\)^\() StrConcat
      5 index StrConcat (-1\)+\() StrConcat
      4 index (1) ne { 4 index StrConcat (\)*\() StrConcat } if
      8 index StrConcat (\)^\() StrConcat
      5 index StrConcat (\)*ln\() StrConcat
      8 index StrConcat AddClPar
    } ifelse
  } ifelse
  2 copy pop 0 6 2 roll GetIntervalNewStr
  mark 11 -5 roll cleartomark 2 index 6 index dup 4 index exch sub getinterval exch 6 2 roll
} def
%%%%%%%%%%%%%%%%%%%%%%%%%%%%%%%%%%%%%%%%%%%%%%%%%%
%% str -> true/false
/IsStrNumber {%
  true exch
  { dup 48 lt exch dup 57 gt 3 -1 roll or
    exch dup 46 ne%%.
    exch dup 43 ne%%+
    exch 45 ne%%-
    and and and { pop false } if } forall
} def
%%%%%%%%%%%%%%%%%%%%%%%%%%%%%%%%%%%%%%%%%%%%%%%%%%
%% literal switch -> func call, vector, variables
/EvalLiteral {%
  ReadLiteral dup 40 eq%%% there is an open par -> function call
  { pop (EvalFunc_             ) 9 4 index StrConcat 0 exch getinterval cvn cvx exec }
  { dup 91 eq%%% there is an open bracket -> vector element
    { ERROR_vector_not_yet_implemented }
    { pop EvalVariable }
    ifelse }
  ifelse
} def
%%%%%%%%%%%%%%%%%%%%%%%%%%%%%%%%%%%%%%%%%%%%%%%%%%
%% first last parpos Expr[first:parpos-1] ->
/EvalVariable { 2 index Variable eq { (1) } { (0) } ifelse 4 -1 roll exch 6 2 roll } def
%%%%%%%%%%%%%%%%%%%%%%%%%%%%%%%%%%%%%%%%%%%%%%%%%%
%% (f(u))'=u'f'(u)
/EvalFunc {
  4 2 roll 4 index (1) ne
  { AddOpPar 4 index StrConcat (\)*) StrConcat } if
  (Eval             ) 4 8 index StrConcat 0 exch getinterval cvn cvx exec
  2 copy pop 0 6 2 roll GetIntervalNewStr
  mark 9 -3 roll cleartomark 2 index 6 index dup 4 index exch sub getinterval exch 6 2 roll
} def
%%%%%%%%%%%%%%%%%%%%%%%%%%%%%%%%%%%%%%%%%%%%%%%%%%
%% Func derivative -> Eval<func>
/EvalFunc_sin {%
  PreCommonFunc
  { (cos\() StrConcat 5 index StrConcat AddClPar } if
  PostCommonFunc } def
/EvalFunc_cos {%
  PreCommonFunc
  { (\(-sin\() StrConcat 5 index StrConcat (\)\)) StrConcat } if
  PostCommonFunc } def
/EvalFunc_tan {%
  PreCommonFunc
  {  dup 0 eq { (1) StrConcat } { 1 sub } ifelse  (/cos\() StrConcat 5 index StrConcat (\)^2) StrConcat } if
  PostCommonFunc } def
/EvalFunc_asin {%
  PreCommonFunc
  { (1/sqrt\(1-\() StrConcat 5 index StrConcat (\)^2\)\)) StrConcat } if
  PostCommonFunc } def
/EvalFunc_acos {%
  PreCommonFunc
  { (-1/sqrt\(1-\() StrConcat 5 index StrConcat (\)^2\)\)) StrConcat } if
  PostCommonFunc } def
/EvalFunc_atg {%
  PreCommonFunc
  { (1/\(1+\() StrConcat 5 index StrConcat (\)^2\)\)) StrConcat } if
  PostCommonFunc } def
/EvalFunc_ln {%
  PreCommonFunc
  {  dup 0 eq { (1) StrConcat } { 1 sub } ifelse (/\() StrConcat 5 index StrConcat AddClPar } if
  PostCommonFunc } def
/EvalFunc_exp {%
  PreCommonFunc
  {  (exp\() StrConcat 5 index StrConcat AddClPar } if
  PostCommonFunc } def
/EvalFunc_sqrt {%
  PreCommonFunc
  { dup 0 eq { (1) StrConcat } { 1 sub } ifelse (/\(2*sqrt\() StrConcat 5 index StrConcat (\)\)) StrConcat } if
  PostCommonFunc } def
/EvalFunc_Fact {%
  PreCommonFunc { ERROR_no_variable_expression_in_Fact } if
  PostCommonFunc } def
/EvalFunc_sh {%
  PreCommonFunc
  { (ch\() StrConcat 5 index StrConcat AddClPar } if
  PostCommonFunc } def
/EvalFunc_ch {%
  PreCommonFunc
  { (sh\() StrConcat 5 index StrConcat AddClPar } if
  PostCommonFunc } def
/EvalFunc_th {%
  PreCommonFunc
  {  dup 0 eq { (1) StrConcat } { 1 sub } ifelse  (/ch\() StrConcat 5 index StrConcat (\)^2) StrConcat } if
  PostCommonFunc } def
/EvalFunc_Argsh {%
  PreCommonFunc
  { (1/sqrt\(1+\() StrConcat 5 index StrConcat (\)^2\)\)) StrConcat } if
  PostCommonFunc } def
/EvalFunc_Argch {%
  PreCommonFunc
  { (1/sqrt\(\() StrConcat 5 index StrConcat (\)^2-1\)\)) StrConcat } if
  PostCommonFunc } def
/EvalFunc_Argth {%
  PreCommonFunc
  { (1/\(1-\() StrConcat 5 index StrConcat (\)^2\)\)) StrConcat } if
  PostCommonFunc } def
%%%%%%%%%%%%%%%%%%%%%%%%%%%%%%%%%%%%%%%%%%%%%%%%%%
/PreCommonFunc {
  1 add NextNonBlankChar pop 3 -1 roll 5 1 roll AnalyzeExpr 1 add NextNonBlankChar pop
  4 2 roll 4 index (0) eq
  { (0) StrConcat false }
  { 4 index (1)  ne { AddOpPar 4 index StrConcat (\)*) StrConcat } if true } ifelse
} def
/PostCommonFunc {
  2 copy pop 0 6 2 roll GetIntervalNewStr
  mark 9 -3 roll cleartomark 2 index 6 index dup 4 index exch sub getinterval exch 6 2 roll
} def
/EvalFunc_Derive {%
  1 add ReadNumber cvi 1 add dup cvr log 1 add cvi string cvs
  4 -1 roll pop 5 1 roll 1 add NextNonBlankChar pop AnalyzeExpr 1 add
  4 -2 roll (Derive\() StrConcat 7 -1 roll StrConcat (,) StrConcat 6 -1 roll StrConcat AddClPar
  2 copy pop 0 6 2 roll GetIntervalNewStr 6 -1 roll pop 2 index 6 index dup 4 index exch sub getinterval
  exch 6 2 roll } def
%%%%%%%%%%%%%%%%%%%%%%%%%%%%%%%%%%%%%%%%%%%%%%%%%%
%% literal switch -> func call, vector, variables
/EvalFunc_Sum {%
  1 add NextNonBlankChar pop
  %% read the variable name
  ReadLiteral pop 3 -1 roll pop NextNonBlankChar
  44 ne { ANALYZER_ERROR_missing_first_comma_in_Sum } if
  %% read the initial value
  1 add NextNonBlankChar pop ReadNumber pop
  2 copy get 44 ne { ANALYZER_ERROR_missing_second_comma_in_Sum } if
  %% read the increment value
  1 add NextNonBlankChar pop ReadNumber pop
  2 copy get 44 ne { ANALYZER_ERROR_missing_third_comma_in_Sum } if
  %% read the limit value
  1 add NextNonBlankChar pop ReadNumber pop
  2 copy get 44 ne { ANALYZER_ERROR_missing_fourth_comma_in_Sum } if
  1 add NextNonBlankChar pop dup 6 1 roll 3 -1 roll pop AnalyzeExpr 1 add NextNonBlankChar pop
  4 -2 roll 3 index 8 index dup 9 index exch sub getinterval StrConcat
  4 index StrConcat AddClPar
  2 copy pop 0 6 2 roll GetIntervalNewStr
  mark 9 -3 roll cleartomark 2 index 6 index dup 4 index exch sub getinterval exch 6 2 roll
} def
%%%%%%%%%%%%%%%%%%%%%%%%%%%%%%%%%%%%%%%%%%%%%%%%%%
%% literal switch -> func call, vector, variables
/EvalFunc_IfTE {%
  3 -1 roll pop 1 add NextNonBlankChar pop SkipCond
  NextNonBlankChar
  44 ne { ANALYZER_ERROR_missing_first_comma_in_IfTE } if
  1 add NextNonBlankChar pop dup 5 1 roll
  AnalyzeExpr NextNonBlankChar
  44 ne { ANALYZER_ERROR_missing_second_comma_in_IfTE } if
  1 add NextNonBlankChar pop
  AnalyzeExpr 1 add NextNonBlankChar pop
  4 -2 roll 3 index 10 index dup 11 index exch sub getinterval StrConcat
  6 index StrConcat (,) StrConcat 4 index StrConcat AddClPar
  2 copy pop 0 6 2 roll GetIntervalNewStr
  mark 11 -5 roll cleartomark 2 index 6 index dup 4 index exch sub getinterval exch 6 2 roll
} def
%%%%%%%%%%%%%%%%%%%%%%%%%%%%%%%%%%%%%%%%%%%%%%%%%%
%% advance in str until a comma is found (no error detection!)
%% str index -> str index'
/SkipCond { { 1 add 2 copy get 44 eq {exit } if } loop } bind def
%%%%%%%%%%%%%%%%%%%%%%%%%%%%%%%%%%%%%%%%%%%%%%%%%%
%% Convert to radians if trigo function call
%% (name) ->
/TrigoFunc {
  dup (cos) eq 1 index (sin) eq or exch (tan) eq or
  { /ExpressionVector ExpressionVector aload length Pi /div cvx 180 /mul cvx 5 -1 roll 4 add
    array astore def
  } if
} def
%%%%%%%%%%%%%%%%%%%%%%%%%%%%%%%%%%%%%%%%%%%%%%%%%%
%% No derivative for condition....
/EvalCondOp { 3 -1 roll pop } bind def
/PutIntervalOneAdd {putinterval 1 add} bind def
%%%%%%%%%%%%%%%%%%%%%%%%%%%%%%%%%%%%%%%%%%%%%%%%%%
%% Add open parenthesis in string at the given index
%% str index -> str index+1
/AddOpPar {2 copy (\() PutIntervalOneAdd} bind def
%%%%%%%%%%%%%%%%%%%%%%%%%%%%%%%%%%%%%%%%%%%%%%%%%%
%% Add close parenthesis in string at the given index
%% str index -> str index+1
/AddClPar {2 copy (\)) PutIntervalOneAdd} bind def
%%%%%%%%%%%%%%%%%%%%%%%%%%%%%%%%%%%%%%%%%%%%%%%%%%
%% Add 0 in string at the given index
%% str index -> str index+1
/AddZero {2 copy (0) PutIntervalOneAdd} bind def
%%%%%%%%%%%%%%%%%%%%%%%%%%%%%%%%%%%%%%%%%%%%%%%%%%
%% Add open parenthesis in string at the given index
%% str index -> str index+1
/AddMul {2 copy (*) PutIntervalOneAdd} bind def
%%%%%%%%%%%%%%%%%%%%%%%%%%%%%%%%%%%%%%%%%%%%%%%%%%
%% Add open parenthesis in string at the given index
%% str index -> str index+1
/AddDiv {2 copy (/) PutIntervalOneAdd} bind def
%%%%%%%%%%%%%%%%%%%%%%%%%%%%%%%%%%%%%%%%%%%%%%%%%%
%% Add a plus sign in string at the given index
%% str index -> str index+1
/AddAdd {2 copy (+) PutIntervalOneAdd} bind def
%%%%%%%%%%%%%%%%%%%%%%%%%%%%%%%%%%%%%%%%%%%%%%%%%%
%% Add a minus sign in string at the given index
%% str index -> str index+1
/AddSub {2 copy (-) PutIntervalOneAdd} bind def
%%%%%%%%%%%%%%%%%%%%%%%%%%%%%%%%%%%%%%%%%%%%%%%%%%
%% Add a pipe sign in string at the given index
%% str index -> str index+1
/AddPipe {2 copy (|) PutIntervalOneAdd} bind def
%%%%%%%%%%%%%%%%%%%%%%%%%%%%%%%%%%%%%%%%
%% H O O K S
/AnalyzePreHook { dup 5 1 roll } bind def
/PreEvalHook {} def
/AnalyzePostHook { 7 -1 roll pop } bind def
/AnalyzeListOfEPostHook { 6 -1 roll mark 6 1 roll cleartomark } bind def
/RollOp { 5 1 roll } bind def
end%%%tx@CoreAnalyzerDict
/tx@AddMathFunc 12 dict def tx@AddMathFunc begin
%%%%%%%%%%%%%%%%%%%%%%%%%%%%%%%%%%%%%%%%%%%%%%%%%%%%%%%%%%%%%%%%%%%%%%
%% NEW FUNC
%%%%%%%%%%%%%%%%%%%%%%%%%%%%%%%%%%%%%%%%%%%%%%%%%%
%% function arcsine in radians asin(x)=atan(x/sqrt(1-x^2))
%% x -> theta
/asin {%
  dup abs 1 gt { EQDFasinrangeerror  } if
  dup dup dup mul 1 exch sub sqrt atan exch 0 lt { 360 sub } if DegtoRad
} def
%% function arccosine in radians acos(x)=atan(sqrt(1-x^2)/x)
%% x -> theta
/acos {%
  dup abs 1 gt { EQDFacosrangeerror  } if
  dup dup mul 1 exch sub sqrt exch atan DegtoRad
} def
%% function arctangent in radians
%% x -> theta
/atg { 1 atan dup 90 gt { 360 sub } if DegtoRad } bind def
%% HYPERBOLIC FUNCTIONS
/sh { dup Ex exch neg Ex sub 2 div } def
/ch { dup Ex exch neg Ex add 2 div } def
/th { dup sh exch ch div } def
/Argsh { dup dup mul 1 add sqrt add ln } def
/Argch { dup dup mul 1 sub sqrt add ln } def
/Argth { dup 1 add exch 1 exch sub div ln 2 div } def
%% modified exponential funtion for 0
%% x n -> x^n
/Exp { dup 0 eq { pop pop 1 } { exp } ifelse } bind def
%% modified exponential funtion for 0
%% x -> e^x
/Ex { Euler exch exp } bind def
%%
%% factorial function
%% n -> n!
/Fact { 1 exch 2 exch 1 exch { mul } for } bind def
/fact { Fact } bind def
end

% END pstricks.pro

%%EndProcSet
%%BeginProcSet: pst-dots.pro 0 0
% $Id: pst-dots.pro 26 2008-06-14 11:50:02Z herbert $
%
%% PostScript prologue for pstricks.tex.
%% Version 2.02,  2008/04/18
%%
%% For distribution, see pstricks.tex.
%%
%% Timothy Van Zandt <tvz@Princeton.EDU>
%%
%% This program can be redistributed and/or modified under the terms
%% of the LaTeX Project Public License Distributed from CTAN archives
%% in directory macros/latex/base/lppl.txt.
%%
%% Modified by Etienne Riga  - Dec. 16, 1999
%% Modified by Etienne Riga  - 2005/01/01 (er)
%% to add /Diamond, /SolidDiamond and /BoldDiamond
%% Modified by Herbert Voss (hv) - 2008/04/17 
%
10 dict dup begin			% hold local
  /FontType 3 def
  /FontMatrix [.001 0 0 .001 0 0] def
  /FontBBox [-571.5 -742.5 571.5 742.5] def
%  /FontBBox [-1000 -1000 1000 1000] def  % See end of file in /BuildGlyph
  /Encoding 256 array def
  0 1 255 {Encoding exch /.notdef put} for % fill the array with /.notdef
  Encoding				   % replace with given dot names
    dup (b) 0 get /Bullet put		   % get the numerical position of b in ASCII
%					   % and save /Bullet at this place in Encoding 
    dup (c) 0 get /Circle put
    dup (C) 0 get /BoldCircle put	% 67
    dup (u) 0 get /SolidTriangle put
    dup (t) 0 get /Triangle put
    dup (T) 0 get /BoldTriangle put
    dup (r) 0 get /SolidSquare put
    dup (s) 0 get /Square put
    dup (S) 0 get /BoldSquare put
    dup (q) 0 get /SolidPentagon put
    dup (p) 0 get /Pentagon put
    dup (P) 0 get /BoldPentagon put
%%%		  
    dup (k) 0 get /Asterisk put
    dup (K) 0 get /BoldAsterisk put
    dup (J) 0 get /SolidAsterisk put
    dup (h) 0 get /Hexagon put
    dup (H) 0 get /BoldHexagon put
    dup (G) 0 get /SolidHexagon put
    dup (f) 0 get /Octogon put		% 2008-04-18 hv
    dup (F) 0 get /BoldOctogon put	% 2008-04-18 hv
    dup (g) 0 get /SolidOctogon put	% 2008-04-18 hv
    dup (a) 0 get /Add put
    dup (A) 0 get /BoldAdd put 		% 65
    dup (x) 0 get /Mul put
    dup (X) 0 get /BoldMul put
    dup (m) 0 get /Oplus put
    dup (M) 0 get /BOplus put
    dup (e) 0 get /SolidOplus put
    dup (n) 0 get /Otimes put
    dup (N) 0 get /BOtimes put
    dup (E) 0 get /SolidOtimes put
    dup (i) 0 get /Bar put
    dup (I) 0 get /BoldBar put
    dup (l) 0 get /SolidDiamond put
    dup (d) 0 get /Diamond put
        (D) 0 get /BoldDiamond put
%%%  
/CharProcs 47 dict def
CharProcs begin
  /CirclePath {0 0 500 0 360 arc closepath} def
  /Bullet {CirclePath fill} def
  /Circle {CirclePath .9 .9 scale CirclePath eofill} def
  /BoldCircle {CirclePath .8 .8 scale CirclePath eofill} def
  /TrianglePath {0 660 moveto -571.5 -330 lineto 571.5 -330 lineto closepath} def
  /SolidTriangle {TrianglePath fill} def
  /Triangle {TrianglePath .85 .85 scale TrianglePath eofill} def
  /BoldTriangle {TrianglePath .7 .7 scale TrianglePath eofill} def
  /SquarePath {-450 450 moveto 450 450 lineto 450 -450 lineto -450 -450 lineto closepath} def
  /SolidSquare {SquarePath fill} def
  /Square {SquarePath .89 .89 scale SquarePath eofill} def
  /BoldSquare {SquarePath .78 .78 scale SquarePath eofill} def
  /PentagonPath {
    -337.8 -465 moveto 337.8 -465 lineto 546.6 177.6 lineto
    0 574.7 lineto -546.6 177.6 lineto closepath
  } def
  /SolidPentagon {PentagonPath fill} def
  /Pentagon {PentagonPath .89 .89 scale PentagonPath eofill} def
  /BoldPentagon {PentagonPath .78 .78 scale PentagonPath eofill} def
%-------------- hv begin 2004/07/25   from: er 2003/03/24
  /HexagonPath {
    0 550 moveto -476 275 lineto -476 -275 lineto
    0 -550 lineto 476 -275 lineto 476 275 lineto closepath
  } def
  /SolidHexagon {HexagonPath fill} def
  /Hexagon {HexagonPath .89 .89 scale HexagonPath eofill} def
  /BoldHexagon {HexagonPath .79 .79 scale HexagonPath eofill} def
%					2008-04-18 hv
  /OctogonPath { 
     550 dup 22.5 tan mul dup neg dup add /xMove exch def 
     exch moveto 7 { xMove 0 rlineto 45 rotate } repeat closepath } def 
  /SolidOctogon { OctogonPath fill                             } def
  /Octogon {      OctogonPath .89 .89 scale OctogonPath eofill } def
  /BoldOctogon {  OctogonPath .79 .79 scale OctogonPath eofill } def
%
  /AsteriskPath {
    20 0 moveto 10 250 180 500 0 500 curveto
    -180 500 -10 250 -20 0 curveto closepath
  } def
  /Asterisk {
    AsteriskPath 60 rotate AsteriskPath 60 rotate AsteriskPath
    60 rotate AsteriskPath 60 rotate AsteriskPath 60 rotate AsteriskPath fill
  } def
%
  /Basterp {50 250 220 500 0 500 curveto -220 500 -50 250 -50 30 cos 100 mul curveto} def
  /BoldAsteriskPath {
    50 30 cos 100 mul moveto  Basterp
    60 rotate Basterp 60 rotate Basterp
    60 rotate Basterp 60 rotate Basterp
    60 rotate Basterp closepath
  } def
  /BoldAsterisk {BoldAsteriskPath fill} def
  /SolidAsterisk {CirclePath .9 .9 scale BoldAsteriskPath eofill} def
  /CrossPath {
    40 550 moveto -40 550 lineto -40 40 lineto -550 40 lineto
    -550 -40 lineto -40 -40 lineto -40 -550 lineto 40 -550 lineto 
    40 -40 lineto 550 -40 lineto 550 40 lineto 40 40 lineto closepath
  } def
  /BoldCrossPath {80 550 moveto -80 550 lineto -80 80 lineto -550 80 lineto
    -550 -80 lineto -80 -80 lineto -80 -550 lineto 80 -550 lineto 
    80 -80 lineto 550 -80 lineto 550 80 lineto 80 80 lineto closepath
  } def
  /Add {CrossPath fill} def
  /Mul {45 rotate CrossPath fill} def
  /BoldAdd {BoldCrossPath fill} def
  /BoldMul {45 rotate BoldCrossPath fill} def
  /Oplus {CirclePath .9 .9 scale CirclePath eofill .775 .775 scale CrossPath fill } def 
  /SolidOplus {CirclePath .775 .775 scale BoldCrossPath eofill} def 
  /BOplus {CirclePath .8 .8 scale CirclePath eofill .775 .775 scale BoldCrossPath fill} def 
  /Otimes {CirclePath .9 .9 scale CirclePath eofill 45 rotate .775 .775 scale CrossPath fill} def 
  /BOtimes {CirclePath .8 .8 scale CirclePath eofill 45 rotate .775 .775 scale BoldCrossPath fill } def 
  /SolidOtimes {CirclePath 45 rotate .775 .775 scale BoldCrossPath eofill} def 
  /BarPath {40 660 moveto -40 660 lineto -40 -660 lineto 40 -660 lineto closepath} def
  /Bar {BarPath fill} def
  /BoldBarPath {80 660 moveto -80 660 lineto -80 -660 lineto 80 -660 lineto closepath} def
  /BoldBar {BoldBarPath fill} def
  /DiamondPath {0 742.5 moveto -428.5 0 lineto 0 -742.5 lineto 428.5 0 lineto closepath} def
  /SolidDiamond {DiamondPath fill} def
  /Diamond {DiamondPath .865 .865 scale DiamondPath eofill} def
  /BoldDiamond {DiamondPath .73 .73 scale DiamondPath eofill} def
%%%
  /.notdef { } def
end
%
/BuildGlyph {
  exch
  begin 		
%  Metrics 1 index get exec 0
    0 0
%      BBoxes 3 index get exec
    -1000 -1000 1000 1000
%     -571.5 -742.5 571.5 742.5
    setcachedevice
    CharProcs begin load exec end
  end
} def
%
/BuildChar {
  1 index /Encoding get exch get
  1 index /BuildGlyph get exec
} bind def

end
/PSTricksDotFont exch definefont pop

%% end

%%EndProcSet
%%BeginProcSet: special.pro 0 0
%!
TeXDict begin/SDict 200 dict N SDict begin/@SpecialDefaults{/hs 612 N
/vs 792 N/ho 0 N/vo 0 N/hsc 1 N/vsc 1 N/ang 0 N/CLIP 0 N/rwiSeen false N
/rhiSeen false N/letter{}N/note{}N/a4{}N/legal{}N}B/@scaleunit 100 N
/@hscale{@scaleunit div/hsc X}B/@vscale{@scaleunit div/vsc X}B/@hsize{
/hs X/CLIP 1 N}B/@vsize{/vs X/CLIP 1 N}B/@clip{/CLIP 2 N}B/@hoffset{/ho
X}B/@voffset{/vo X}B/@angle{/ang X}B/@rwi{10 div/rwi X/rwiSeen true N}B
/@rhi{10 div/rhi X/rhiSeen true N}B/@llx{/llx X}B/@lly{/lly X}B/@urx{
/urx X}B/@ury{/ury X}B/magscale true def end/@MacSetUp{userdict/md known
{userdict/md get type/dicttype eq{userdict begin md length 10 add md
maxlength ge{/md md dup length 20 add dict copy def}if end md begin
/letter{}N/note{}N/legal{}N/od{txpose 1 0 mtx defaultmatrix dtransform S
atan/pa X newpath clippath mark{transform{itransform moveto}}{transform{
itransform lineto}}{6 -2 roll transform 6 -2 roll transform 6 -2 roll
transform{itransform 6 2 roll itransform 6 2 roll itransform 6 2 roll
curveto}}{{closepath}}pathforall newpath counttomark array astore/gc xdf
pop ct 39 0 put 10 fz 0 fs 2 F/|______Courier fnt invertflag{PaintBlack}
if}N/txpose{pxs pys scale ppr aload pop por{noflips{pop S neg S TR pop 1
-1 scale}if xflip yflip and{pop S neg S TR 180 rotate 1 -1 scale ppr 3
get ppr 1 get neg sub neg ppr 2 get ppr 0 get neg sub neg TR}if xflip
yflip not and{pop S neg S TR pop 180 rotate ppr 3 get ppr 1 get neg sub
neg 0 TR}if yflip xflip not and{ppr 1 get neg ppr 0 get neg TR}if}{
noflips{TR pop pop 270 rotate 1 -1 scale}if xflip yflip and{TR pop pop
90 rotate 1 -1 scale ppr 3 get ppr 1 get neg sub neg ppr 2 get ppr 0 get
neg sub neg TR}if xflip yflip not and{TR pop pop 90 rotate ppr 3 get ppr
1 get neg sub neg 0 TR}if yflip xflip not and{TR pop pop 270 rotate ppr
2 get ppr 0 get neg sub neg 0 S TR}if}ifelse scaleby96{ppr aload pop 4
-1 roll add 2 div 3 1 roll add 2 div 2 copy TR .96 dup scale neg S neg S
TR}if}N/cp{pop pop showpage pm restore}N end}if}if}N/normalscale{
Resolution 72 div VResolution 72 div neg scale magscale{DVImag dup scale
}if 0 setgray}N/psfts{S 65781.76 div N}N/startTexFig{/psf$SavedState
save N userdict maxlength dict begin/magscale true def normalscale
currentpoint TR/psf$ury psfts/psf$urx psfts/psf$lly psfts/psf$llx psfts
/psf$y psfts/psf$x psfts currentpoint/psf$cy X/psf$cx X/psf$sx psf$x
psf$urx psf$llx sub div N/psf$sy psf$y psf$ury psf$lly sub div N psf$sx
psf$sy scale psf$cx psf$sx div psf$llx sub psf$cy psf$sy div psf$ury sub
TR/showpage{}N/erasepage{}N/setpagedevice{pop}N/copypage{}N/p 3 def
@MacSetUp}N/doclip{psf$llx psf$lly psf$urx psf$ury currentpoint 6 2 roll
newpath 4 copy 4 2 roll moveto 6 -1 roll S lineto S lineto S lineto
closepath clip newpath moveto}N/endTexFig{end psf$SavedState restore}N
/@beginspecial{SDict begin/SpecialSave save N gsave normalscale
currentpoint TR @SpecialDefaults count/ocount X/dcount countdictstack N}
N/@setspecial{CLIP 1 eq{newpath 0 0 moveto hs 0 rlineto 0 vs rlineto hs
neg 0 rlineto closepath clip}if ho vo TR hsc vsc scale ang rotate
rwiSeen{rwi urx llx sub div rhiSeen{rhi ury lly sub div}{dup}ifelse
scale llx neg lly neg TR}{rhiSeen{rhi ury lly sub div dup scale llx neg
lly neg TR}if}ifelse CLIP 2 eq{newpath llx lly moveto urx lly lineto urx
ury lineto llx ury lineto closepath clip}if/showpage{}N/erasepage{}N
/setpagedevice{pop}N/copypage{}N newpath}N/@endspecial{count ocount sub{
pop}repeat countdictstack dcount sub{end}repeat grestore SpecialSave
restore end}N/@defspecial{SDict begin}N/@fedspecial{end}B/li{lineto}B
/rl{rlineto}B/rc{rcurveto}B/np{/SaveX currentpoint/SaveY X N 1
setlinecap newpath}N/st{stroke SaveX SaveY moveto}N/fil{fill SaveX SaveY
moveto}N/ellipse{/endangle X/startangle X/yrad X/xrad X/savematrix
matrix currentmatrix N TR xrad yrad scale 0 0 1 startangle endangle arc
savematrix setmatrix}N end

%%EndProcSet
%%BeginProcSet: color.pro 0 0
%!
TeXDict begin/setcmykcolor where{pop}{/setcmykcolor{dup 10 eq{pop
setrgbcolor}{1 sub 4 1 roll 3{3 index add neg dup 0 lt{pop 0}if 3 1 roll
}repeat setrgbcolor pop}ifelse}B}ifelse/TeXcolorcmyk{setcmykcolor}def
/TeXcolorrgb{setrgbcolor}def/TeXcolorgrey{setgray}def/TeXcolorgray{
setgray}def/TeXcolorhsb{sethsbcolor}def/currentcmykcolor where{pop}{
/currentcmykcolor{currentrgbcolor 10}B}ifelse/DC{exch dup userdict exch
known{pop pop}{X}ifelse}B/GreenYellow{0.15 0 0.69 0 setcmykcolor}DC
/Yellow{0 0 1 0 setcmykcolor}DC/Goldenrod{0 0.10 0.84 0 setcmykcolor}DC
/Dandelion{0 0.29 0.84 0 setcmykcolor}DC/Apricot{0 0.32 0.52 0
setcmykcolor}DC/Peach{0 0.50 0.70 0 setcmykcolor}DC/Melon{0 0.46 0.50 0
setcmykcolor}DC/YellowOrange{0 0.42 1 0 setcmykcolor}DC/Orange{0 0.61
0.87 0 setcmykcolor}DC/BurntOrange{0 0.51 1 0 setcmykcolor}DC
/Bittersweet{0 0.75 1 0.24 setcmykcolor}DC/RedOrange{0 0.77 0.87 0
setcmykcolor}DC/Mahogany{0 0.85 0.87 0.35 setcmykcolor}DC/Maroon{0 0.87
0.68 0.32 setcmykcolor}DC/BrickRed{0 0.89 0.94 0.28 setcmykcolor}DC/Red{
0 1 1 0 setcmykcolor}DC/OrangeRed{0 1 0.50 0 setcmykcolor}DC/RubineRed{
0 1 0.13 0 setcmykcolor}DC/WildStrawberry{0 0.96 0.39 0 setcmykcolor}DC
/Salmon{0 0.53 0.38 0 setcmykcolor}DC/CarnationPink{0 0.63 0 0
setcmykcolor}DC/Magenta{0 1 0 0 setcmykcolor}DC/VioletRed{0 0.81 0 0
setcmykcolor}DC/Rhodamine{0 0.82 0 0 setcmykcolor}DC/Mulberry{0.34 0.90
0 0.02 setcmykcolor}DC/RedViolet{0.07 0.90 0 0.34 setcmykcolor}DC
/Fuchsia{0.47 0.91 0 0.08 setcmykcolor}DC/Lavender{0 0.48 0 0
setcmykcolor}DC/Thistle{0.12 0.59 0 0 setcmykcolor}DC/Orchid{0.32 0.64 0
0 setcmykcolor}DC/DarkOrchid{0.40 0.80 0.20 0 setcmykcolor}DC/Purple{
0.45 0.86 0 0 setcmykcolor}DC/Plum{0.50 1 0 0 setcmykcolor}DC/Violet{
0.79 0.88 0 0 setcmykcolor}DC/RoyalPurple{0.75 0.90 0 0 setcmykcolor}DC
/BlueViolet{0.86 0.91 0 0.04 setcmykcolor}DC/Periwinkle{0.57 0.55 0 0
setcmykcolor}DC/CadetBlue{0.62 0.57 0.23 0 setcmykcolor}DC
/CornflowerBlue{0.65 0.13 0 0 setcmykcolor}DC/MidnightBlue{0.98 0.13 0
0.43 setcmykcolor}DC/NavyBlue{0.94 0.54 0 0 setcmykcolor}DC/RoyalBlue{1
0.50 0 0 setcmykcolor}DC/Blue{1 1 0 0 setcmykcolor}DC/Cerulean{0.94 0.11
0 0 setcmykcolor}DC/Cyan{1 0 0 0 setcmykcolor}DC/ProcessBlue{0.96 0 0 0
setcmykcolor}DC/SkyBlue{0.62 0 0.12 0 setcmykcolor}DC/Turquoise{0.85 0
0.20 0 setcmykcolor}DC/TealBlue{0.86 0 0.34 0.02 setcmykcolor}DC
/Aquamarine{0.82 0 0.30 0 setcmykcolor}DC/BlueGreen{0.85 0 0.33 0
setcmykcolor}DC/Emerald{1 0 0.50 0 setcmykcolor}DC/JungleGreen{0.99 0
0.52 0 setcmykcolor}DC/SeaGreen{0.69 0 0.50 0 setcmykcolor}DC/Green{1 0
1 0 setcmykcolor}DC/ForestGreen{0.91 0 0.88 0.12 setcmykcolor}DC
/PineGreen{0.92 0 0.59 0.25 setcmykcolor}DC/LimeGreen{0.50 0 1 0
setcmykcolor}DC/YellowGreen{0.44 0 0.74 0 setcmykcolor}DC/SpringGreen{
0.26 0 0.76 0 setcmykcolor}DC/OliveGreen{0.64 0 0.95 0.40 setcmykcolor}
DC/RawSienna{0 0.72 1 0.45 setcmykcolor}DC/Sepia{0 0.83 1 0.70
setcmykcolor}DC/Brown{0 0.81 1 0.60 setcmykcolor}DC/Tan{0.14 0.42 0.56 0
setcmykcolor}DC/Gray{0 0 0 0.50 setcmykcolor}DC/Black{0 0 0 1
setcmykcolor}DC/White{0 0 0 0 setcmykcolor}DC end

%%EndProcSet
TeXDict begin @defspecial

 /ed{exch def}def /gs{gsave dup scale}def /gsw{gs /width ed width setlinewidth}def
/p1{/y1 ed /x1 ed}def /p2{/y2 ed /x2 ed}def /p3{/y3 ed /x3 ed}def /abox{newpath
x1 y1 moveto x1 y2 lineto x2 y2 lineto x2 y1 lineto closepath}def /atriangle{newpath
x1 y1 moveto x2 y2 lineto x3 y3 lineto closepath}def /LightYellow{0
0 0.7 0 setcmykcolor}def /LightRed{0 0.75 0.7 0 setcmykcolor}def /LightBlue{0.7
0.5 0 0 setcmykcolor}def

 /arrowdown{ /nwidth { width 1 add } def newpath 0 nwidth 1.5 mul neg
moveto nwidth 1.2 mul nwidth 3 mul rlineto nwidth 2.4 mul neg 0 rlineto
nwidth 1.2 mul nwidth 3 mul neg rlineto closepath fill } def

 /arrowup{ /nwidth { width 1 add } def newpath 0 nwidth 1.5 mul moveto
nwidth 1.2 mul nwidth 3 mul neg rlineto nwidth 2.4 mul neg 0 rlineto
nwidth 1.2 mul nwidth 3 mul rlineto closepath fill } def

 /arrowright{ /nwidth { width 1 add } def newpath nwidth 1.5 mul 0
moveto nwidth 3 mul neg nwidth 1.2 mul rlineto 0 nwidth 2.4 mul neg
rlineto nwidth 3 mul nwidth 1.2 mul rlineto closepath fill } def

 /gluon{ gsw /num ed /ampi ed /dy ed /dx ed p1 /dy dy y1 sub def /dx
dx x1 sub def /dr dx dx mul dy dy mul add sqrt def x1 y1 translate
dy dx atan rotate /num num 0.5 sub round def /inc dr num 2 mul 2 add
div def /amp8 ampi 0.9 mul def amp8 0 lt {/amp8 amp8 neg def} if /x1
inc 2 mul def newpath 0 0 moveto inc 0.1 mul ampi 0.5 mul inc 0.5 mul
ampi inc 1.4 mul ampi curveto x1 amp8 add dup ampi exch ampi neg dup
x1 exch curveto 2 1 num { pop x1 amp8 sub dup ampi neg exch ampi dup
x1 inc add exch curveto /x1 x1 inc dup add add def x1 amp8 add dup
ampi exch ampi neg dup x1 exch curveto } for x1 amp8 sub dup ampi neg
exch ampi dup x1 inc 0.6 mul add exch curveto x1 inc 1.5 mul add ampi
dr inc 0.1 mul sub ampi 0.5 mul dr 0 curveto stroke grestore } def

 /photon{ gsw /num ed /ampi ed p2 p1 /dy y2 y1 sub def /dx x2 x1 sub
def /dr dx dx mul dy dy mul add sqrt def x1 y1 translate dy dx atan
rotate /num num 2 mul 0.5 sub round def /x2 dr num div def /pi 3.141592
def /sign 1 def 1 1 num { pop newpath 0 0 moveto 4 3 div x2 mul pi
div dup neg x2 add 4 3 div ampi sign mul mul dup 3 1 roll x2 0 curveto
stroke /sign sign neg def x2 0 translate } for grestore } def

 /zigzag{ gsw /num ed /ampi ed p2 p1 /dy y2 y1 sub def /dx x2 x1 sub
def /dr dx dx mul dy dy mul add sqrt def x1 y1 translate dy dx atan
rotate /num num 2 mul 0.5 sub round def /x2 dr num div def /pi 3.141592
def /sign 1 def 1 1 num { pop newpath 0 0 moveto x2 2 div ampi sign
mul lineto x2 0 lineto stroke /sign sign neg def x2 0 translate } for
grestore } def

 /photonarc{ gsw /num ed /ampli ed /arcend ed /arcstart ed /radius
ed translate /num num 2 mul round def arcend arcstart lt { /arcend
arcend 360 add def } if /arcend arcend arcstart sub num div def arcstart
rotate /arcstart arcend 2 div def /cp arcend cos def /sp arcend sin
def /cp2 arcstart cos def /sp2 arcstart sin def newpath 1 1 num { pop
radius 0 moveto /beta radius arcend mul 180 ampli mul div def /tt sp
cp beta mul sub cp sp beta mul add div def /amp1 radius ampli add 8
mul beta cp2 mul sp2 sub mul beta 4 cp add mul tt cp mul 3 mul sp 4
mul sub add radius mul sub beta tt sub 3 mul div def radius ampli add
8 mul cp2 mul 1 cp add radius mul sub 3 div amp1 sub dup radius sub
beta mul amp1 dup radius cp mul sub tt mul radius sp mul add radius
cp mul radius sp mul curveto /ampli ampli neg def arcend rotate } for
stroke grestore } def

 /gluearc{ gsw /num ed /ampi ed /arcend ed /arcstart ed /radius ed
arcend arcstart lt { /ampi ampi -1 mul def /arcstart arcend /arcend
arcstart def def } if translate arcstart rotate /darc arcend arcstart
sub def /dr darc 180 div 3.141592 mul radius mul def /const darc dr
div def /num num 0.5 sub round def /inc dr num 2 mul 2 add div def
/amp8 ampi 0.9 mul def /amp1 radius ampi add def /amp2 radius ampi
sub def /amp3 radius ampi 2 div add def /amp4 amp1 inc amp8 add const
mul cos div def /amp5 amp2 amp8 const mul cos div def /amp6 amp1 inc
0.6 mul amp8 add const mul cos div def /amp7 amp1 inc 0.9 mul const
mul cos div def amp8 0 lt {/amp8 amp8 neg def} if /x1 inc 2 mul def
newpath radius 0 moveto inc 0.1 mul const mul dup cos amp3 mul exch
sin amp3 mul inc 0.5 mul const mul dup cos amp7 mul exch sin amp7 mul
inc 1.4 mul const mul dup cos amp1 mul exch sin amp1 mul curveto x1
amp8 add const mul dup cos amp6 mul exch sin amp6 mul x1 amp8 add const
mul dup cos amp5 mul exch sin amp5 mul x1 const mul dup cos amp2 mul
exch sin amp2 mul curveto 2 1 num { pop x1 amp8 sub const mul dup cos
amp5 mul exch sin amp5 mul x1 amp8 sub const mul dup cos amp4 mul exch
sin amp4 mul x1 inc add const mul dup cos amp1 mul exch sin amp1 mul
curveto /x1 x1 inc dup add add def x1 amp8 add const mul dup cos amp4
mul exch sin amp4 mul x1 amp8 add const mul dup cos amp5 mul exch sin
amp5 mul x1 const mul dup cos amp2 mul exch sin amp2 mul curveto }
for x1 amp8 sub const mul dup cos amp5 mul exch sin amp5 mul x1 amp8
sub const mul dup cos amp6 mul exch sin amp6 mul x1 inc 0.6 mul add
const mul dup cos amp1 mul exch sin amp1 mul curveto x1 inc 1.5 mul
add const mul dup cos amp7 mul exch sin amp7 mul dr inc 0.1 mul sub
const mul dup cos amp3 mul exch sin amp3 mul dr const mul dup cos radius
mul exch sin radius mul curveto stroke grestore } def

 /arrowarc{ gsw /arcend ed /arcstart ed /radius ed translate newpath
0 0 radius arcstart arcend arc stroke arcstart arcend gt { /arcend
arcend 360 add def } if arcstart arcend add 2 div rotate radius 0 translate
arrowup grestore } def

 /longarrowarc{ gsw /arcend ed /arcstart ed /radius ed translate arcstart
arcend gt { /arcend arcend 360 add def } if /arcmid 540 width 1 add
mul 3.14159 div radius div def newpath 0 0 radius arcstart arcend arcmid
sub arc stroke arcend arcmid 2 div sub rotate radius 0 translate arrowup
grestore } def

 /dasharrowarc{ gsw /dsize ed /arcend1 ed /arcstart1 ed /radius ed
translate arcend1 arcstart1 lt { /arcend1 arcend1 360 add def } if
/arcmid1 arcend1 arcstart1 add 2 div def 0 0 radius arcstart1 arcmid1
dsize width 1 dashcarc 0 0 radius arcmid1 arcend1 dsize width 1 dashcarc
arcmid1 rotate radius 0 translate arrowup grestore } def

 /arrowarcn{ gsw /arcend ed /arcstart ed /radius ed translate newpath
0 0 radius arcstart arcend arcn stroke arcstart arcend lt { /arcstart
arcstart 360 add def } if arcstart arcend add 2 div rotate radius 0
translate arrowdown grestore } def

 /longarrowarcn{ gsw /arcend ed /arcstart ed /radius ed translate arcstart
arcend lt { /arcstart arcstart 360 add def } if /arcmid 540 width 1
add mul 3.14159 div radius div def newpath 0 0 radius arcstart arcend
arcmid add arcn stroke arcend arcmid 2 div add rotate radius 0 translate
arrowdown grestore } def

 /dasharrowarcn{ gsw /dsize ed /arcend1 ed /arcstart1 ed /radius ed
translate arcstart1 arcend1 lt { /arcstart1 arcstart1 360 add def }
if /arcmid1 arcstart1 arcend1 add 2 div def 0 0 radius arcmid1 arcstart1
dsize width 1 dashcarc 0 0 radius arcend1 arcmid1 dsize width 1 dashcarc
arcmid1 rotate radius 0 translate arrowdown grestore } def

 /arrowline{ gsw p2 p1 /dx x2 x1 sub def /dy y2 y1 sub def /dr dx dx
mul dy dy mul add sqrt def x1 y1 translate newpath 0 0 moveto dx dy
rlineto stroke dy dx atan rotate dr 2.0 div 0 translate arrowright
grestore } def

 /longarrow{ gsw p2 p1 /dx x2 x1 sub def /dy y2 y1 sub def /dr dx dx
mul dy dy mul add sqrt def x1 y1 translate dy dx atan rotate newpath
0 0 moveto dr width 3 mul sub 0 rlineto stroke dr width 1.5 mul sub
0 translate arrowright grestore } def

 /dasharrowline{ gsw /dsize ed p2 p1 /dx x2 x1 sub def /dy y2 y1 sub
def /dr dx dx mul dy dy mul add sqrt 2 div def x1 y1 translate dy dx
atan rotate 0 0 dr 0 dsize width 1 dashline dr 0 translate 0 0 dr 0
dsize width 1 dashline arrowright grestore } def

 /line{ gsw p2 p1 newpath x1 y1 moveto x2 y2 lineto stroke grestore
} def

 /dashline{ gsw /dsize ed p2 p1 /r y2 y1 sub dup mul x2 x1 sub dup
mul add sqrt def /dsize r dsize 2 mul div 0.5 sub round dup 0 le {
pop 0 } if 2 mul 1 add r exch div def [dsize dsize] 0 setdash newpath
x1 y1 moveto x2 y2 lineto stroke grestore } def

 /carc{ gsw /arcend ed /arcstart ed /radius ed translate newpath 0
0 radius arcstart arcend arc stroke grestore } def

 /dashcarc{ gsw /dsize ed /arcend ed /arcstart ed /radius ed translate
/dr arcend arcstart sub dup 0 lt { 360 add } if 3.14159 mul 180 div
radius mul def /dsize dr dsize 2 mul div 0.5 sub round dup 0 le { pop
0 } if 2 mul 1 add dr exch div def [dsize dsize] 0 setdash newpath
0 0 radius arcstart arcend arc stroke grestore } def

 /vertex{ gs /dotsize ed translate newpath 0 0 dotsize 0 360 arc fill
stroke grestore } def

 /cross{ gsw /csize ed p1 newpath x1 csize add y1 csize add moveto
x1 csize sub y1 csize sub lineto stroke newpath x1 csize add y1 csize
sub moveto x1 csize sub y1 csize add lineto stroke grestore } def

 /bcirc{ gsw /radius ed translate gsave 1 setgray newpath 0 0 radius
0 360 arc fill grestore newpath 0 0 radius 0 360 arc stroke grestore
} def

 /gcirc{ gsw /gcolor ed /radius ed translate 1 setgray newpath 0 0
radius 0 360 arc fill gcolor setgray newpath 0 0 radius 0 360 arc fill
0 setgray newpath 0 0 radius 0 360 arc stroke grestore } def

 /ccirc1{ gsw /radius ed translate newpath 0 0 radius 0 360 arc fill
grestore } def

 /ccirc2{ gsw /radius ed translate newpath 0 0 radius 0 360 arc stroke
grestore } def

 /box{ gsw p2 p1 abox stroke grestore } def

 /bbox{ gsw p2 p1 gsave 1 setgray abox fill grestore abox stroke grestore
} def

 /gbox{ gsw /gcolor ed p2 p1 1 setgray abox fill gcolor setgray abox
fill 0 setgray abox stroke grestore } def

 /cbox1{ gsw p2 p1 abox fill grestore } def

 /cbox2{ gsw p2 p1 abox stroke grestore } def

 /cbox3{ gsw /radius ed translate newpath radius neg radius neg moveto
radius radius neg lineto radius radius lineto radius neg radius lineto
closepath fill grestore } def

 /triangle{ gsw p3 p2 p1 atriangle stroke grestore } def

 /btriangle{ gsw p3 p2 p1 gsave 1 setgray atriangle fill grestore atriangle
stroke grestore } def

 /gtriangle{ gsw /gcolor ed p3 p2 p1 1 setgray atriangle fill gcolor
setgray atriangle fill 0 setgray atriangle stroke grestore } def

 /ctriangle1{ gsw p3 p2 p1 atriangle fill grestore } def

 /ctriangle2{ gsw p3 p2 p1 atriangle stroke grestore } def

 /btext{ gsw /fsize ed /thetext ed translate /hsize thetext stringwidth
pop def /x1 hsize fsize add 2 div neg def /y1 fsize 2 mul 3 div neg
def /x2 x1 neg def /y2 y1 neg def gsave 1 setgray abox fill grestore
abox stroke hsize 2 div neg fsize 3 div neg moveto thetext show grestore
} def

 /b2text{ gsw /fsize ed /text2 ed /text1 ed translate /hsize1 text1
stringwidth pop def /hsize2 text2 stringwidth pop def hsize1 hsize2
lt { /hsize hsize2 def } { /hsize hsize1 def } ifelse /x1 hsize fsize
add 2 div neg def /y1 fsize neg 7 mul 6 div def /x2 x1 neg def /y2
y1 neg def gsave 1 setgray abox fill grestore abox stroke hsize1 2
div neg fsize 6 div moveto text1 show hsize2 2 div neg fsize 5 mul
6 div neg moveto text2 show grestore } def

 /gtext{ gsw /fsize ed /thetext ed /graysc ed translate /hsize thetext
stringwidth pop def /x1 hsize fsize add 2 div neg def /y1 fsize 2 mul
3 div neg def /x2 x1 neg def /y2 y1 neg def graysc setgray abox fill
0 setgray abox stroke hsize 2 div neg fsize 3 div neg moveto thetext
show grestore } def

 /ctext1{ gsw /fsize ed /thetext ed translate /hsize thetext stringwidth
pop def /x1 hsize fsize add 2 div neg def /y1 fsize 2 mul 3 div neg
def /x2 x1 neg def /y2 y1 neg def abox fill grestore } def

 /ctext2{ gsw /fsize ed /thetext ed translate /hsize thetext stringwidth
pop def /x1 hsize fsize add 2 div neg def /y1 fsize 2 mul 3 div neg
def /x2 x1 neg def /y2 y1 neg def abox stroke hsize 2 div neg fsize
3 div neg moveto thetext show grestore } def

 /g2text{ gsw /fsize ed /text2 ed /text1 ed /graysc ed translate /hsize1
text1 stringwidth pop def /hsize2 text2 stringwidth pop def hsize1
hsize2 lt { /hsize hsize2 def } { /hsize hsize1 def } ifelse /x1 hsize
fsize add 2 div neg def /y1 fsize neg 7 mul 6 div def /x2 x1 neg def
/y2 y1 neg def graysc setgray abox fill 0 setgray abox stroke hsize1
2 div neg fsize 6 div moveto text1 show hsize2 2 div neg fsize 5 mul
6 div neg moveto text2 show grestore } def

 /c2text1{ gsw /fsize ed /text2 ed /text1 ed translate /hsize1 text1
stringwidth pop def /hsize2 text2 stringwidth pop def hsize1 hsize2
lt { /hsize hsize2 def } { /hsize hsize1 def } ifelse /x1 hsize fsize
add 2 div neg def /y1 fsize neg 7 mul 6 div def /x2 x1 neg def /y2
y1 neg def abox fill grestore } def

 /c2text2{ gsw /fsize ed /text2 ed /text1 ed translate /hsize1 text1
stringwidth pop def /hsize2 text2 stringwidth pop def hsize1 hsize2
lt { /hsize hsize2 def } { /hsize hsize1 def } ifelse /x1 hsize fsize
add 2 div neg def /y1 fsize neg 7 mul 6 div def /x2 x1 neg def /y2
y1 neg def abox stroke hsize1 2 div neg fsize 6 div moveto text1 show
hsize2 2 div neg fsize 5 mul 6 div neg moveto text2 show grestore }
def

 /ptext{ gs /text ed /fsize ed /mode ed 3 1 roll translate rotate mode
3 lt { 0 fsize neg translate } { mode 6 lt { /mode mode 3 sub def 0
fsize 2 div neg translate } { /mode mode 6 sub def } ifelse } ifelse
/fsize text stringwidth pop def mode 1 eq { fsize 2 div neg 0 translate
} { mode 2 eq { fsize neg 0 translate } if } ifelse 0 0 moveto text
show grestore } def

 /goval{ gsw /gcolor ed /x1 ed /x2 ed /radius ed translate x1 rotate
x2 radius div 1.0 scale 1 setgray newpath 0 0 radius 0 360 arc fill
gcolor setgray newpath 0 0 radius 0 360 arc fill 0 setgray newpath
0 0 radius 0 360 arc stroke grestore } def

 /coval1{ gsw /x1 ed /x2 ed /radius ed translate x1 rotate x2 radius
div 1.0 scale newpath 0 0 radius 0 360 arc fill grestore } def

 /coval2{ gsw /x1 ed /x2 ed /radius ed translate x1 rotate x2 radius
div 1.0 scale newpath 0 0 radius 0 360 arc stroke grestore } def

 /oval{ gsw /x1 ed /x2 ed /radius ed translate x1 rotate x2 radius
div 1.0 scale newpath 0 0 radius 0 360 arc stroke grestore } def

 /docurve{ x1 2 mul x2 add 3 div y1 y0 sub x1 x0 sub div x2 x0 sub
mul y2 y0 sub x2 x0 sub div x1 x0 sub mul add y1 add y0 2 mul add 3
div x1 x2 2 mul add 3 div y2 y3 sub x2 x3 sub div x1 x3 sub mul y1
y3 sub x1 x3 sub div x2 x3 sub mul add y2 add y3 2 mul add 3 div x2
y2 curveto } def

 /makecurve{ gsw /points ed /ss points length 2 idiv 2 mul def newpath
ss 4 gt { /x1 points 0 get def /y1 points 1 get def /x2 points 2 get
def /y2 points 3 get def /x3 points 4 get def /y3 points 5 get def
/x0 x1 2 mul x2 sub def /y0 y3 y2 sub x3 x2 sub div y2 y1 sub x2 x1
sub div sub 2 mul x2 x1 sub dup mul x3 x1 sub div mul y1 2 mul add
y2 sub def x1 y1 moveto docurve 0 2 ss 8 sub { /ii ed /x0 points ii
get def /y0 points ii 1 add get def /x1 points ii 2 add get def /y1
points ii 3 add get def /x2 points ii 4 add get def /y2 points ii 5
add get def /x3 points ii 6 add get def /y3 points ii 7 add get def
docurve } for /x0 points ss 6 sub get def /y0 points ss 5 sub get def
/x1 points ss 4 sub get def /y1 points ss 3 sub get def /x2 points
ss 2 sub get def /y2 points ss 1 sub get def /x3 x2 2 mul x1 sub def
/y3 y2 y1 sub x2 x1 sub div y1 y0 sub x1 x0 sub div sub 2 mul x2 x1
sub dup mul x2 x0 sub div mul y2 2 mul add y1 sub def docurve } { ss
4 eq { points 0 get points 1 get moveto points 2 get points 3 get lineto
} if } ifelse stroke grestore } def

 /makedashcurve{ gsw /dsize ed /points ed /ss points length 2 idiv
2 mul def newpath ss 4 gt { /x1 points 0 get def /y1 points 1 get def
/x2 points 2 get def /y2 points 3 get def /x3 points 4 get def /y3
points 5 get def /x0 x1 2 mul x2 sub def /y0 y3 y2 sub x3 x2 sub div
y2 y1 sub x2 x1 sub div sub 2 mul x2 x1 sub dup mul x3 x1 sub div mul
y1 2 mul add y2 sub def x1 y1 moveto docurve 0 2 ss 8 sub { /ii ed
/x0 points ii get def /y0 points ii 1 add get def /x1 points ii 2 add
get def /y1 points ii 3 add get def /x2 points ii 4 add get def /y2
points ii 5 add get def /x3 points ii 6 add get def /y3 points ii 7
add get def docurve } for /x0 points ss 6 sub get def /y0 points ss
5 sub get def /x1 points ss 4 sub get def /y1 points ss 3 sub get def
/x2 points ss 2 sub get def /y2 points ss 1 sub get def /x3 x2 2 mul
x1 sub def /y3 y2 y1 sub x2 x1 sub div y1 y0 sub x1 x0 sub div sub
2 mul x2 x1 sub dup mul x2 x0 sub div mul y2 2 mul add y1 sub def docurve
} { ss 4 eq { points 0 get points 1 get moveto points 2 get points
3 get lineto } if } ifelse centerdash stroke grestore } def

 /pathlength{ flattenpath /dist 0 def { /yfirst ed /xfirst ed /ymoveto
yfirst def /xmoveto xfirst def } { /ynext ed /xnext ed /dist dist ynext
yfirst sub dup mul xnext xfirst sub dup mul add sqrt add def /yfirst
ynext def /xfirst xnext def } {} {/ynext ymoveto def /xnext xmoveto
def /dist ynext yfirst sub dup mul xnext xfirst sub dup mul add sqrt
add def /yfirst ynext def /xfirst xnext def } pathforall dist } def

 /centerdash{ /pathlen pathlength def /jj pathlen dsize div 2.0 div
cvi def /ddsize pathlen jj 2.0 mul div def [ddsize] ddsize 2 div setdash
} def

 /logaxis{ gsw /offset ed /hashsize ed /nlogs ed p2 p1 x1 y1 translate
/y2 y2 y1 sub def /x2 x2 x1 sub def y2 x2 atan rotate /rr x2 dup mul
y2 dup mul add sqrt def offset 0 ne { /offset offset ln 10 ln div def
} if /offset offset dup cvi sub def newpath 0 0 moveto rr 0 lineto
/lsize rr nlogs div def 0 1 nlogs { /x2 ed x2 offset ge { /y2 x2 offset
sub lsize mul def y2 rr le { y2 0 moveto y2 hashsize 1.2 mul lineto
} if } if } for stroke width 0.6 mul setlinewidth newpath 0 1 nlogs
{ /x2 ed 2 1 9 { ln 10 ln div x2 add /xx2 ed xx2 offset ge { /y2 xx2
offset sub lsize mul def y2 rr le { y2 0 moveto y2 hashsize 0.8 mul
lineto } if } if } for } for stroke grestore } def

 /linaxis{ gsw /offset ed /hashsize ed /perdec ed /numdec ed p2 p1
x1 y1 translate /y2 y2 y1 sub def /x2 x2 x1 sub def y2 x2 atan rotate
/rr x2 dup mul y2 dup mul add sqrt def newpath 0 0 moveto rr 0 lineto
/x1 rr numdec perdec mul div def /y1 rr numdec div def /offset offset
x1 mul def 0 1 numdec { y1 mul offset sub dup 0 ge { dup rr le { dup
0 moveto hashsize 1.2 mul lineto } if } if } for stroke width 0.6 mul
setlinewidth newpath offset cvi 1 numdec perdec mul offset add { x1
mul offset sub dup 0 ge { dup rr le { dup 0 moveto hashsize 0.8 mul
lineto } if } if } for stroke grestore } def
 
@fedspecial end TeXDict begin
40258437 52099154 1000 600 600
(/home/hjf/fivepoint/figures/Jaxo_tmp.dvi) @start end
%%EndProlog
%%BeginSetup
%%Feature: *Resolution 600dpi
TeXDict begin
 end
%%EndSetup
TeXDict begin 1 0 bop 0 TeXcolorgray Black Black 0 TeXcolorgray
0 TeXcolorgray 0 TeXcolorgray 1 TeXcolorgray 1 TeXcolorgray
1 TeXcolorgray 748 1415 2264 1412 v 1 TeXcolorgray 0
TeXcolorgray 684 1141 a @beginspecial @setspecial
Black 48 0 add 100 0 add 48 0 add 4 0 add 2.5 1.0 line showpage
 
@endspecial
@beginspecial @setspecial
Black 48 0 add 4 0 add 240 0 add 100 0 add 2.5 1.0 line showpage
 
@endspecial @beginspecial
@setspecial
Black 240 0 add 100 0 add 240 0 add 4 0 add 2.5 1.0 line showpage
 
@endspecial @beginspecial @setspecial
Black 240 0 add 4 0 add 48 0 add 100 0 add 2.5 1.0 line showpage
 
@endspecial
@beginspecial @setspecial
Black 144 0 add 52 0 add 144 0 add 4 0 add 2.5 1.0 line showpage
 
@endspecial @beginspecial
@setspecial
Black 240 0 add 100 0 add 272 0 add 132 0 add 2.5 1.0 line showpage
 
@endspecial @beginspecial @setspecial
Black 240 0 add 4 0 add 272 0 add -28 0 add 2.5 1.0 line showpage
 
@endspecial
@beginspecial @setspecial
Black 48 0 add 4 0 add 16 0 add -28 0 add 2.5 1.0 line showpage
 
@endspecial @beginspecial
@setspecial
Black 48 0 add 100 0 add 16 0 add 132 0 add 2.5 1.0 line showpage
 
@endspecial 1 TeXcolorgray 1 TeXcolorgray
745 3 2271 4 v 745 1416 4 1415 v 3012 1416 V 745 1418
2271 4 v 0 TeXcolorgray 0 TeXcolorgray 0 TeXcolorgray
eop end
%%Trailer

userdict /end-hook known{end-hook}if
%%EOF
